<svg xmlns="http://www.w3.org/2000/svg" xmlns:xlink="http://www.w3.org/1999/xlink" width="422" height="523" viewBox="0 0 422 523">
  <defs>
    <clipPath id="clip-path">
      <rect id="Rectangle_1" data-name="Rectangle 1" width="422" height="523"/>
    </clipPath>
  </defs>
  <g id="badge-team-player" clip-path="url(#clip-path)">
    <g id="Group_6" data-name="Group 6" transform="translate(-600)">
      <g id="medal" transform="translate(554)">
        <path id="Path_1" data-name="Path 1" d="M256,135H241v60h30V135Z" fill="#61729b"/>
        <path id="Path_2" data-name="Path 2" d="M256,135h15v60H256Z" fill="#47568c"/>
        <path id="Path_3" data-name="Path 3" d="M188.013,135,306.127,0H466L347.88,135Z" fill="#555089"/>
        <path id="Path_4" data-name="Path 4" d="M256,57.294,205.873,0H46L164.12,135H323.987Z" fill="#3d70b9"/>
        <path id="Path_10" data-name="Path 10" d="M256,120H121v30H391V120Z" fill="#fabe2c"/>
        <path id="Path_11" data-name="Path 11" d="M256,124H125v22H387V124Z" fill="none" stroke="#fff" stroke-width="2"/>
        <g id="medal_1_" data-name="medal (1)" transform="translate(20.76 46.136)">
          <path id="Path_18" data-name="Path 18" d="M413.1,296.3c0,15.28-15.424,28.322-19.194,42.4-3.9,14.572,2.831,33.564-4.564,46.331-7.5,12.94-27.368,16.565-37.868,27.079s-14.139,30.372-27.079,37.868c-12.767,7.38-31.744.664-46.317,4.564-14.1,3.755-27.137,19.179-42.4,19.179s-28.322-15.424-42.4-19.194c-14.572-3.9-33.564,2.831-46.331-4.564C134,442.475,130.38,422.6,119.866,412.1S89.493,397.963,82,385.023c-7.38-12.767-.664-31.744-4.564-46.317-3.769-14.081-19.194-27.137-19.194-42.4s15.424-28.322,19.194-42.4c3.9-14.572-2.831-33.564,4.564-46.331,7.5-12.94,27.368-16.565,37.868-27.079S134,150.117,146.945,142.622c12.767-7.38,31.744-.664,46.317-4.564,14.081-3.769,27.137-19.194,42.4-19.194s28.322,15.424,42.4,19.194c14.572,3.9,33.564-2.831,46.331,4.564,12.94,7.5,16.565,27.368,27.079,37.868s30.372,14.139,37.868,27.079c7.38,12.767.664,31.744,4.564,46.317C397.679,267.982,413.1,281.023,413.1,296.3Z" fill="#fdbc4b"/>
          <g id="Group_4" data-name="Group 4" transform="translate(58.254 131.674)">
            <path id="Path_19" data-name="Path 19" d="M171.008,282.6H136.635a16.026,16.026,0,0,1-15.973-15.973l.116-1.1v-.246a16.686,16.686,0,0,1,16.7-16.825h78.191c10.355,0,19.5-7.683,20.118-18.039a19.107,19.107,0,0,0-19.021-19.988h-82.8c-9.142,0-15.973-7.683-15.843-16.825v-.491a17.067,17.067,0,0,1,.924-5.228c-10.687,9.936-29.722,13.735-37.03,26.372-7.38,12.767-.664,31.744-4.564,46.331-3.769,14.1-19.194,27.137-19.194,42.4S73.68,331.315,77.45,345.4c3.9,14.572-2.831,33.564,4.564,46.317,7.5,12.94,27.368,16.565,37.868,27.079s14.139,30.387,27.079,37.868c12.767,7.38,31.744.664,46.331,4.564,4.52,1.213,8.94,3.654,13.359,6.369h32.1c10.24,0,19.382-7.683,19.988-17.923a19.041,19.041,0,0,0-19.021-19.988l-91.666-.029A18.973,18.973,0,0,1,129.1,409.669c.534-10.254,9.749-17.952,20.017-17.952H190.98a19,19,0,0,0-.549-37.983h-60.21a15.829,15.829,0,0,1-15.843-15.959v-1.343c-1.43-20.2,22.386-15.973,55.531-15.973,10.355,0,19.5-7.683,20.118-17.923A19.034,19.034,0,0,0,171.008,282.6Z" transform="translate(-58.256 -138.394)" fill="#f8b546"/>
            <path id="Path_20" data-name="Path 20" d="M133.568,173.307a14.959,14.959,0,0,1,7.727-2.34h86.669c10.24,0,19.382-7.683,19.988-17.923a19.032,19.032,0,0,0-19.021-19.988H213.954c-4.419,2.715-8.839,5.17-13.359,6.369-14.572,3.9-33.564-2.831-46.317,4.564C144.328,149.751,139.865,162.793,133.568,173.307Z" transform="translate(-65.588 -133.056)" fill="#f8b546"/>
          </g>
          <ellipse id="Ellipse_3" data-name="Ellipse 3" cx="135" cy="136" rx="135" ry="136" transform="translate(100.24 159.864)" fill="none" stroke="#fff" stroke-width="8"/>
          <g id="Group_5" data-name="Group 5" transform="translate(126.784 202.933)">
            <path id="Path_23" data-name="Path 23" d="M181.258,378.42c1.1-8.824,3.278-1.6,3.12-14.442a30.178,30.178,0,0,0-1.054-7.914c-.246-.087-.491-.173-.722-.274a16.55,16.55,0,0,0-4.058,6.181c-3.134,8.189-.361,8.174.087,15.684.029.347-.058.679-.043,1.011a126.119,126.119,0,0,1-12.955-21.158c.607-9.445,8.767-9.373,7.568-23.931-.217-.144-.433-.274-.65-.419a14.868,14.868,0,0,0-5.141,4.708c-5.055,7.265-1.675,7.842-3.668,15.526a127.242,127.242,0,0,1-7.582-22.8c2.181-8.954,10.586-6.99,12.074-21.115l-.549-.549a13.809,13.809,0,0,0-5.777,3.12c-6.831,6.037-2.888,7.423-6.759,13.807a128.452,128.452,0,0,1-2.282-23.4c3.712-8.68,11.886-5.026,15.728-17.793-.13-.217-.274-.433-.4-.664a12.209,12.209,0,0,0-5.979,1.531c-7.712,4.174-3.755,6.427-9.258,11.655A129.016,129.016,0,0,1,155.8,274.3c5.82-8.853,12.435-2.21,18.645-14.2-.087-.246-.173-.491-.246-.751a12.053,12.053,0,0,0-10.817,2.672c-1.473,1.488-2.614,3.784-4.116,5.127a9.38,9.38,0,0,1-2.094,1.415,128.385,128.385,0,0,1,8.059-22.025c.072.087.13.173.2.26,8.853-9.07,5.647.4,15.829-5.849a17.977,17.977,0,0,0,4.694-4.159c-.014-.274-.043-.534-.058-.809a9.653,9.653,0,0,0-5.271-1.329c-8.478.246-5.7,5-12.435,6.4.029-.173.029-.318.058-.491A129.74,129.74,0,0,1,189.173,212a130.258,130.258,0,0,0-20.479,25.433,30.508,30.508,0,0,0,.173-6.6c-.578-3.6-1.56-7.091-4.232-10.009-.289.1-.578.217-.867.318-4.477,7.857-5.17,16.681.462,24.1a129.692,129.692,0,0,0-8.117,18.992c-1.054-6.066-3.322-12.1-8.16-15.829-.26.159-.505.318-.765.491-2.369,8.9-.751,18.457,6.2,24.509a130.981,130.981,0,0,0-3.5,19.613,51.019,51.019,0,0,0-2.874-5.6c-2.441-3.466-5.141-6.7-9.113-8.781-.217.217-.419.433-.635.635-.144,9.59,3.856,18.818,11.973,23.7a132.368,132.368,0,0,0,.939,19.569c-4.044-5.156-9.1-10.153-15.526-12.218-.159.26-.318.505-.477.765,2.21,9.676,8.232,18.053,17.663,21.664a133.353,133.353,0,0,0,5.271,18.8c-8-6.384-13.98-8.637-18.746-9.272l-.3.867a37.315,37.315,0,0,0,11.352,13.561A30.919,30.919,0,0,0,161.2,361.58a132.334,132.334,0,0,0,9.546,17.288c-9.936-4.752-16.652-5.82-21.548-5.6-.029.3-.058.621-.1.924a38.472,38.472,0,0,0,23.2,13.644,24.417,24.417,0,0,0,5.113.332,134.911,134.911,0,0,0,9.142,10.485l5.17-5.17A126.528,126.528,0,0,1,181.287,382.1a13.688,13.688,0,0,1-.029-3.68Z" transform="translate(-134.176 -212)" fill="#ec9922"/>
            <path id="Path_24" data-name="Path 24" d="M346.3,351.622a131.442,131.442,0,0,0,5.271-18.8c9.445-3.625,15.468-12.016,17.663-21.664-.159-.26-.318-.505-.477-.765-6.441,2.065-11.5,7.062-15.526,12.218a132.562,132.562,0,0,0,.939-19.569c8.117-4.882,12.132-14.11,11.973-23.7-.217-.217-.419-.433-.635-.635-5.69,2.975-9.286,8.55-11.973,14.385a130.985,130.985,0,0,0-3.5-19.613c6.918-5.907,8.564-15.612,6.2-24.509-.26-.159-.505-.332-.765-.491-4.838,3.726-7.106,9.763-8.16,15.829a131.284,131.284,0,0,0-8.117-18.992c.159-.2.3-.4.462-.607a14.02,14.02,0,0,0,2.441-4.752,19.964,19.964,0,0,0,1.155-5.416,25.93,25.93,0,0,0-3.6-13.316c-.289-.1-.578-.217-.867-.318-4.391,4.795-4.434,10.5-4.058,16.609a131.766,131.766,0,0,0-20.479-25.433,129.613,129.613,0,0,1,20.927,28.567c.029.159.043.318.058.491-3.755-.78-4.275-2.975-7.308-5a10.518,10.518,0,0,0-10.384-.087c-.014.274-.043.534-.058.809,2.065,2.643,6.355,5.835,9.59,6.109,5.777.419,4.925-2.253,10.918,3.885.072-.087.13-.173.2-.26a129.269,129.269,0,0,1,8.059,22.025c-6.355-3.307-2.73-6.9-11.222-9.185a10.772,10.772,0,0,0-5.791-.029c-.087.246-.159.505-.246.751,6.932,13.4,11.8,3.885,18.645,14.2a129.18,129.18,0,0,1,2.845,22.877c-5.387-5.113-1.386-7.395-9.258-11.655a12.209,12.209,0,0,0-5.979-1.531c-.13.217-.274.433-.4.664,1.285,4.3,4.752,8.81,7.236,10.355,4.723,2.888,5.748,1.025,8.492,7.438a128.449,128.449,0,0,1-2.282,23.4c-3.871-6.384.072-7.77-6.759-13.807a13.649,13.649,0,0,0-5.777-3.12c-.188.188-.361.361-.534.549,1.5,14.2,9.907,12.218,12.074,21.115a127.627,127.627,0,0,1-7.582,22.8c-1.95-7.539,1.415-8.232-3.668-15.526a15.275,15.275,0,0,0-5.141-4.708c-.217.144-.433.274-.65.419-.39,4.737,1.112,11.106,2.8,14.009,2.686,4.492,4.376,4.058,4.752,9.922a127.081,127.081,0,0,1-12.955,21.158c.043-5.286,1.083-4.708,1.386-9.344a18.7,18.7,0,0,0-5.4-13.533c-.246.087-.491.173-.722.274-4.1,14.2,3.076,18.154,2.022,26.083A130.956,130.956,0,0,1,311.7,393.577l5.17,5.17a134.908,134.908,0,0,0,9.142-10.485c11.554-.087,21.245-5.517,28.307-13.98-.029-.3-.058-.621-.1-.924-4.9-.217-11.612.867-21.548,5.6a131.572,131.572,0,0,0,9.546-17.288c10.312-1.935,18.457-8.983,23.137-18.428l-.3-.867C360.28,342.986,354.3,345.239,346.3,351.622Z" transform="translate(-151.458 -212.008)" fill="#ec9922"/>
          </g>
        </g>
      </g>
    </g>
    <g id="teamwork" transform="translate(127.5 261.5)">
      <g id="Group_352" data-name="Group 352" transform="translate(9.99)">
        <g id="Group_351" data-name="Group 351">
          <path id="Path_396" data-name="Path 396" d="M55.17,0C41.843,0,31,11.166,31,24.492a24.17,24.17,0,0,0,48.34,0C79.34,11.166,68.5,0,55.17,0Z" transform="translate(-31)" fill="#fff"/>
        </g>
      </g>
      <g id="Group_354" data-name="Group 354" transform="translate(0 48.662)">
        <g id="Group_353" data-name="Group 353">
          <path id="Path_397" data-name="Path 397" d="M57.766,151a33.654,33.654,0,0,1-47.213,0A33.988,33.988,0,0,0,0,175.17,4.831,4.831,0,0,0,4.834,180h58.33A4.831,4.831,0,0,0,68,175.17,33.7,33.7,0,0,0,57.766,151Z" transform="translate(0 -151)" fill="#fff"/>
        </g>
      </g>
      <g id="Group_356" data-name="Group 356" transform="translate(106.67)">
        <g id="Group_355" data-name="Group 355">
          <path id="Path_398" data-name="Path 398" d="M355.17,0C341.843,0,331,11.166,331,24.492a24.17,24.17,0,0,0,48.34,0C379.34,11.166,368.5,0,355.17,0Z" transform="translate(-331)" fill="#fff"/>
        </g>
      </g>
      <g id="Group_358" data-name="Group 358" transform="translate(97.002 48.662)">
        <g id="Group_357" data-name="Group 357">
          <path id="Path_399" data-name="Path 399" d="M358.444,151a33.654,33.654,0,0,1-47.213,0A33.7,33.7,0,0,0,301,175.17,4.831,4.831,0,0,0,305.834,180h58.33A4.831,4.831,0,0,0,369,175.17,33.988,33.988,0,0,0,358.444,151Z" transform="translate(-301 -151)" fill="#fff"/>
        </g>
      </g>
      <g id="Group_360" data-name="Group 360" transform="translate(58.33 87.334)">
        <g id="Group_359" data-name="Group 359">
          <path id="Path_400" data-name="Path 400" d="M205.17,271a24.17,24.17,0,1,0,24.17,24.17A24.2,24.2,0,0,0,205.17,271Z" transform="translate(-181 -271)" fill="#fff"/>
        </g>
      </g>
      <g id="Group_362" data-name="Group 362" transform="translate(48.662 135.674)">
        <g id="Group_361" data-name="Group 361">
          <path id="Path_401" data-name="Path 401" d="M208.444,421a33.654,33.654,0,0,1-47.213,0A34.448,34.448,0,0,0,151,445.492a4.831,4.831,0,0,0,4.834,4.834h58.008a4.831,4.831,0,0,0,4.834-4.834A34.448,34.448,0,0,0,208.444,421Z" transform="translate(-151 -421)" fill="#fff"/>
        </g>
      </g>
      <g id="Group_364" data-name="Group 364" transform="translate(67.187 19.979)">
        <g id="Group_363" data-name="Group 363">
          <path id="Path_402" data-name="Path 402" d="M238.3,66.509c0-.959.2-1.86.283-2.8a64.64,64.64,0,0,0-29.57,0c.079.939.283,1.841.283,2.8a33.667,33.667,0,0,1-.811,7.2,54.678,54.678,0,0,1,30.626,0A33.734,33.734,0,0,1,238.3,66.509Z" transform="translate(-208.482 -61.996)" fill="#fff"/>
        </g>
      </g>
      <g id="Group_366" data-name="Group 366" transform="translate(111.939 87.334)">
        <g id="Group_365" data-name="Group 365">
          <path id="Path_403" data-name="Path 403" d="M370.785,271a53.082,53.082,0,0,1-22.412,38.636c-.309.648-.676,1.259-1.024,1.884l.925.9a44.14,44.14,0,0,1,4.764,5.665A62.682,62.682,0,0,0,380.448,271Z" transform="translate(-347.349 -271)" fill="#fff"/>
        </g>
      </g>
      <g id="Group_368" data-name="Group 368" transform="translate(19.962 87.334)">
        <g id="Group_367" data-name="Group 367">
          <path id="Path_404" data-name="Path 404" d="M94.017,309.636A53.084,53.084,0,0,1,71.606,271H61.943a62.682,62.682,0,0,0,27.411,47.089,44.193,44.193,0,0,1,4.764-5.665l.925-.9C94.693,310.9,94.327,310.285,94.017,309.636Z" transform="translate(-61.943 -271)" fill="#fff"/>
        </g>
      </g>
    </g>
  </g>
</svg>
