<svg xmlns="http://www.w3.org/2000/svg" width="200" height="118" viewBox="0 0 200 118">
  <defs>
    <style>
      .cls-1 {
        fill: #fff;
        stroke: #bababa;
        stroke-width: 6px;
        stroke-dasharray: 1 3;
      }

      .cls-2 {
        stroke: none;
      }

      .cls-3 {
        fill: none;
      }
    </style>
  </defs>
  <g id="Rectangle_2843" data-name="Rectangle 2843" class="cls-1">
    <rect class="cls-2" width="200" height="118" rx="3"/>
    <rect class="cls-3" x="3" y="3" width="194" height="112"/>
  </g>
</svg>
