<svg id="Group_130" data-name="Group 130" xmlns="http://www.w3.org/2000/svg" width="25.25" height="18.036" viewBox="0 0 25.25 18.036">
  <path id="Path_156" data-name="Path 156" d="M24.348,68.267H.9a.9.9,0,0,0-.9.9V85.4a.9.9,0,0,0,.9.9H24.348a.9.9,0,0,0,.9-.9V69.169A.9.9,0,0,0,24.348,68.267Zm-1.479,1.8L12.625,77.95,2.381,70.071ZM23.446,84.5H1.8V71.9l10.272,7.9a.9.9,0,0,0,1.1,0l10.272-7.9Z" transform="translate(0 -68.267)" fill="#5d3195"/>
</svg>
