<svg xmlns="http://www.w3.org/2000/svg" width="19" height="19" viewBox="0 0 19 19">
  <g id="ic_grid_on_24px" transform="translate(-2 -2)">
    <path id="Path_8058" data-name="Path 8058" d="M19.1,2H3.9A1.906,1.906,0,0,0,2,3.9V19.1A1.906,1.906,0,0,0,3.9,21H19.1A1.906,1.906,0,0,0,21,19.1V3.9A1.906,1.906,0,0,0,19.1,2ZM7.7,19.1H3.9V15.3H7.7Zm0-5.7H3.9V9.6H7.7Zm0-5.7H3.9V3.9H7.7Zm5.7,11.4H9.6V15.3h3.8Zm0-5.7H9.6V9.6h3.8Zm0-5.7H9.6V3.9h3.8Zm5.7,11.4H15.3V15.3h3.8Zm0-5.7H15.3V9.6h3.8Zm0-5.7H15.3V3.9h3.8Z" fill="#5d3195"/>
  </g>
</svg>
