<svg xmlns="http://www.w3.org/2000/svg" width="36.001" height="36" viewBox="0 0 36.001 36">
  <path id="prefix__social-media" d="M35.529,15.658,20.841.971a3.314,3.314,0,0,0-4.687,0L1.477,15.648l-.015.015a3.313,3.313,0,0,0,2.2,5.647h.685V32.121A3.883,3.883,0,0,0,8.234,36h5.745a1.055,1.055,0,0,0,1.055-1.055V26.473A1.772,1.772,0,0,1,16.8,24.7h3.389a1.772,1.772,0,0,1,1.77,1.77v8.473A1.055,1.055,0,0,0,23.017,36h5.745a3.883,3.883,0,0,0,3.879-3.879V21.315h.543a3.315,3.315,0,0,0,2.346-5.656Z" transform="translate(-0.497 0)" fill="#5d3195"/>
</svg>
