<svg xmlns="http://www.w3.org/2000/svg" width="15" height="21.001" viewBox="0 0 15 21.001">
    <path id="prefix__Forma_1" d="M.789 21A.806.806 0 0 1 0 20.18V3.938a.832.832 0 0 1 .231-.58l3-3.118A.776.776 0 0 1 3.79 0h10.421A.805.805 0 0 1 15 .82v19.36a.806.806 0 0 1-.789.821zm.79-16.722V19.36h11.843V1.641H4.117zm2.764 11.964a.821.821 0 0 1 0-1.641h6.315a.821.821 0 0 1 0 1.641zm.031-4.1a.82.82 0 1 1 0-1.641h6.254a.82.82 0 1 1 0 1.641zM6.32 7.8L5.263 6.7a.842.842 0 0 1 0-1.16.769.769 0 0 1 1.117 0l.5.517 1.741-1.809a.768.768 0 0 1 1.116 0 .842.842 0 0 1 0 1.16L7.436 7.8a.77.77 0 0 1-1.116 0z" data-name="Forma 1" style="fill:#6b6b6c"/>
</svg>
