<svg xmlns="http://www.w3.org/2000/svg" width="75.941" height="47.7" viewBox="0 0 75.941 47.7">
  <g id="Group_11" data-name="Group 11" transform="translate(788 312)">
    <g id="double-tick-indicator" transform="translate(-795 -312)">
      <g id="done-all" transform="translate(0 0)">
        <path id="Path_1" data-name="Path 1" d="M62.651,137.209l-4.984-4.984L35.241,154.651l4.984,4.984ZM77.6,126.225,40.225,163.958,25.274,149.007l-4.984,4.984,19.934,19.934,42.716-42.716ZM7,153.991l19.934,19.934,4.984-4.984L11.984,149.007Z" transform="translate(0 -126.225)" fill="#3fbc72"/>
      </g>
    </g>
  </g>
</svg>
