<svg xmlns="http://www.w3.org/2000/svg" width="17.92" height="14.662" viewBox="0 0 17.92 14.662">
  <path id="tv-24px" d="M17.291,3H2.629A1.634,1.634,0,0,0,1,4.629V14.4a1.634,1.634,0,0,0,1.629,1.629H6.7v.815a.817.817,0,0,0,.815.815H12.4a.817.817,0,0,0,.815-.815v-.815h4.073A1.627,1.627,0,0,0,18.912,14.4l.008-9.775A1.634,1.634,0,0,0,17.291,3Zm-.815,11.4H3.444a.817.817,0,0,1-.815-.815V5.444a.817.817,0,0,1,.815-.815H16.476a.817.817,0,0,1,.815.815v8.145A.817.817,0,0,1,16.476,14.4Z" transform="translate(-1 -3)" fill="#fff"/>
</svg>
