<svg xmlns="http://www.w3.org/2000/svg" width="12.204" height="15.532" viewBox="0 0 12.204 15.532">
  <g id="Group_25" data-name="Group 25" transform="translate(-1685.406 -407)">
    <g id="document" transform="translate(1634.206 407)">
      <g id="Group_18" data-name="Group 18" transform="translate(51.2)">
        <g id="Group_17" data-name="Group 17">
          <path id="Path_18" data-name="Path 18" d="M60.075,3.883a.555.555,0,0,1-.555-.555V0H52.864A1.664,1.664,0,0,0,51.2,1.664v12.2a1.664,1.664,0,0,0,1.664,1.664H61.74A1.664,1.664,0,0,0,63.4,13.868V3.883H60.075Z" transform="translate(-51.2)" fill="#fff"/>
        </g>
      </g>
      <g id="Group_20" data-name="Group 20" transform="translate(60.63 0.325)">
        <g id="Group_19" data-name="Group 19">
          <path id="Path_19" data-name="Path 19" d="M341.333,10V12.45h2.449Z" transform="translate(-341.333 -10.001)" fill="#fff"/>
        </g>
      </g>
    </g>
  </g>
</svg>
