<svg id="language" xmlns="http://www.w3.org/2000/svg" width="15.327" height="15.327" viewBox="0 0 15.327 15.327">
  <g id="Group_264" data-name="Group 264" transform="translate(3.601 4.101)">
    <g id="Group_263" data-name="Group 263">
      <path id="Path_691" data-name="Path 691" d="M120.844,137h-.192l-.359,1.8h.91Z" transform="translate(-120.293 -137)" fill="#fff"/>
    </g>
  </g>
  <g id="Group_266" data-name="Group 266" transform="translate(11.417 7.693)">
    <g id="Group_265" data-name="Group 265">
      <path id="Path_692" data-name="Path 692" d="M381.374,257a4.693,4.693,0,0,0,.737,1.3,4.74,4.74,0,0,0,.767-1.3Z" transform="translate(-381.374 -257)" fill="#fff"/>
    </g>
  </g>
  <g id="Group_268" data-name="Group 268" transform="translate(7.264 2.724)">
    <g id="Group_267" data-name="Group 267">
      <path id="Path_693" data-name="Path 693" d="M249.379,91H243.8l1.163,9.33a1.394,1.394,0,0,1-.333,1.022l-1.969,2.25h6.716a1.349,1.349,0,0,0,1.347-1.347V92.377A1.374,1.374,0,0,0,249.379,91Zm0,4.969h-.12a5.7,5.7,0,0,1-1.082,1.967c.33.3.683.549,1.033.826a.449.449,0,0,1-.561.7c-.381-.3-.739-.553-1.1-.881-.358.328-.685.58-1.066.881a.449.449,0,0,1-.561-.7c.351-.277.673-.524,1-.826a5.668,5.668,0,0,1-1.052-1.967h-.12a.449.449,0,0,1,0-.9H247.1v-.449a.449.449,0,1,1,.9,0v.449h1.377a.449.449,0,1,1,0,.9Z" transform="translate(-242.663 -91)" fill="#fff"/>
    </g>
  </g>
  <g id="Group_270" data-name="Group 270">
    <g id="Group_269" data-name="Group 269">
      <path id="Path_694" data-name="Path 694" d="M7.309,1.18A1.349,1.349,0,0,0,5.973,0H1.347A1.349,1.349,0,0,0,0,1.347v9.939a1.349,1.349,0,0,0,1.347,1.347H8.428c.131-.15.241-.243.245-.439C8.675,12.145,7.315,1.229,7.309,1.18Zm-1.8,7.4a.449.449,0,0,1-.528-.352L4.691,6.8H3.421L3.134,8.231a.449.449,0,0,1-.881-.176l.9-4.49a.449.449,0,0,1,.44-.361H4.52a.449.449,0,0,1,.44.361l.9,4.49A.449.449,0,0,1,5.506,8.583Z" fill="#fff"/>
    </g>
  </g>
  <g id="Group_272" data-name="Group 272" transform="translate(5.247 13.531)">
    <g id="Group_271" data-name="Group 271">
      <path id="Path_695" data-name="Path 695" d="M175.261,452l.077.616a1.358,1.358,0,0,0,.776,1.043l1.508-1.66Z" transform="translate(-175.261 -452)" fill="#fff"/>
    </g>
  </g>
</svg>
