<svg xmlns="http://www.w3.org/2000/svg" width="16.558" height="16.554" viewBox="0 0 16.558 16.554">
    <path id="prefix__Forma_1" fill="#472179" d="M.872 13.416a2.976 2.976 0 0 1 0-4.209l3.369-3.368a2.978 2.978 0 0 1 4.211 0 .6.6 0 1 1-.842.842 1.787 1.787 0 0 0-2.526 0l-3.37 3.368a1.786 1.786 0 1 0 2.527 2.525l1.684-1.684a.6.6 0 1 1 .842.842l-1.683 1.684a2.978 2.978 0 0 1-4.211 0zM5.5 8.786a.6.6 0 0 1 .842-.842 1.787 1.787 0 0 0 2.526 0l3.706-3.7a1.786 1.786 0 0 0-2.527-2.525L8.031 3.734a.6.6 0 1 1-.842-.842L9.21.872a2.977 2.977 0 0 1 4.211 4.209l-3.706 3.7a2.978 2.978 0 0 1-4.211 0z" data-name="Forma 1" transform="rotate(10.02 1.24 14.15)"/>
</svg>
