<svg xmlns="http://www.w3.org/2000/svg" viewBox="0 0 300 300" width="300" height="300">
	<defs>
		<clipPath clipPathUnits="userSpaceOnUse" id="cp1">
			<path d="M0 0L300 0L300 300L0 300Z" />
		</clipPath>
	</defs>
	<style>
		tspan { white-space:pre }
		.shp0 { fill: #3e56ad } 
		.shp1 { fill: #ffffff } 
	</style>
	<g id="Page 1" clip-path="url(#cp1)">
		<path id="Path 1" class="shp0" d="M0 267.29L175.94 297.74L175.94 0L0 30.45L0 267.29ZM186.09 241.39C189.48 242.13 190.7 242.69 193.1 243.02C195.73 243.4 198.38 243.59 201.04 243.6C205.14 243.58 209.23 243.15 213.24 242.29C217.33 241.47 221.25 239.94 224.81 237.77C228.32 235.63 231.26 232.69 233.44 229.22C235.84 225.15 237.02 220.48 236.84 215.76L236.84 121.8L186.09 121.8L186.09 241.39ZM203.14 104.68C206.73 104.71 210.3 103.99 213.61 102.57C220.08 99.81 225.23 94.66 227.97 88.19C230.78 81.49 230.78 73.94 227.96 67.23C225.21 60.75 220.06 55.59 213.58 52.85C210.27 51.43 206.71 50.71 203.1 50.74C199.52 50.71 195.98 51.43 192.69 52.85C190.24 53.9 189.47 55.26 186.09 56.9L186.09 98.51C189.48 100.16 190.24 101.52 192.69 102.57C195.99 104 199.55 104.71 203.14 104.68ZM246.99 138.72L246.99 219.92L260.53 219.92C265.18 219.9 269.81 219.47 274.37 218.6C278.96 217.8 283.39 216.25 287.48 214.03C291.35 211.93 294.69 208.97 297.26 205.4C299.95 201.44 301.31 196.73 301.12 191.93L301.12 138.72L246.99 138.72ZM254.88 113.71C257.35 116.18 260.26 118.13 263.47 119.5C270.17 122.31 277.72 122.31 284.44 119.5C290.91 116.74 296.07 111.6 298.81 105.12C301.62 98.42 301.62 90.87 298.81 84.16C296.06 77.68 290.91 72.52 284.44 69.78C277.74 66.97 270.19 66.97 263.47 69.78C257 72.54 251.84 77.68 249.09 84.16C246.29 90.86 246.29 98.41 249.09 105.12C250.46 108.32 252.43 111.24 254.88 113.71Z" />
		<path id="Path 2" class="shp1" d="M128.57 91.35L47.37 96.3L47.37 115.02L77.82 113.8L77.82 200.64L98.12 201.82L98.12 113L128.57 111.65L128.57 91.35Z" />
	</g>
</svg>