<svg xmlns="http://www.w3.org/2000/svg" width="31.621" height="31.622" viewBox="0 0 31.621 31.622">
  <g id="paintbrush" transform="translate(-0.005 0)">
    <path id="Path_14" data-name="Path 14" d="M173.933,219.89a7.9,7.9,0,0,1,5.349,5.233c.7-.562,1.567-1.261,2.518-2.058l-5.838-5.838C175.174,218.234,174.484,219.147,173.933,219.89Z" transform="translate(-163.186 -203.811)"/>
    <path id="Path_15" data-name="Path 15" d="M239.527.022c-4.484.471-11.144,8.437-13.964,11.934l6.094,6.094c3.431-2.958,11.351-10.038,11.591-14.535A3.253,3.253,0,0,0,239.527.022Z" transform="translate(-211.628 0)"/>
    <path id="Path_16" data-name="Path 16" d="M3.245,288.152c-2.7,3.374-.44,6.385-2.986,9.07a.927.927,0,0,0,.308,1.489c4.217,1.805,9.527.633,11.988-1.962,2.314-2.44,3.03-6.641.222-9.449-2.706-2.706-7.244-2.008-9.533.852Z" transform="translate(0 -267.96)"/>
  </g>
</svg>
