<?xml version="1.0" encoding="utf-8"?>
<!-- Generator: Adobe Illustrator 15.0.0, SVG Export Plug-In . SVG Version: 6.00 Build 0)  -->
<!DOCTYPE svg PUBLIC "-//W3C//DTD SVG 1.1//EN" "http://www.w3.org/Graphics/SVG/1.1/DTD/svg11.dtd">
<svg version="1.1" id="Layer_1" xmlns="http://www.w3.org/2000/svg" xmlns:xlink="http://www.w3.org/1999/xlink" x="0px" y="0px"
	 width="122px" height="99px" viewBox="0 0 122 99" enable-background="new 0 0 122 99" xml:space="preserve">
<rect fill="none" width="122" height="99"/>
<g id="iPad_1">
	<g id="ic-img" transform="translate(0 -54.821)">
		<g id="Group_1" transform="translate(0 54.821)">
			<path id="Path_1" d="M120.206,3.016c-1.897-1.964-4.522-3.055-7.252-3.016H10.269c-2.73-0.039-5.355,1.053-7.253,3.016
				C1.053,4.913-0.039,7.538,0,10.268v78.041c-0.04,2.73,1.052,5.355,3.016,7.254c1.897,1.963,4.522,3.055,7.253,3.016h102.687
				c5.664-0.018,10.251-4.605,10.269-10.27V10.268C123.263,7.538,122.17,4.913,120.206,3.016z M115.006,88.309
				c-0.013,1.129-0.925,2.04-2.053,2.053H10.269c-1.128-0.014-2.039-0.925-2.053-2.053V10.267c0.015-1.128,0.925-2.039,2.053-2.053
				h102.687c1.128,0.015,2.038,0.926,2.052,2.053v78.042H115.006z"/>
			<path id="Path_2" d="M28.753,41.074C35.529,41.045,41,35.529,40.971,28.753c-0.028-6.777-5.545-12.247-12.321-12.219
				s-12.247,5.545-12.218,12.321c0.014,3.236,1.305,6.336,3.593,8.625C22.313,39.832,25.472,41.132,28.753,41.074z"/>
			<path id="Path_3" d="M47.238,59.557L36.967,49.289L16.43,69.825v12.323h90.364V53.396l-26.7-26.7L47.238,59.557z"/>
		</g>
	</g>
</g>
</svg>
