<svg xmlns="http://www.w3.org/2000/svg" xmlns:xlink="http://www.w3.org/1999/xlink" width="208.932" height="151.235" viewBox="0 0 208.932 151.235">
  <defs>
    <clipPath id="clip-path">
      <rect id="Rectangle_332" data-name="Rectangle 332" width="63.886" height="47.139" fill="#fff"/>
    </clipPath>
  </defs>
  <g id="Group_664" data-name="Group 664" transform="translate(-4.492 -5.106)">
    <g id="Group_1" data-name="Group 1" transform="translate(4.999 5.607)">
      <g id="blackboard_2_" data-name="blackboard (2)" transform="translate(0 0)">
        <path id="Path_491" data-name="Path 491" d="M209.978,39.153a1.212,1.212,0,0,0-.853-1.2,9.087,9.087,0,0,0-6.056.664c-28.918-1.054-163.7-6.627-195.947-7.013a1.223,1.223,0,0,0,0,2.444c65.489,4.146,131.274,5.21,196.843,7.764a1.341,1.341,0,0,0,1.261-.654,8.16,8.16,0,0,0,1.518-.077c.176,0,.35-.016.524-.023-.631,45.856-1.947,91.793-1.329,137.651a1.484,1.484,0,0,0-.761-.182c-12.663.372-25.294.117-37.916-.38-.177-.31-.342-.62-.52-.93-.326-.566-1.126-.069-.862.5.058.124.124.248.179.372-20.091-.816-40.16-2.212-60.293-2.65-33.545-.729-66.378,1.457-99.856-2.189.055-1.39.087-2.786.138-4.177q5.8-.248,11.578-.814a.562.562,0,0,0,.5-.451c59.7,4.292,120.819,5.086,180.527,1.276,1.016-.062,1.036-1.616,0-1.6-.453.009-.906.014-1.36.023a.4.4,0,0,0,.214-.356c-.922-39.677-2.062-78.629,2.6-118.172.164-1.4-2.031-1.388-2.194,0-4.6,38.98-7.009,79.3-1.338,118.3a.356.356,0,0,0,.154.239c-6.231.119-18.669.31-18.669.31l-31.046.341s-87.564-.164-131.57-1.852c-.582-.022-.728.558-.514.957-2.951.171-5.9.393-8.837.69.062-1.709.1-3.424.15-5.135a23.4,23.4,0,0,0,6.768-.827c.584-.166.322-.959-.243-.882a50.146,50.146,0,0,1-6.488.454c.085-2.769.095-5.553.164-8.324a9,9,0,0,0,2.465-.6.466.466,0,0,0-.248-.9c-.744.141-1.469.235-2.194.323.071-2.981.077-5.973.131-8.957,1.113.054,2.226.1,3.337.086a.566.566,0,0,0,0-1.131c-1.105-.019-2.214.031-3.323.085.041-2.357.038-4.725.071-7.086,1.144-.186,2.291-.358,3.426-.593.587-.124.466-1.137-.143-1.062-1.1.136-2.183.334-3.271.514.047-3.646.045-7.3.071-10.946,1.316-.071,2.635-.174,3.922-.354.62-.087.474-1.124-.148-1.095-1.247.062-2.51.2-3.767.372.014-2.026,0-4.052.012-6.078a16.293,16.293,0,0,1,3.145-.364.593.593,0,0,0,.158-1.159,5.186,5.186,0,0,0-3.306.026c.012-3.515-.044-7.027-.047-10.544a25.814,25.814,0,0,0,3.194-.1.657.657,0,0,0,0-1.314,25.922,25.922,0,0,0-3.2-.1c0-2.617-.043-5.231-.054-7.849a7.667,7.667,0,0,0,3.668-.716c.773-.376.226-1.589-.577-1.365a12.691,12.691,0,0,1-3.1.474c-.006-1.35-.027-2.7-.034-4.05a11.38,11.38,0,0,1,3.886-.526.558.558,0,0,0,.148-1.095,5.672,5.672,0,0,0-4.045.29c-.038-6.632-.111-13.255-.182-19.879,1.167.024,2.335.034,3.493-.041a.549.549,0,0,0,0-1.1c-1.162-.075-2.333-.062-3.505-.04-.024-2.143-.077-4.274-.1-6.416a14.938,14.938,0,0,0,4.384-.6.558.558,0,0,0-.3-1.074,20.716,20.716,0,0,1-4.109.421c-.036-2.743-.1-5.475-.133-8.217,1.835-.105,3.668-.116,5.531-.05.62.022.789-1.006.15-1.111a20.878,20.878,0,0,0-5.7-.062c-.044-3.015-.1-6.023-.148-9.035a.583.583,0,0,0,.382.171c7.092.23,14.191.18,21.284.033a.666.666,0,0,0,0-1.33c-7.092-.148-14.193-.2-21.284.033a.587.587,0,0,0-.4.178c-.034-2.137-.055-4.28-.1-6.41a.749.749,0,0,0-1.5,0c-.144,5.541-.253,11.109-.372,16.671-.255.047-.51.081-.765.131-.658.133-.372,1.1.274.992.156-.025.31-.016.466-.038-.056,2.684-.124,5.358-.179,8.043a.547.547,0,0,0-.022.98c-.043,2.3-.105,4.595-.15,6.9a.58.58,0,0,0-.017.726Q3.3,84.879,3.174,102.473a.62.62,0,0,0,0,1.127c-.1,16.2-.068,32.4.27,48.551-.2-.016-.4.017-.6-.01-.571-.074-.711.924-.137,1.012.248.039.5.055.755.084.062,2.831.062,5.673.142,8.5a.62.62,0,0,0,.025.8c.111,3.9.213,7.793.36,11.68a.93.93,0,0,0,1.5.718c.066.039.092.115.174.136,13.224,3.473,40.618,4.6,40.618,4.6l13-.17s28.994-1.254,43.175-1.005c18.059.316,54.1,2.389,54.1,2.389l12.549.55s24.033.664,36.077.252a1.464,1.464,0,0,0,1.283-.783.93.93,0,0,0,1.4-.77c1.917-46.651,1.788-93.442,2.4-140.127A1.34,1.34,0,0,0,209.978,39.153ZM175.46,167.879l-26.795.288Z" transform="translate(-2.336 -31.608)" fill="#fff" stroke="#fff" stroke-width="1"/>
        <path id="Path_492" data-name="Path 492" d="M196.068,31.534c-15.738,4.447-28.766.518-44.286.6-13.29.071-25.355.59-38.852-.413-31.9-2.372-63.956-3.95-95.956-3.584a.663.663,0,0,0-.64.854,1.085,1.085,0,0,0-1.172,1.025c-2.289,39.415-5.141,80.756-.228,120.042a.483.483,0,0,0,.964,0c1.537-39.981-.832-79.985,1.409-120.042a1.048,1.048,0,0,0-.065-.443c34.238.752,68.39,1.669,102.527,4.552,13.926,1.178,27.857.062,41.629,1.3,12.672,1.137,22.815,1.974,35.272-1.7A1.14,1.14,0,0,0,196.068,31.534Z" transform="translate(-3.382 -15.685)" fill="#fff" stroke="#fff" stroke-width="1"/>
        <path id="Path_500" data-name="Path 500" d="M9.892,62.169c-.769-.273-1.56-.447-2.351-.642a.216.216,0,0,0-.115.417c.791.2,1.57.422,2.377.546a.166.166,0,0,0,.089-.321Z" transform="translate(-2.861 -19.219)" fill="#fff" stroke="#fff" stroke-width="1"/>
        <g id="Group_396" data-name="Group 396" transform="translate(27.397 63.496)">
          <g id="Group_68" data-name="Group 68" transform="translate(0 0)">
            <path id="Path_550" data-name="Path 550" d="M11.282-55.927q-.1,0-.074.124t.124.124a.332.332,0,0,1-.447-.05q-.248,0-.223.149t-.323.149v-.2h-.05a.143.143,0,0,1-.1-.05l-.4.3a3.822,3.822,0,0,1,.05.769,3.821,3.821,0,0,1-.05.769,1.15,1.15,0,0,1-.025.223.142.142,0,0,0,.074.174q0,1.141-.025,2.258T9.694-48.98a1.365,1.365,0,0,0-.074.422,1.365,1.365,0,0,1-.074.422.143.143,0,0,0-.1.05.143.143,0,0,0-.05.1,1.73,1.73,0,0,0,.074.3,1.466,1.466,0,0,1,.074.4,3.721,3.721,0,0,1-.124.893,3.575,3.575,0,0,0-.124.844,2.632,2.632,0,0,0,.025.3.2.2,0,0,0,.068.148.2.2,0,0,0,.156.05,1.235,1.235,0,0,0,.546-.149,1.522,1.522,0,0,0,.025.2.248.248,0,0,0,.124.2.513.513,0,0,0,.5-.3.513.513,0,0,1,.5-.3.5.5,0,0,1,.323.1.5.5,0,0,0,.323.1,2.051,2.051,0,0,0,.273-.025q.174-.025.074-.273h.695q-.05.248.05.273a.816.816,0,0,0,.2.025.714.714,0,0,0,.521-.223q.223-.223.323-.223l.1.1a.2.2,0,0,0,.149.05q.05,0,.149-.1t.1-.149l1.34.05a4.4,4.4,0,0,1,.571.1,1,1,0,0,0,.719-.05.886.886,0,0,0-.074.223.434.434,0,0,1-.124.223q.4,0,.3.124a.372.372,0,0,0-.1.223,2.681,2.681,0,0,0,.794-.2q.546-.2.645-.447.1,0,.174.174a.806.806,0,0,1,.074.223,1.173,1.173,0,0,1-.174.6,2.171,2.171,0,0,1-.273.4.444.444,0,0,1,.248.3.3.3,0,0,1-.05.3,1.145,1.145,0,0,1,.323-.149.744.744,0,0,0,.323-.2v.2l.248-.248a.216.216,0,0,1,.3-.05l.149.1a.551.551,0,0,0-.3.447.41.41,0,0,0,.2.372.62.62,0,0,1,.248.471q.2-.347.3-.273t.347-.174a1.064,1.064,0,0,1-.2.248l-.2.2a.894.894,0,0,1-.3.124q-.248.074-.248.124.05,0-.1.149a.381.381,0,0,0-.05.149.132.132,0,0,1-.037.112.132.132,0,0,1-.112.037q.1-.347-.1-.447a.882.882,0,0,0-.074.248.38.38,0,0,1-.074.2q0,.248-.2.248a1.031,1.031,0,0,1-.447-.174q-.3-.174-.4-.223v.645l-.05-.05-.149-.05a2.605,2.605,0,0,1-.893-.546l-.844.744A.815.815,0,0,0,16-41.413a1.063,1.063,0,0,0-.248-.074.66.66,0,0,0-.3.124q-.2.124-.3.174-.695.05-1.786.1t-1.935.149q-.05.05-.323.025t-.323-.025a.852.852,0,0,0-.248.248q-.149.2-.2.2l-.546.3-.1-.3q0,.248-.1.273a.816.816,0,0,1-.2.025.816.816,0,0,0-.2.025q-.1.025-.1.223v1.538l-.1.149v1.786l-.149.3v1.637l-.248.3q.2.1.223.2a1.044,1.044,0,0,1,.025.248,6.19,6.19,0,0,1-.124,1.216A6.7,6.7,0,0,0,8.6-31.266a.381.381,0,0,0,.05.149.381.381,0,0,1,.05.149H8.3q.05.4.3.447t.248.4a1.981,1.981,0,0,1-.074.521,2.159,2.159,0,0,0-.074.571v.347a.537.537,0,0,0,.4.149.956.956,0,0,0,.744-.273,1.258,1.258,0,0,1,.943-.273v.4a.749.749,0,0,0,.521-.3,1.5,1.5,0,0,1,.521-.4l1.191-.447q.1,0,.347.025t.3-.025a1.287,1.287,0,0,0,.62-.223q.372-.223.471-.273,1.737-.5,3.548-.918t3.424-.719q1.613-.3,2.878-.471a15.454,15.454,0,0,1,1.96-.174q.2,0,.695.025t.645.025a.324.324,0,0,1,.149.149.777.777,0,0,0,.149.2.569.569,0,0,0,.174-.05q.124-.05.223-.1v.347h.2q.1,0,.1.248a1.15,1.15,0,0,0-.223.025.232.232,0,0,0-.174.124,2.6,2.6,0,0,1,.4.248.592.592,0,0,0-.4.521.6.6,0,0,1-.3.521v-.347h-.4a.3.3,0,0,0,.074.149.178.178,0,0,1,.025.2,1.105,1.105,0,0,0-.273.1q-.223.1-.223.149a.682.682,0,0,0-.149.347q-.05.248-.248.248a.272.272,0,0,1-.273-.174.31.31,0,0,0-.323-.174.429.429,0,0,1,.149.3,2.451,2.451,0,0,1-.025.422q-.025.124-.273.124a1.667,1.667,0,0,1-.471-.174q-.372-.174-.372-.273a.8.8,0,0,0-.347-.1,3.626,3.626,0,0,0-.447.025,1.836,1.836,0,0,0-.447.124.385.385,0,0,1-.006.316.385.385,0,0,1-.242.2,4.372,4.372,0,0,1-.6.174l-.149.149-.149.05a.143.143,0,0,1-.1.05q-.05,0-.2-.149-.2.2-.3.2a2.151,2.151,0,0,1-.323-.074,2.151,2.151,0,0,0-.323-.074h-.2a1.834,1.834,0,0,0-.868.223,1.746,1.746,0,0,1-.819.223l-.3-.2a.322.322,0,0,0-.273.1.868.868,0,0,0-.124.248.62.62,0,0,1-.149.248.4.4,0,0,1-.3.1.153.153,0,0,1-.174-.124q-.025-.124-.323-.124a.331.331,0,0,1,.2.273.7.7,0,0,1,0,.372q-.5,0-.5-.4l-.248.347-.1-.2L17.087-27l-.149.1a.143.143,0,0,1-.1.05.215.215,0,0,1-.174-.1.178.178,0,0,1-.025-.2,1.185,1.185,0,0,1-.645.323,1.329,1.329,0,0,0-.645.273h-.2l-.248-.2a1.094,1.094,0,0,1-.695.174q-.4-.025-.4.571h-.05a.2.2,0,0,1-.2-.149.569.569,0,0,0-.174.05.61.61,0,0,1-.223.05l-.149-.1a1.059,1.059,0,0,1-.6.5q-.347.1-.744.2l-.05.05a.143.143,0,0,1-.1.05l-.447.149q-.4.149-.918.3t-.968.273a4.543,4.543,0,0,1-.5.124q.149.05.149.3a1.11,1.11,0,0,1-.4.744l-.149-.2a.2.2,0,0,0,.149-.2v-.645l-.4.4a.143.143,0,0,1-.1.05q-.1,0-.124-.124a.142.142,0,0,1,.074-.174h-.4v.447q-.149-.149-.2-.149-.1,0-.223.149a.434.434,0,0,0-.124.248q0,.2.149.2h.248a.51.51,0,0,1-.447.3,4.3,4.3,0,0,1-.6.05h-.2q-.1,0-.62-.05t-.67-.05q.2-.1.149-.2a2.428,2.428,0,0,0-.149-.248.33.33,0,0,0,.025.174q.025.025-.124.124-.2-.347-.447-.1a5.028,5.028,0,0,0-.868-.546,1.6,1.6,0,0,1-.769-.744,2.137,2.137,0,0,1-.1-.471.845.845,0,0,0-.149-.372l.5-.546a1.054,1.054,0,0,1-.1-.546q0-.447.546-.447a2.333,2.333,0,0,0-.447.6l.3-.149a.644.644,0,0,0,.323-.223.948.948,0,0,0,.025-.521.12.12,0,0,0,.074-.149.117.117,0,0,0-.124-.1q-.149,0-.149.1v-.248h-.3l.1-.1q.1-.1.1-.149l-.149-.149a.778.778,0,0,0-.2-.149.773.773,0,0,0,.248-.124,3.4,3.4,0,0,1,.422-.223,2.528,2.528,0,0,0,.372-.2l.2-.149v-.992l-.248-.1a.381.381,0,0,1,.05-.149.381.381,0,0,0,.05-.149.44.44,0,0,1-.05-.2.852.852,0,0,1-.05-.347,1.077,1.077,0,0,0,.323-.447q.025-.149.05-.248a.614.614,0,0,1,.124-.223,3.276,3.276,0,0,1,.5-.422,1.2,1.2,0,0,1,.174-.149q.074-.05.025-.3a1.847,1.847,0,0,1-1.191.4.612.612,0,0,1-.347-.149,2.9,2.9,0,0,1-.3-.248,3.52,3.52,0,0,1,.2-.323,2.44,2.44,0,0,1,.3-.372,1.451,1.451,0,0,0-.149-.124.4.4,0,0,0-.248-.074.578.578,0,0,0-.149.1.143.143,0,0,1-.1.05l-.05.05q-.1-.2.124-.67t.174-.471q-.1,0-.1-.149t.1-.149q.1,0,.1.2l.546-.645-.248-.248a.351.351,0,0,1-.1.3.351.351,0,0,1-.3.1q.1-.248-.025-.248t-.124-.2a1.967,1.967,0,0,1,.174-.794,1.967,1.967,0,0,0,.174-.794l.2-.149a.143.143,0,0,1-.05-.1.287.287,0,0,1-.05-.2l.1-.149-.1-.3a.636.636,0,0,1,.223-.5.636.636,0,0,0,.223-.5.517.517,0,0,1-.3-.05.517.517,0,0,1-.05-.3l.1.05.05.05.1-.248-.1-.4a.337.337,0,0,0,.248.1q.1,0,.248-.273t.3-.62q.149-.347.273-.645a1.361,1.361,0,0,0,.124-.4,3,3,0,0,0-.67.695q-.323.447-.521.695a2.135,2.135,0,0,1,.05-.4,2.476,2.476,0,0,0,.05-.3l.149-.1.1-.2a.381.381,0,0,0,.05-.149l-.1-.1a.2.2,0,0,1-.05-.149,1.892,1.892,0,0,1,.347-.992,1.892,1.892,0,0,0,.347-.992.241.241,0,0,0-.05-.124.241.241,0,0,1-.05-.124l-.347.248a.635.635,0,0,1-.248-.4,1.624,1.624,0,0,0,.4-.1q.3-.1.3-.3a.6.6,0,0,0-.2.074.585.585,0,0,1-.248.074H4.137q.248-.1.149-.273t.1-.273a.229.229,0,0,1-.149-.248v-.248a.816.816,0,0,1,.025-.2.679.679,0,0,0,.025-.149q.149,0,.248-.3a1.117,1.117,0,0,0-.05-.223,1.637,1.637,0,0,0-.1-.273q0-.05.223-.2a.724.724,0,0,1,.323-.149.159.159,0,0,1,.149.1.44.44,0,0,1,.05.2l-.3.1h.447q.248,0,.248-.3a.633.633,0,0,0-.347-.62,3.331,3.331,0,0,1-.645-.422.429.429,0,0,1,.3-.149.456.456,0,0,1,.3.223.366.366,0,0,0,.347.174q.2,0,.174-.174a.18.18,0,0,1,.016-.138.18.18,0,0,1,.109-.086.439.439,0,0,1,.273-.074q.074.025.074-.323a.471.471,0,0,0-.4.2.523.523,0,0,1-.447.2q.1,0,.1-.149,0-.05-.025-.273t-.025-.323a1.56,1.56,0,0,0-.248.025q-.149.025-.149-.124a1.737,1.737,0,0,0,.422-.074.346.346,0,0,0,.273-.372H5.377a2.387,2.387,0,0,0,.174-.521,2.575,2.575,0,0,0,.074-.571h.248a1.045,1.045,0,0,1,.025-.174q.025-.124-.124-.124-.05,0-.149.1t-.149.1h-.4q0-.149.025-.546a1.613,1.613,0,0,1,.124-.6.087.087,0,0,1,.025-.074.087.087,0,0,1,.074-.025h.1v.645q.149,0,.174-.074a.645.645,0,0,0,.025-.2.645.645,0,0,1,.025-.2q.025-.074.223-.074a.483.483,0,0,1,.248.1.562.562,0,0,1,.2.2.429.429,0,0,0,.149-.3,1.479,1.479,0,0,1-.149-.2.562.562,0,0,0-.2-.2V-52.6q0-.3.1-.372a.394.394,0,0,0,.1-.323q-.2-.149-.323-.248a.5.5,0,0,1-.124-.4q0-.1.347-.347a.687.687,0,0,0,.347-.546H6.32a1.228,1.228,0,0,0,.2-.695q.05-.546.05-.645a1.064,1.064,0,0,0-.05-.273,1.178,1.178,0,0,1-.05-.323,1.148,1.148,0,0,0,.149-.248.381.381,0,0,0,.05-.149.726.726,0,0,1-.248-.025q-.05-.025-.3.074a.612.612,0,0,1,.1-.347.705.705,0,0,0,.1-.4.429.429,0,0,1-.3.149.422.422,0,0,1-.347-.124.62.62,0,0,0-.2-.174.381.381,0,0,0-.05-.149.44.44,0,0,1-.05-.2,1.641,1.641,0,0,1,.174-.744.83.83,0,0,1,.571-.447.44.44,0,0,1,.2.05l.2.1q.149,0,.422-.323a.926.926,0,0,0,.273-.521h.992q.1-.248.223-.273a1.4,1.4,0,0,1,.273-.025H9l-.149.149a1.445,1.445,0,0,1,.347.074,1.445,1.445,0,0,0,.347.074l.05-.05.1-.149.1-.2a4.881,4.881,0,0,1,1.265-.794,3.559,3.559,0,0,1,1.464-.347.738.738,0,0,1,.372.1.837.837,0,0,0,.422.1.737.737,0,0,0,.546-.2,3.1,3.1,0,0,0,.05.323.539.539,0,0,0,.2.372.538.538,0,0,0,.1-.2.812.812,0,0,0,.05-.2l-.149-.3a2.159,2.159,0,0,0,.571-.074,2.583,2.583,0,0,1,.67-.074v.447q.1-.05.4-.223a2.715,2.715,0,0,1,.447-.223.4.4,0,0,1,.248.074.5.5,0,0,0,.3.074h.2a.3.3,0,0,0,.149-.074.3.3,0,0,1,.149-.074q.2,0,.347.5t.546.5v.546h.3v-.943q0-.1.248-.2l.3-.1q.3.1.3.546a1.69,1.69,0,0,1-.05.546.73.73,0,0,0,.323-.372,3.106,3.106,0,0,1,.223-.422q0,.05.124.149a.381.381,0,0,0,.174.1l.248-.149h.5a4.024,4.024,0,0,1,.868.074,4.577,4.577,0,0,1,.918.372l.3-.2v.2a.492.492,0,0,0-.174.149q-.074.1-.124.1.05.149.3.149.3,0,.248-.4a.868.868,0,0,0,.422.422q.323.174.323.273-.1,0-.347.025t-.248.223a.143.143,0,0,0,.05.1l.05.05a.143.143,0,0,0-.1.05l-.149.149a1.205,1.205,0,0,0,.3.6q.3.4.5.4v.347l.248.149q.1-.05.248-.521a1.149,1.149,0,0,1,.3-.571l-.1-.149q-.05.248-.223.248a.45.45,0,0,0-.323.149l-.05-.05V-59a2.629,2.629,0,0,1,.347-.5q.347-.447.5-.447a.657.657,0,0,1,.323.1,1.235,1.235,0,0,1,.223.149q.1.1.1.149,0,.347-.124.422t-.124.323q0,.4.248.4v.3a.612.612,0,0,1-.347-.1.705.705,0,0,0-.4-.1.429.429,0,0,0-.149.3.577.577,0,0,0,.1.149l.149.149q0,.05.1.149a.143.143,0,0,1,.05.1,2.892,2.892,0,0,1-.074.447q-.074.347-.174.4v-.248a3.173,3.173,0,0,1-.719.571,1.857,1.857,0,0,1-.918.372l-.248-.149a.62.62,0,0,0-.2.174q-.1.124-.149.124-.248,0-.323-.3t-.323-.3a.484.484,0,0,0-.347.1.575.575,0,0,1-.4.1.7.7,0,0,1-.645-.323.774.774,0,0,0-.6-.372q-.05-.05-.248.025a.95.95,0,0,1-.3.074.143.143,0,0,1-.1-.05l-.05-.05a.143.143,0,0,1-.1.05l-.1.05h-.05l-.248.149-.149-.149q-.1-.1-.149-.1a1.546,1.546,0,0,0-.893.1,2.882,2.882,0,0,0-.893.4,16.079,16.079,0,0,0-1.786,0,8.51,8.51,0,0,0-1.836.3.2.2,0,0,1-.149-.05.2.2,0,0,1-.124-.025.2.2,0,0,0-.124-.025,1.382,1.382,0,0,0-.3.1q-.248.1-.4.149a.143.143,0,0,1-.1-.05q-.149-.149-.149-.1l-.149.05a.386.386,0,0,1-.149.347.148.148,0,0,0,.025-.149.117.117,0,0,0-.124-.1Zm-6.9,24.661q.248.1.248.248t.2.248a1.415,1.415,0,0,0,.273-.546,2.447,2.447,0,0,0,.074-.6.588.588,0,0,0-.447.223Q4.534-31.465,4.385-31.266Zm-.645-.6-.05-.1-.05-.05.5-.248a2.082,2.082,0,0,1-.223.695,1.709,1.709,0,0,1-.422.645l-.1.05-.05-.05a2.565,2.565,0,0,1,.248-.471A.836.836,0,0,0,3.74-31.861Zm-.4,2.679a.143.143,0,0,0,.05.1.352.352,0,0,1-.248.347,1.219,1.219,0,0,1-.447.1.458.458,0,0,1,.2-.422,1.325,1.325,0,0,1,.447-.174Zm1.439-8.237q-.3,0-.372.149a.894.894,0,0,0-.074.4A.558.558,0,0,0,4.782-37a.558.558,0,0,0,.2-.421Zm1.24-11.859q0,.248.1.3a.429.429,0,0,0,.347-.447.229.229,0,0,0-.149-.248.389.389,0,0,0-.3.4ZM11.828-59.1a.386.386,0,0,0,.4.248q.05,0,.149-.2a.816.816,0,0,1,.05-.248q-.05,0-.3-.025a.248.248,0,0,0-.2.045.248.248,0,0,0-.1.179ZM5.576-44.713a.961.961,0,0,0-.372.1.351.351,0,0,0-.223.347l.4-.248.1.149.3-.3h-.1a.143.143,0,0,1-.1-.05Zm.2-10.271.05.1q.05,0,.05.1a.661.661,0,0,1-.074.3q-.074.149-.174.149v-.2a1.117,1.117,0,0,1,.05-.223.568.568,0,0,1,.1-.223Zm7.393-7.1q.1,0,.074.074t.074.074q.1,0,.1.149t-.1.149q-.1,0-.149-.149-.1,0-.1-.149T13.168-62.08ZM23.488-29.132a.087.087,0,0,0-.074.025.087.087,0,0,0-.025.074,1.165,1.165,0,0,0-.4.248,2.051,2.051,0,0,0,.273-.025.568.568,0,0,0,.323-.174Q23.588-29.132,23.488-29.132Zm-19.1-13q-.1,0-.074.124t.124.124q0,.149.1.149a.131.131,0,0,0,.112-.037.132.132,0,0,0,.037-.112q0-.149-.2-.149a.087.087,0,0,0-.025-.074A.087.087,0,0,0,4.385-42.133Zm20.046,12.9q-.05,0,.2-.124a1.017,1.017,0,0,1,.447-.124.868.868,0,0,1,.248.1Zm-19.7,1.389q-.149,0-.149.124t.149.124q0,.149.1.149t.1-.124q0-.124-.149-.124Q4.782-27.842,4.732-27.842ZM5.625-48.98q-.1,0-.1.124t.149.124q0,.149.1.149t.074-.124q-.025-.124-.124-.124Q5.725-48.98,5.625-48.98ZM4.534-27.594q-.1,0-.1.174t.1.174q.149,0,.149-.174T4.534-27.594Zm23.172-4.714q-.347,0-.347.3a.261.261,0,0,0,.223-.1.322.322,0,0,1,.273-.1ZM5.476-24.071l-.2.2a.286.286,0,0,0-.1.2h.3Zm-.4-.3q0,.248.149.3l.248-.3ZM6.32-50.816a.131.131,0,0,0-.112.037.131.131,0,0,0-.037.112.132.132,0,0,0,.037.112.132.132,0,0,0,.112.037q.1,0,.1-.149T6.32-50.816ZM4.286-38.262l.1-.3h-.4ZM26.118-59.45q.1,0,.1.174t-.1.174q-.1,0-.1-.174T26.118-59.45Zm-.943,2.233q.1,0,.1.174t-.1.174q-.1,0-.1-.174T25.176-57.217Zm-14.142.695q-.1,0-.1.174t.1.174q.1,0,.1-.174T11.034-56.523Zm1.34,0q-.1,0-.1.174t.1.174q.1,0,.1-.174T12.374-56.523Zm-1.34-.695q-.1,0-.1.174t.1.174q.1,0,.1-.174T11.034-57.217ZM3.74-33.152q-.1,0-.1.174t.1.174q.1,0,.1-.174T3.74-33.152ZM4.831-49.427q.1,0,.1.174t-.1.174q-.1,0-.1-.174T4.831-49.427Zm-.3,10.371q-.1,0-.1.124t.1.124q.149,0,.149-.124T4.534-39.056Zm-.546,5.111q-.05-.1-.05.2t.05.248a.337.337,0,0,0,.1-.248.2.2,0,0,0-.1-.2Zm.546.447q-.1,0-.1.124t.1.124q.149,0,.149-.124T4.534-33.5Zm2.828-22.18q-.1,0-.1.149t.1.149q.1,0,.1-.149T7.362-55.679Zm18.161-1.935q.1,0,.1.149t-.1.149q-.1,0-.1-.149T25.523-57.614Zm-19.5,33.94q-.1,0-.1.149t.1.149q.1,0,.1-.149T6.022-23.674ZM25.672-58.011q.1,0,.1.149t-.1.149q-.1,0-.1-.149T25.672-58.011Zm-.4,0q.1,0,.1.149t-.1.149q-.1,0-.1-.149T25.275-58.011ZM3.74-30.472q.1,0,.1.149t-.1.149q-.1,0-.1-.149T3.74-30.472ZM14.656-41.488q-.1,0-.1.149t.1.149q.1,0,.1-.149T14.656-41.488ZM6.469-59.847q.1,0,.1.149t-.1.149q-.1,0-.1-.149T6.469-59.847Zm4.565,17.814q-.1,0-.1.149t.1.149q.1,0,.1-.149T11.034-42.034ZM14.11-26.453q.1,0,.1.149t-.1.149q-.1,0-.1-.149T14.11-26.453Zm-.943-33.94q-.1,0-.1.149t.1.149q.1,0,.1-.149T13.168-60.393ZM16-61.782q-.1,0-.1.149t.1.149q.1,0,.1-.149T16-61.782ZM20.71-43.969q.1,0,.1.149t-.1.149q-.1,0-.1-.149t.1-.149Zm-.794-.695q.1,0,.1.149t-.1.149q-.1,0-.1-.149T19.916-44.663Zm-14.687-.3q-.1,0-.1.149t.1.149q.1,0,.1-.149T5.228-44.961ZM18.973-60.542q-.1,0-.1.149t.1.149q.1,0,.1-.149T18.973-60.542Zm9.08,28.78q-.1,0-.1.149t.1.149q.1,0,.1-.149T28.053-31.762ZM11.282-61.088q-.1,0-.1.149t.1.149q.1,0,.1-.149T11.282-61.088ZM2.9-27.445q.1,0,.1.149t-.1.149q-.1,0-.1-.149T2.9-27.445Zm3.672,3.771q-.1,0-.1.149t.1.149q.1,0,.1-.149T6.568-23.674ZM17.733-61.782q.1,0,.1.149t-.1.149q-.1,0-.1-.149T17.733-61.782ZM5.625-49.824q-.1,0-.1.149t.1.149q.1,0,.1-.149T5.625-49.824Zm.4-.695q-.1,0-.1.149t.1.149q.1,0,.1-.149T6.022-50.519Zm.447,0q-.1,0-.1.149t.1.149q.1,0,.1-.149T6.469-50.519Zm.248-2.233q-.1,0-.1.149t.1.149q.1,0,.1-.149T6.717-52.751Zm-.248,0q-.1,0-.1.149t.1.149q.1,0,.1-.149T6.469-52.751Zm18.955-4.317q.1,0,.1.149t-.1.149q-.1,0-.1-.149T25.424-57.068ZM4.732-40.595q-.149,0-.149.124t.149.124q.1,0,.1-.124T4.732-40.595ZM26.763-30.323q-.149,0-.149.124t.149.124q.1,0,.1-.124T26.763-30.323ZM4.732-35.732q-.149,0-.149.124t.149.124q.1,0,.1-.124T4.732-35.732Zm.3.5a.159.159,0,0,0-.118.038.159.159,0,0,0-.055.111,1.559,1.559,0,0,0-.025.248v.2Zm19.4,6.252q-.248,0-.1-.149a.2.2,0,0,1,.149-.05q.1.05.074.124A.115.115,0,0,1,24.431-28.984ZM5.079-49.675q.1,0,.1.124t-.1.124q-.1,0-.1-.124T5.079-49.675Zm.3,3.076q-.1,0-.1.124t.1.124q.1,0,.1-.124T5.377-46.6Zm.5-10.023q.1,0,.1.124t-.1.124q-.1,0-.1-.124T5.873-56.622ZM24.679-29.132q.1,0,.1.124t-.1.124q-.1,0-.1-.124T24.679-29.132Zm-5.607-32.2q-.1,0-.1.124t.1.124q.1,0,.1-.124T19.072-61.336ZM7.511-23.476q.1,0,.1.124t-.1.124q-.1,0-.1-.124T7.511-23.476ZM6.469-45.656q-.1,0-.1.124t.1.124q.1,0,.1-.124T6.469-45.656ZM17.633-59.946q-.1,0-.1.124t.1.124q.1,0,.1-.124T17.633-59.946ZM3.889-33.4q-.1,0-.1.124t.1.124q.1,0,.1-.124T3.889-33.4Zm2.58-25.7q-.1,0-.1.124t.1.124q.1,0,.1-.124T6.469-59.1Zm0,7.89q-.1,0-.1.124t.1.124q.1,0,.1-.124T6.469-51.213Zm18.161-6.5q-.1,0-.1.124t.1.124q.1,0,.1-.124T24.63-57.713Zm-6.351-1.538q-.1,0-.1.124t.1.124q.1,0,.1-.124T18.278-59.252ZM12.771-59.7q-.1,0-.1.124t.1.124q.1,0,.1-.124T12.771-59.7ZM20.71-42.579q.1,0,.1.124t-.1.124q-.1,0-.1-.124T20.71-42.579Zm-.4-1.092q.1,0,.1.124t-.1.124q-.1,0-.1-.124T20.313-43.671ZM5.625-44.366q-.1,0-.1.124t.1.124q.1,0,.1-.124T5.625-44.366Zm7.542-1.389q.1,0,.1.124t-.1.124q-.1,0-.1-.124T13.168-45.755ZM3.492-28.537q-.1,0-.1.124t.1.124q.1,0,.1-.124T3.492-28.537Zm1.737-9.329q-.1,0-.1.124t.1.124q.1,0,.1-.124T5.228-37.865ZM9.694-60.1q-.1,0-.1.124t.1.124q.1,0,.1-.124T9.694-60.1Zm8.187.149q-.1,0-.1.124t.1.124q.1,0,.1-.124T17.881-59.946ZM5.774-51.213q-.1,0-.1.124t.1.124q.1,0,.1-.124T5.774-51.213Zm19-8.485q-.1,0-.1.124t.1.124q.1,0,.1-.124T24.779-59.7ZM5.079-44.118q-.1,0-.1.124t.1.124q.1,0,.1-.124T5.079-44.118Zm2.431-11.81q-.1,0-.1.124t.1.124q.1,0,.1-.124T7.511-55.927ZM3.889-26.751a.234.234,0,0,0-.248.2h.248Zm.645-1.637q-.05,0-.074.124a.341.341,0,0,1-.074.174l.149.149ZM6.469-48.98q-.1-.05-.1.124t.1.124q.05,0,.05-.1A.2.2,0,0,0,6.469-48.98Zm11.81,4.466q-.05-.1-.149,0t0,.149Q18.278-44.266,18.278-44.515Zm2.283,1.092-.248.248-.149-.1ZM3.889-28.537a.31.31,0,0,0,.223.1.178.178,0,0,0,.174-.1Zm6.7-32.551-.05.05a.143.143,0,0,1-.1.05v.2Q10.587-60.79,10.587-61.088ZM5.377-46.053q-.3.1-.3.3a.493.493,0,0,0,.174-.149A1.45,1.45,0,0,1,5.377-46.053ZM3.64-36.327q-.05-.1-.149,0t0,.149a.131.131,0,0,0,.112-.037A.131.131,0,0,0,3.64-36.327ZM26.515-59.252l-.149.149v-.347Zm-13.5-1.985q0-.05-.1.025t0,.124a.062.062,0,0,0,.05.025.062.062,0,0,0,.05-.025Q13.068-61.137,13.019-61.236ZM4.98-38.262q0-.1-.074-.1t-.074.1q.05.1.1.1T4.98-38.262Zm14.787-6.55q.1,0,.1.05t-.1.1a.087.087,0,0,1-.074-.025.087.087,0,0,1-.025-.074Q19.668-44.862,19.767-44.812ZM28.2-31.365q-.1,0-.1.074t.1.074q.1-.05.1-.1T28.2-31.365ZM3.74-28.09q-.05-.1-.124,0t.025.149a.143.143,0,0,0,.1-.05.062.062,0,0,0,.025-.05A.062.062,0,0,0,3.74-28.09ZM24.63-58.755q-.1,0-.1.074t.1.074q.1,0,.1-.05T24.63-58.755ZM3.74-34.094q-.05-.1-.124,0t.025.149Q3.789-33.946,3.74-34.094Zm.992-4.466q-.1,0-.1.074t.1.074Q4.881-38.56,4.732-38.56Zm.347-10.023q.2,0,0,.2-.05,0-.05-.1T5.079-48.583Zm19.55-8.634q-.1,0-.1.074t.1.074Q24.779-57.118,24.63-57.217ZM4.385-30.472q.05-.1-.05-.1t-.05.1q0,.1.05.1T4.385-30.472Zm-.893.546q0,.149-.149,0A.087.087,0,0,1,3.368-30a.087.087,0,0,1,.074-.025Q3.541-30.026,3.492-29.926Zm24.165-.4q0-.1-.074-.1t-.074.1Q27.657-30.174,27.657-30.323Zm-4.118,1.24a.2.2,0,0,0-.149.05q-.1.1,0,.149Zm2.134-29.772-.149.1V-59Zm-6.3,14.737v-.149l.248-.1Zm-1.886-1.389q.1,0,.1.05t-.1.05q-.1.05-.1-.05T17.484-45.507Zm-13.1,2.233a.062.062,0,0,1,.025.05.062.062,0,0,1-.025.05.062.062,0,0,1-.05.025.062.062,0,0,1-.05-.025q-.1,0,0-.1T4.385-43.274Zm-.1,8.336q.149.2.248,0Zm-.4,5.557q-.1.2-.248,0ZM22.446-56.374l-.05-.05q-.1,0-.1.05.05.1.1.1T22.446-56.374Zm-2.134,14.34q0,.1-.05.1t-.1-.1q0-.05.1-.05ZM7.957-58.309q-.1,0-.1.074t.1.074Q8.007-58.21,7.957-58.309ZM6.022-24.22q-.1,0-.1.074t.1.074Q6.072-24.121,6.022-24.22ZM18.13-61.633q0,.149-.248.149Q17.881-61.534,18.13-61.633ZM4.137-40.346q.1,0,.1.05t-.1.1q-.05,0-.05-.1Zm8.634-20.89.149-.1h-.3Zm9.18.447-.1-.05-.05.05q0,.1.05.1T21.95-60.79Zm1.191,2.034-.05.1.05.05q.1,0,.1-.05T23.141-58.755ZM8.7-23.476q.1,0,.1.05t-.1.05q-.05,0-.05-.1T8.7-23.476Zm4.962-38.455q0,.1-.05.1t-.05-.1l.05-.05Zm3.672,34.337-.05-.05-.05.05q0,.1.05.1T17.336-27.594ZM9.446-40.5a.334.334,0,0,0-.149-.3ZM4.385-23.922l-.05.05.05.05q.1,0,.1-.05T4.385-23.922Zm-1.34-8.485q.1,0,.1.05t-.1.05L3-32.358Z" transform="translate(-2.4 62.08)" fill="#fff" stroke="#fff" stroke-width="1"/>
            <path id="Path_549" data-name="Path 549" d="M9.611-28.368a3.565,3.565,0,0,0-1.254,4.347l.355.248,1.63.248.543-.5.355.248,1.275-.248h3.97l.543.248,3.093.248.543.23h.543l.543.248h1.442a6.17,6.17,0,0,0,2.717.711A4.162,4.162,0,0,0,26.078-25h-.71l-.731-.248-.731-.229-.711-.248h-.731l-.711-.23h-.731l-.731-.248-.9-.23L18.3-26.677a3.729,3.729,0,0,1-1.985-.248H13.958a8.771,8.771,0,0,1-2.884-.23,2.1,2.1,0,0,0-1.463-1.213Zm-.752,7.919a2.3,2.3,0,0,0-.355,3.3,3.509,3.509,0,0,0,1.212,2.32l1.149-.919,1.778-.083L13.269-16l2.778-.648.5.209.627-.146.5.209a8.932,8.932,0,0,1,2.779.313l.981-.543a12.586,12.586,0,0,0,4.973-.836l.355-1.379-.062-.313.062.313-.062-.313-1.149-1.024a9.314,9.314,0,0,1-4.89.186,13.917,13.917,0,0,0-3.135.084l-.711-.167-.627.146-2.508-.062Z" transform="translate(27.104 43.097)" fill="#fff" stroke="#fff" stroke-width="1"/>
            <path id="Path_548" data-name="Path 548" d="M54.673-26.3q.094,0,.094.165t-.094.165h-.141a1.006,1.006,0,0,1-.283.5,2.315,2.315,0,0,1-.4.283,1.812,1.812,0,0,0-.4.306,1.173,1.173,0,0,0-.283.519,1.825,1.825,0,0,0-.186.519,2.578,2.578,0,0,0-.094.566.58.58,0,0,0,.236.094q.186.047.186.141,0,.236-.165.165a.782.782,0,0,0-.306-.071,4.769,4.769,0,0,1-.024.635q-.024.118-.071.094a.731.731,0,0,0-.165-.047q-.118-.024-.259.165-.094.236-.259.825t-.259.825h-.283a.471.471,0,0,1-.047.448.424.424,0,0,1-.377.259,3.168,3.168,0,0,0-.141.519,3.309,3.309,0,0,0-.094.566q-.047.236-.141.589t-.33.354a.226.226,0,0,1-.165-.071.226.226,0,0,0-.167-.071.749.749,0,0,0-.66.354.749.749,0,0,1-.66.354h-.186a3.751,3.751,0,0,0-.259-.519q-.212-.377-.259-.471a6.613,6.613,0,0,1-1.015-2.734q-.212-1.508-.5-2.97a2.349,2.349,0,0,0-.448-.943,4.146,4.146,0,0,1-.542-.943q0-.047-.024-.259t-.071-.448q-.047-.236-.094-.424a1.417,1.417,0,0,1-.047-.236,1.855,1.855,0,0,0-.66-.754,1,1,0,0,1-.471-.849V-28.8l.047-.047q0-.094.141-.186t.141-.141a1.489,1.489,0,0,0-.212-.636l-.448-.849q-.236-.448-.448-.894a1.945,1.945,0,0,1-.212-.825,1.031,1.031,0,0,0-.66.186,1.391,1.391,0,0,0-.377.471l-.283.566a1,1,0,0,1-.377.424v-.377q-.283,0-.283.424a2.872,2.872,0,0,0,.141.8.951.951,0,0,1,.424.047q0,.047-.118.141a.592.592,0,0,0-.165.186h.186a1.379,1.379,0,0,1-.283.471,2.265,2.265,0,0,1-.424.471q.047-.094-.186-.5a1.451,1.451,0,0,0-.327-.445l-.141.236-.186-.141a.408.408,0,0,1-.141.283v.047a.136.136,0,0,0,.047.094h.422q0,.283-.33.283t-.519-.424a.286.286,0,0,1-.071.141.382.382,0,0,0-.071.236.772.772,0,0,0,.283.471,3.294,3.294,0,0,1,.377.424.277.277,0,0,1-.118.259q-.118.071-.118.354l.424-.424.141.186-.141.141.141.094-.566.8v-.283l-.047.047H39.73a.772.772,0,0,0-.047-.186q-.047-.141-.141-.141-.33,0-.4.141t-.589.141q0,.519-.094.566t-.094.424a.868.868,0,0,0,.566-.471.86.86,0,0,1,.519-.471.386.386,0,0,0-.141.236.124.124,0,0,0,.035.107.124.124,0,0,0,.107.035.548.548,0,0,0-.094.141l-.047.047a.6.6,0,0,0-.471.377,1.857,1.857,0,0,1-.471.66l.141.047q.141,0,.377-.354a2.621,2.621,0,0,0,.283-.5.651.651,0,0,1,.141.471q0,.283-.377.236l.519.236a.6.6,0,0,1-.542.186.789.789,0,0,0-.542.094l.141.519a.273.273,0,0,0,.047.186l.094.094-.283.377q0,.047.094.141l.047.047a.277.277,0,0,0,.236-.141q-.047.377-.354.424t-.306.424l.047-.047a.136.136,0,0,0,.094-.047.548.548,0,0,1,.141-.094q.094,0,.141.118a.54.54,0,0,1,.047.165h-.377a3.432,3.432,0,0,0,.047.4,3.432,3.432,0,0,1,.045.407,1.2,1.2,0,0,1-.4.589.724.724,0,0,0-.306.542,2.5,2.5,0,0,0,.071.33,2.506,2.506,0,0,1,.071.33.408.408,0,0,1-.141.283.38.38,0,0,0-.141-.306.883.883,0,0,0-.28-.165v.186l.141.283H37a4.361,4.361,0,0,1-.165,1.226,8.849,8.849,0,0,0-.259,1.226q.33,0,.424-.186.047,0,.047.186a.38.38,0,0,1-.186.283,2.4,2.4,0,0,1-.452.262,3.441,3.441,0,0,1-.519.186,1.659,1.659,0,0,1-.35.071.9.9,0,0,1-.285-.068.566.566,0,0,1-.283-.212l.377-.424a.083.083,0,0,0-.024-.071.083.083,0,0,0-.071-.024h-.377a1.01,1.01,0,0,0-.236.071q-.186.071-.186.024-.047,0-.141-.118t-.139-.165a.408.408,0,0,1-.283-.141.628.628,0,0,0,.283-.236A2.755,2.755,0,0,1,34.408-18a.992.992,0,0,1-.165-.024.179.179,0,0,0-.165.024l-.141.141a.362.362,0,0,0-.047.141.422.422,0,0,1-.236.118q-.141.024-.141.118,0,.377.283.33t.283.236a.3.3,0,0,0-.186.283l-.149-.141q0,.094-.186.283a.228.228,0,0,1-.212-.165.218.218,0,0,1,.021-.259l-.283.141.283-.377a2.1,2.1,0,0,0-.259-.212.58.58,0,0,0-.212-.118q-.283,0-.236.212t-.186.212a.938.938,0,0,1-.613-.236,1.951,1.951,0,0,1-.471-.589,3.2,3.2,0,0,1-.283-.731,2.649,2.649,0,0,1-.094-.613v-.33a.419.419,0,0,1,.047-.186.54.54,0,0,1,.047-.165.54.54,0,0,0,.047-.165,1.417,1.417,0,0,0-.047-.236,1.417,1.417,0,0,1-.047-.236,5.179,5.179,0,0,1-.094-.613q-.047-.424-.047-.519,0-.186.024-.8t.024-.8h-.186l-.141-.992q.047,0,.094-.165a1.011,1.011,0,0,0,.047-.259,2.444,2.444,0,0,0-.212-.966,2.444,2.444,0,0,1-.212-.966.469.469,0,0,1,.071-.283.469.469,0,0,0,.071-.283q.377,0,.424-.141a.244.244,0,0,0-.259-.165q-.165.024-.165-.212a.273.273,0,0,1,.047-.186.136.136,0,0,0,.047-.094l.094-.236a1.654,1.654,0,0,0,.047-.471h-.186a2.018,2.018,0,0,0-.024-.212,2.017,2.017,0,0,1-.024-.212,1.135,1.135,0,0,0-.118-.283,1.44,1.44,0,0,0-.165-.283l.141-.377a1.384,1.384,0,0,0-.118-.306q-.118-.259-.165-.354a1.255,1.255,0,0,1,.141-.566h-.236v-.382H30.5a.41.41,0,0,0-.071-.165.231.231,0,0,0-.212-.118.136.136,0,0,1-.094.047.136.136,0,0,1-.094.047h-.047a.888.888,0,0,1-.259-.589q-.024-.354-.024-.778a3.432,3.432,0,0,1,.047-.4,3.432,3.432,0,0,0,.047-.4l-.236-.094a.41.41,0,0,1,.071-.165.41.41,0,0,0,.071-.165.472.472,0,0,0-.141-.259.6.6,0,0,1-.141-.4,2.619,2.619,0,0,1,.071-.589,2.822,2.822,0,0,0,.071-.636,2.892,2.892,0,0,0-.047-.377l-.094-.566q.094,0,.094-.118t-.094-.118q-.094,0-.094.141a1.8,1.8,0,0,0-.186-.471q.236-.094.259-.259t.306-.212q-.236-.566-.4-.992a3.026,3.026,0,0,1-.165-1.084,1.876,1.876,0,0,1,.424-1.226.237.237,0,0,0-.186-.118,1.482,1.482,0,0,0-.236-.024v-.849l-.236-.094.094-.8q0-.047.33-.047a.878.878,0,0,1,.566.186,1.876,1.876,0,0,0,.471.283q1.131.236,1.768.424a2.3,2.3,0,0,1,.992.542,2.305,2.305,0,0,1,.542.919q.186.566.424,1.508l.094.377a5.4,5.4,0,0,0,.33.9,2.233,2.233,0,0,1,.236.9q0,.094-.047.118a.255.255,0,0,0-.094.118l-.141.141a1.28,1.28,0,0,0,.186.424q.186.33.236.424a6.109,6.109,0,0,1,.141.965q.047.589.118,1.2t.186,1.155a1.267,1.267,0,0,0,.354.731h.037a.136.136,0,0,0,.094-.047l.094-.094.141-1.178q0,.047.141.047a.362.362,0,0,1,.141.047q.141,0,.141-.283a.729.729,0,0,0-.072-.323.849.849,0,0,1-.071-.377.277.277,0,0,1,.118-.259,1.178,1.178,0,0,1,.283-.118A.643.643,0,0,0,37.018-35a.48.48,0,0,0,.118-.354l-.141-.141a.41.41,0,0,1,.071-.165.41.41,0,0,0,.071-.165v-.094l.047-.141h.377a3.082,3.082,0,0,0,.186-.33q.094-.141.165-.259a1.1,1.1,0,0,1,.165-.212.41.41,0,0,1,.071-.165q.071-.118.118-.118l.094.094A.192.192,0,0,0,38.5-37h.141a.192.192,0,0,1,.047-.141l.047-.141h.186a.54.54,0,0,1,.165.047q.118.047.212.094l.806-.8.186-.236.047.471a1.741,1.741,0,0,0,.448-.071q.259-.071.024-.448l.943-.094.141.094q-.094.186-.118.141t-.118-.047a.638.638,0,0,0,.047.306q.047.071.047-.024l.094-.047.047-.047h.141l.424.424a.325.325,0,0,0,.212-.118.868.868,0,0,0,.165-.212l.141.186a.54.54,0,0,0,.094-.212,1.062,1.062,0,0,0,.047-.212l-.141-.236A.948.948,0,0,1,43-38.579a.215.215,0,0,0-.024-.167v-.471a.3.3,0,0,1,.283.186.607.607,0,0,1,.566-.424q.236,0,.236.424-.186,0-.283-.236-.094.047-.094.236,0,.141.4.448a3.045,3.045,0,0,1,.639.644v-.283a.682.682,0,0,1,.33.566.543.543,0,0,1-.186.377h.282a.59.59,0,0,0,.306-.071.59.59,0,0,1,.306-.071,1.246,1.246,0,0,1,.8.377,1.078,1.078,0,0,1,.424.8,1.949,1.949,0,0,1-.259-.024,2.017,2.017,0,0,0-.212-.024.136.136,0,0,0-.047-.1l-.094-.094a.718.718,0,0,0-.448.165.5.5,0,0,0-.212.4q0,.094.259.33a2.134,2.134,0,0,1,.4.471v.186a.579.579,0,0,1,.212.047.579.579,0,0,0,.212.047q-.186-.33,0-.448a.784.784,0,0,1,.424-.118q.236,0,.236.283a1.2,1.2,0,0,1-.283.707,1.2,1.2,0,0,0-.283.707q0,.283.047.778t.377.5v-.236h.424a.272.272,0,0,0-.094-.186.272.272,0,0,0-.186-.094v-.66l.283.141a1.231,1.231,0,0,0,.186-.259q.094-.165.094-.118,0,.236.354.4t.448.212a.512.512,0,0,0,.186.094.775.775,0,0,0,.236.047q-.094.283-.424.186a.32.32,0,0,1,.094.236.718.718,0,0,1-.165.448.666.666,0,0,0-.165.4q.33,0,.283.448a.853.853,0,0,0,.236.731.361.361,0,0,0,.306.071q.212-.024.212.212a.248.248,0,0,1-.07.213.248.248,0,0,1-.213.07q.047.047.306.377a1.129,1.129,0,0,1,.259.424.724.724,0,0,1-.094.283.548.548,0,0,1-.094.141q0,.141.094.141a.417.417,0,0,0,.354-.118.417.417,0,0,0,.118-.354q.141,0,.141.33a1.044,1.044,0,0,1-.047.33.806.806,0,0,0,.662-.4,2.357,2.357,0,0,0,.377-.778l.236.186.283-.566.141.141a.554.554,0,0,0,.236-.519q0-.141-.071-.165t-.071-.259a1.394,1.394,0,0,1,.471-1.084L52.46-32.1q.377-.186.542-.283t.165-.471l.094.047h.047l.141.283.186-.047q0-.047-.024-.259a1.707,1.707,0,0,1,0-.4.409.409,0,0,1,.141-.283q.118-.094.354.047-.141-.186-.259-.377a.447.447,0,0,1-.024-.424.362.362,0,0,1,.141.047.827.827,0,0,0,.236.094.476.476,0,0,0,.424-.212,1.985,1.985,0,0,0,.236-.519q.094-.306.165-.613a1.416,1.416,0,0,1,.165-.448.452.452,0,0,1-.141-.33.775.775,0,0,1,.5-.778q.5-.212.5-.354a.255.255,0,0,0-.118-.186q-.118-.094.024-.094.236,0,.186-.236a.357.357,0,0,1,.047-.33q0-.047.165-.071a2.019,2.019,0,0,1,.212-.024v-.186l-.283-.186q0-.094.306-.236a1.544,1.544,0,0,0,.4-.236q0,.141.236.141l.186-.236a.426.426,0,0,0,.236.377.845.845,0,0,0,.424.141q.141,0,.236-.33v.236h.471q.186,0,.186-.377h-.33q0-.141.236-.259a.913.913,0,0,1,.377-.118v.283l.33-.141q-.094.283.024.377a1.431,1.431,0,0,0,.354.186.124.124,0,0,1,.035-.107.124.124,0,0,1,.107-.035.112.112,0,0,1,.118.094.141.141,0,0,1-.024.141,2.186,2.186,0,0,1,.992-.236,3.317,3.317,0,0,0-.519.4.883.883,0,0,0-.283.682q.094-.094.306-.354a.59.59,0,0,1,.448-.259q0,.094.024.33a.823.823,0,0,0,.118.377l.33-.236a.552.552,0,0,0,.024.471.659.659,0,0,0,.354.33q0,.094.236-.047l-.094.186h.566a1.178,1.178,0,0,1-.165.542,1.941,1.941,0,0,1-.259.4q0,.047.141.047.33,0,.236-.471.283.094.165.4t.259.306q.283,0,.377-.377a.3.3,0,0,1,.141.165.579.579,0,0,1,.047.212q0,.047-.047.33t-.141.33v.33q.094-.047.212-.118a.422.422,0,0,1,.212-.071q.047,0,.141.118a.592.592,0,0,0,.186.165h-.566a.136.136,0,0,1-.047.094.273.273,0,0,1-.186.047.337.337,0,0,1-.33-.186.837.837,0,0,1-.094-.377.752.752,0,0,1-.424.33.773.773,0,0,1,.094.118q.047.071,0,.118,0,.047-.165.118a.764.764,0,0,0-.212.118.362.362,0,0,0,.047.141.361.361,0,0,1,.047.141.386.386,0,0,0,.212-.047.5.5,0,0,1,.259-.047.264.264,0,0,1,.259.141.31.31,0,0,0,.306.141q.471,0,.471-.566.047,0,.094.118a.54.54,0,0,1,.047.165.136.136,0,0,0-.094.047.273.273,0,0,0-.047.186q0,.33.283.33a2.649,2.649,0,0,0,.519-.047q-.094.33-.165.354a1.293,1.293,0,0,0-.165.071.2.2,0,0,0,.071-.186.112.112,0,0,0-.118-.094q-.094,0-.094.118a.23.23,0,0,0,.047.165.136.136,0,0,1-.094.047q-.047,0-.141.094a.671.671,0,0,0,.118.4.361.361,0,0,0,.306.165q.236,0,.283-.306a.468.468,0,0,1,.283-.4v.236l.236-.141a.212.212,0,0,1-.071.186q-.071.047-.071.236l.141.283a.229.229,0,0,1-.047.118,1.542,1.542,0,0,0-.094.165.636.636,0,0,0-.283-.424l-.141.283.141.141a1.99,1.99,0,0,0-.519.377l.141.141h-.377v-.471h-.045l-.141-.047-.047.047a.083.083,0,0,0,.024.071.083.083,0,0,0,.071.024q0,.377-.094.424t-.186.377a.893.893,0,0,1,.354-.047,1.713,1.713,0,0,0,.5-.071.831.831,0,0,0,.354-.186q.118-.118-.024-.354a1.544,1.544,0,0,0,.778.094q.448-.047.448.519,0,.094-.424.377a1.327,1.327,0,0,0-.519.519.476.476,0,0,0,.212.424,3.34,3.34,0,0,0,.471.259q.259.118.471.236t.212.259l-.236.236a.7.7,0,0,0-.186.33,3.068,3.068,0,0,1,.33-.118.992.992,0,0,1,.236-.024.4.4,0,0,1,.424.283.993.993,0,0,0-.165.024q-.118.024-.118.071v.141q0,.047.186.212t.236.212a.362.362,0,0,1-.047.141q-.047.094-.094.094l-.186-.094q-.047,0-.094.094a.2.2,0,0,0,0,.186.659.659,0,0,0,.283.448.615.615,0,0,1,.236.542q0,.141-.118.141t-.118.236q0,.186.118.236t.118.283a.362.362,0,0,1-.047.141.362.362,0,0,0-.047.141l.236.141a.186.186,0,0,1,.141.186.226.226,0,0,1-.071.165.457.457,0,0,0-.071.306.192.192,0,0,0,.047.141l.094.094-.236.33a.32.32,0,0,1,.236.094.51.51,0,0,1-.141.377h.377a1.436,1.436,0,0,0,.118.754,1.174,1.174,0,0,1,.118.66.273.273,0,0,1-.186-.047.136.136,0,0,1-.094-.047h-.094q0-.047-.094-.047-.047,0-.141.094a.19.19,0,0,1,.094.186q0,.141-.094.141-.236,0-.094-.236l-.283.283a.739.739,0,0,1-.186.141h.424a3.325,3.325,0,0,1-.33.236l-.283.186a.136.136,0,0,0-.047.094v.094a1.377,1.377,0,0,1,.118.141.2.2,0,0,0,.165.094.951.951,0,0,0-.344.856l-.047.047a.136.136,0,0,0-.047.094.9.9,0,0,1,.283.071q.186.071.094.165l-.047.094-.047.047v-.186a1.562,1.562,0,0,1-.33-.024q-.092-.024-.231-.309a.511.511,0,0,0-.094.186.771.771,0,0,0-.047.186q0,.094.186.186a.592.592,0,0,0,.236.141,1.526,1.526,0,0,1-1.178.519,1.254,1.254,0,0,1-1.155-.815,9.45,9.45,0,0,1-.66-1.886q-.259-1.061-.448-2.1a4.141,4.141,0,0,0-.471-1.461L61.6-28.139a1.771,1.771,0,0,0-.542-.8,2.215,2.215,0,0,1-.589-.749,1.278,1.278,0,0,1-.118-.8,1.278,1.278,0,0,0-.118-.8q-.186-.283-.519-.9t-.707-.613a.79.79,0,0,1-.283.165q-.186.071-.283.118l-.141-.094a.248.248,0,0,0,.213-.07.248.248,0,0,0,.07-.213l-.141-.566q-.094.047-.33.186a.426.426,0,0,0-.236.377.569.569,0,0,0,.071.186.792.792,0,0,0,.118.186q-.377-.141-.471.071a1.209,1.209,0,0,0-.094.5l.377-.283-.094.141a.405.405,0,0,0,.424.236.458.458,0,0,0-.283.186,1.9,1.9,0,0,0-.165.306.892.892,0,0,1-.186.283.414.414,0,0,1-.306.118q0,.094-.024.448t-.024.448q0,.047.094.141l.094.094q0,.141-.186.141a3.933,3.933,0,0,0-.519-.283,3.415,3.415,0,0,0-.519-.236.54.54,0,0,0-.165.047.3.3,0,0,0-.165.141q.047.283.448.448t.4.448a1.52,1.52,0,0,1-.33.589,2.109,2.109,0,0,1-.519.5q.186,0,.186.141a.731.731,0,0,1-.259.5q-.259.259-.165.448-.377-.186-.377-.141t-.33.047q0,.236-.424.377a1.324,1.324,0,0,0,.024.259,1.092,1.092,0,0,1,.024.212Q54.531-26.3,54.673-26.3ZM30.207-34.878q.047,0,.259.377a2.659,2.659,0,0,0,.306.471.727.727,0,0,0,.212-.186,1.318,1.318,0,0,0,.165-.236q-.094-.141-.118-.118a.186.186,0,0,1-.118.024v-.283l-.141-.094q0-.047-.141-.165a.883.883,0,0,0-.283-.165.192.192,0,0,1-.047.141A.827.827,0,0,0,30.207-34.878Zm35.071,4.572q0-.377.259-.448a1.125,1.125,0,0,0,.5-.306l-.236.566a.591.591,0,0,1,.165-.186.356.356,0,0,1,.213-.1v.754a.5.5,0,0,1-.4-.141.641.641,0,0,0-.5-.141Zm-27.013,1.32a.2.2,0,0,1,.259,0,.341.341,0,0,1,.118.283q.047,0,.165-.118t.118-.165a.572.572,0,0,0-.141-.283.69.69,0,0,1-.141-.236v-.186l-.141-.141-.141.141a2.412,2.412,0,0,1-.047.354,2.411,2.411,0,0,0-.047.351ZM31.15-33.6q.094-.377.354-.424t.259-.471a.507.507,0,0,0-.448.259.857.857,0,0,1-.4.354Zm3.96,1.886a2.048,2.048,0,0,0,.212.165.58.58,0,0,0,.212.118h.141a.192.192,0,0,1,.047-.141l.047-.141v-.141L35.487-32l-.094.047h-.047q-.047,0-.141.094T35.11-31.719Zm20.6,2.734q0,.283.33.283.283,0,.377-.424H55.9Q55.71-29.127,55.71-28.985Zm-8.155-3.253q0,.141.024.377a.832.832,0,0,0,.165.424.687.687,0,0,0,.094-.283,1.985,1.985,0,0,0,.047-.327q0-.094-.118-.141A.579.579,0,0,0,47.555-32.238Zm6.929,4.761a.543.543,0,0,0,.186.377.591.591,0,0,0,.186-.165.356.356,0,0,0,.094-.212h-.283q.047,0,.141-.283Q54.484-27.807,54.484-27.477Zm11.971,1.6q.094-.094.283-.306a.6.6,0,0,0,.186-.354l-.047-.094-.047-.047-.471.566Zm-.424-.094q-.141.047-.165.306t-.024.306a.259.259,0,0,0,.259-.186.961.961,0,0,0,.076-.332q0-.094-.144-.094ZM41.709-32.426q0,.047.024.283t.165.283a.218.218,0,0,0,.141-.236.292.292,0,0,0-.082-.248.292.292,0,0,0-.248-.082ZM30.823-40.3a.3.3,0,0,0-.306.165.888.888,0,0,0-.071.354.292.292,0,0,0,.306-.186A.961.961,0,0,0,30.823-40.3ZM53.685-25.872a.76.76,0,0,0-.283.613.259.259,0,0,0,.259-.165.782.782,0,0,0,.071-.306l-.047-.094ZM40.107-30.729a.429.429,0,0,1,.186.519q.047,0,.141-.118a.362.362,0,0,0,.094-.165q.047-.283-.236-.283l-.094.047Zm15.367,2.171a1.442,1.442,0,0,1-.186.259q-.141.165-.236.259l.047.047h.094q.236,0,.259-.186a.377.377,0,0,1,.165-.283Zm-8.153-2.077q.047,0,.094-.212a1.612,1.612,0,0,0,.047-.306q0-.186-.236-.283Zm-6.649-.519.047.047a.136.136,0,0,0,.094.047.29.29,0,0,0,.165-.047.229.229,0,0,1,.118-.047.367.367,0,0,1-.141-.33.226.226,0,0,0-.212.141.569.569,0,0,0-.071.186Zm.8.8a.286.286,0,0,1,.071-.141,1.377,1.377,0,0,1,.118-.141v.566Q41.474-30.07,41.474-30.352Zm20.835-3.441a.192.192,0,0,0-.141.047h-.047a.169.169,0,0,1,.094.165q0,.118-.094.118t-.094-.141a.273.273,0,0,0-.047.186v.186a.553.553,0,0,0,.33-.558ZM42.558-38.884l.141.141q.094,0,.094.118t-.094.118q-.094,0-.141-.141-.094,0-.094-.118T42.558-38.884ZM65.8-29.271a1.043,1.043,0,0,1-.33.424h.186a.286.286,0,0,0,.141-.071.286.286,0,0,1,.141-.071ZM47.6-34.925q0-.186.141-.186a.286.286,0,0,1,.141.071,1.378,1.378,0,0,1,.141.118.362.362,0,0,0-.141.047.362.362,0,0,1-.141.047q-.094,0-.094-.047Zm-9.758,8.063q-.094,0-.094.165t.094.165a.083.083,0,0,0,.024.071.083.083,0,0,0,.071.024q.094,0,.094-.118t-.141-.118q0-.191-.047-.191ZM63.2-31.434q-.094,0-.094.141a.124.124,0,0,0,.035.107.124.124,0,0,0,.107.035.083.083,0,0,0,.024.071.083.083,0,0,0,.071.024q.094,0,.071-.118t-.118-.118q0-.144-.094-.144Zm3.63,11.358q.141,0,.141.165t-.141.165q-.094,0-.094-.165T66.834-20.076ZM52.457-22.9q-.094,0-.094.165t.094.165q.141,0,.141-.165T52.457-22.9ZM41.665-39.217q.094,0,.094.165t-.094.165q-.141,0-.141-.165t.139-.163Zm21.964,7.356q-.141,0-.141.165t.141.165q.094,0,.094-.165T63.629-31.861Zm-26.4-1.461a.558.558,0,0,0,.236-.071.226.226,0,0,0,.141-.212l-.047-.141ZM52.457-21.679a.124.124,0,0,1,.107.035.124.124,0,0,1,.035.107.124.124,0,0,1-.035.107.124.124,0,0,1-.107.035q-.094,0-.094-.141T52.457-21.679Zm13.01-10.559a.124.124,0,0,1,.107.035.124.124,0,0,1,.035.107.124.124,0,0,1-.035.107.124.124,0,0,1-.107.035q-.094,0-.094-.141T65.467-32.238ZM48.922-17.861q-.094,0-.094.141t.094.141a.124.124,0,0,0,.107-.035.124.124,0,0,0,.035-.107.124.124,0,0,0-.035-.107A.124.124,0,0,0,48.922-17.861Zm6.411-14.613a.775.775,0,0,0,.047.236.218.218,0,0,0,.236.141Q55.521-32.474,55.333-32.474ZM65.467-29.41q-.094,0-.094.141t.094.141a.124.124,0,0,0,.107-.035.124.124,0,0,0,.035-.107.124.124,0,0,0-.035-.107.124.124,0,0,0-.107-.035ZM54.484-25.591a.124.124,0,0,1,.107.035.124.124,0,0,1,.035.107.124.124,0,0,1-.035.107.124.124,0,0,1-.107.035q-.094,0-.094-.141T54.484-25.591Zm-6.222-6.128q-.094,0-.094.141t.094.141a.124.124,0,0,0,.107-.035.124.124,0,0,0,.035-.107.124.124,0,0,0-.035-.107A.124.124,0,0,0,48.262-31.719Zm-12.725.566a.124.124,0,0,0-.107.035.124.124,0,0,0-.035.107.124.124,0,0,0,.035.107.124.124,0,0,0,.107.035q.094,0,.094-.141T35.537-31.154ZM65-33.746q.094,0,.094.141T65-33.464a.124.124,0,0,1-.107-.035.124.124,0,0,1-.035-.107.124.124,0,0,1,.035-.107A.124.124,0,0,1,65-33.746ZM49.11-32.662q.094,0,.094.141t-.094.141A.124.124,0,0,1,49-32.414a.124.124,0,0,1-.035-.107A.124.124,0,0,1,49-32.627.124.124,0,0,1,49.11-32.662ZM40.3-28.325q.094,0,.094.141t-.094.141a.124.124,0,0,1-.107-.035.124.124,0,0,1-.035-.107.124.124,0,0,1,.035-.107A.124.124,0,0,1,40.3-28.325ZM34.73-16.494q.094,0,.094.141t-.094.141a.124.124,0,0,1-.106-.037.124.124,0,0,1-.033-.107.124.124,0,0,1,.035-.1A.124.124,0,0,1,34.73-16.494ZM58.064-36.2a.124.124,0,0,0-.107.035.124.124,0,0,0-.035.107.124.124,0,0,0,.035.107.124.124,0,0,0,.107.035q.094,0,.094-.141t-.092-.141Zm7.026,7.825q0,.283.141.33l.139-.1Q65.232-28.373,65.09-28.373Zm-2.543-7.118q-.141.047-.141.377a.286.286,0,0,0,.141-.071.2.2,0,0,0,.094-.165l-.047-.094ZM31.386-24.649a.277.277,0,0,0-.236.141.458.458,0,0,0-.094.236.665.665,0,0,1,.212-.212.248.248,0,0,1,.306-.024Q31.575-24.554,31.386-24.649ZM39.73-31.3a.218.218,0,0,0,.236.141v-.283A.218.218,0,0,0,39.73-31.3ZM37.561-18.712q.094,0,.094.165t-.094.165q-.094,0-.094-.165T37.561-18.712ZM65.8-26.3q-.094,0-.094.165t.094.165q.094,0,.094-.165T65.8-26.3Zm1.886,0q.094,0,.094.165t-.094.165q-.094,0-.094-.165T67.683-26.3ZM30.49-28.469q.094,0,.094.165t-.094.165q-.094,0-.094-.165t.094-.163ZM38.5-34.456q-.094,0-.094.165t.094.165q.094,0,.094-.165t-.094-.163Zm25.926,0q.094,0,.094.165t-.094.165q-.094,0-.094-.165t.094-.163Zm1.365,14.943q-.094,0-.094.165t.094.165q.094,0,.094-.165T65.8-19.51ZM37.561-36.622q.094,0,.094.165t-.094.165q-.094,0-.094-.165T37.561-36.622Zm29.6,11.549q-.094,0-.094.165t.094.165q.094,0,.094-.165T67.164-25.073ZM30.49-37.85q-.094,0-.094.165t.094.165q.094,0,.094-.165t-.094-.163Zm26.068,8.014q.094,0,.094.165t-.094.165q-.094,0-.094-.165t.094-.163Zm2.31-8.815q-.094,0-.094.165t.094.165q.094,0,.094-.165t-.094-.163Zm-1.226,0q-.094,0-.094.165t.094.165q.094,0,.094-.165t-.094-.163Zm-19.7,17.774q.094,0,.094.165t-.094.165q-.094,0-.094-.165T37.938-20.877ZM29.548-41.053a.362.362,0,0,1-.047.141l.094-.094a.277.277,0,0,0,.141-.236h-.33Q29.548-41.1,29.548-41.053Zm8.532,19.28q-.094,0-.094.118t.094.118q.141,0,.141-.118T38.08-21.773ZM57.218-32.9q-.094,0-.094.118t.094.118q.141,0,.141-.118T57.218-32.9Zm-4.761,8.532q-.094,0-.094.118t.094.118q.141,0,.141-.118T52.457-24.366ZM43.5-38.321q-.094,0-.094.118t.094.118q.141,0,.141-.118t-.141-.115ZM66.834-22.339q-.094,0-.094.118t.094.118q.141,0,.141-.118T66.834-22.339ZM29.783-36.294q-.094,0-.094.118t.094.118q.141,0,.141-.118t-.141-.115Zm35.684,7.733q-.094,0-.094.118t.094.118q.141,0,.141-.118T65.467-28.561ZM38.08-25.968q-.094,0-.094.118t.094.118q.141,0,.141-.118T38.08-25.968Zm-3.913,9.333q.094,0,.094.141t-.094.139q-.094,0-.094-.139T34.167-16.635Zm15.084-1.226q-.094,0-.094.141t.094.141q.094,0,.094-.141T49.252-17.861Zm4.855-9.381q-.094,0-.094.141t.094.141q.094,0,.094-.141T54.107-27.241ZM31.056-22.48q-.094,0-.094.141t.094.141q.094,0,.094-.141T31.056-22.48ZM67.4-21.255q.094,0,.094.141t-.094.141q-.094,0-.094-.141T67.4-21.255ZM30.113-32.662q-.094,0-.094.141t.094.141q.094,0,.094-.141T30.113-32.662ZM63.865-32.8q-.094,0-.094.141t.094.141q.094,0,.094-.141T63.865-32.8ZM39.588-25.874q.094,0,.094.141t-.094.141q-.094,0-.094-.141T39.588-25.874Zm-1.65,2.31q-.094,0-.094.141t.094.141q.094,0,.094-.141T37.938-23.564ZM55.71-37.939q.094,0,.094.141t-.094.141q-.094,0-.094-.141T55.71-37.939ZM42.56-39.874q.094,0,.094.141t-.094.141q-.094,0-.094-.141t.092-.141Zm2.171,2.734q-.094,0-.094.141t.094.141q.094,0,.094-.141t-.1-.141ZM30.5-31.434q-.094,0-.094.141t.094.141q.094,0,.094-.141t-.1-.144Zm34.176.8q-.094,0-.094.141t.094.141q.094,0,.094-.141t-.1-.144ZM43.359-39.026q-.094,0-.094.141t.094.141q.094,0,.094-.141T43.359-39.026ZM33.6-17.059q-.094,0-.094.141t.094.141q.094,0,.094-.141T33.6-17.059Zm15.744-.283q.094,0,.094.141t-.094.141q-.094,0-.094-.141T49.346-17.342Zm5.845-9.614q.094,0,.094.141t-.094.141q-.094,0-.094-.141t.094-.146Zm-2.171-5.28q-.094,0-.094.141t.094.141q.094,0,.094-.141t-.092-.144Zm-22.532-.283q-.094,0-.094.141t.094.141q.094,0,.094-.141t-.092-.144Zm-.141-.283q-.094,0-.094.141t.094.141q.094,0,.094-.141t-.092-.144Zm.566,4.761q-.094,0-.094.141t.094.141q.094,0,.094-.141t-.092-.144Zm5.28-5.044q-.094,0-.094.141t.094.141q.094,0,.094-.141t-.092-.144Zm13.3,14.941q-.094,0-.094.141t.094.141q.094,0,.094-.141T49.487-18.143Zm17.111-9.9q-.094,0-.094.141t.094.141q.094,0,.094-.141T66.6-28.043ZM37.561-34.831q-.094,0-.094.141t.094.141q.094,0,.094-.141T37.561-34.831Zm-6.929-.8q-.094,0-.094.141t.094.141q.094,0,.094-.141T30.632-35.632Zm8.812,6.222q-.094,0-.094.141t.094.141q.094,0,.094-.141T39.444-29.41ZM61.835-36.2q-.094,0-.094.141t.094.141q.094,0,.094-.141T61.835-36.2ZM41.1-29.41q-.094,0-.094.141t.094.141q.094,0,.094-.141T41.1-29.41Zm10.559,0q-.094,0-.094.141t.094.141q.094,0,.094-.141T51.656-29.41ZM30.349-36.48q-.094,0-.094.141t.094.141q.094,0,.094-.141T30.349-36.48ZM62.4-37q-.094,0-.094.141t.094.141q.094,0,.094-.141T62.4-37ZM46.235-37.14q-.094,0-.094.141t.094.141q.094,0,.094-.141T46.235-37.14Zm-3.394-.283q-.094,0-.094.141t.094.141q.094,0,.094-.141T42.841-37.423Zm13.576-.516q-.094,0-.094.141t.094.141q.094,0,.094-.141T56.417-37.939ZM40.672-30.352q-.094,0-.094.141t.094.141q.094,0,.094-.141T40.672-30.352Zm.283-.283q-.094,0-.094.141t.094.141q.094,0,.094-.141T40.955-30.635Zm.943-8.391q.094,0,.094.141t-.094.141q-.094,0-.094-.141T41.9-39.026Zm14.943,0q-.094,0-.094.141t.094.141q.094,0,.094-.141T56.841-39.026ZM51.42-29.268q-.094,0-.094.141t.094.141q.094,0,.094-.141T51.42-29.268ZM64.2-34.689q.094,0,.094.118t-.094.118q-.141,0-.141-.118t.136-.118ZM31.15-23.14q-.047-.094-.047.186t.047.186a.19.19,0,0,0,.094-.186A.19.19,0,0,0,31.15-23.14ZM65-31.531q-.141,0-.141.118T65-31.3q.094,0,.094-.118T65-31.531ZM36.9-17.578q.094,0,.094.118t-.094.118q-.141,0-.141-.118T36.9-17.578Zm29.462-1.365q.094,0,.094.118t-.094.113q-.141,0-.141-.118t.141-.115Zm-.707-1.365q-.141,0-.141.118t.141.118q.094,0,.094-.118t-.094-.124Zm1.365-5.421q-.141,0-.141.118t.141.118q.094,0,.094-.118t-.092-.124Zm-8.954-5.141q.094,0,.094.118t-.094.118q-.141,0-.141-.118T58.067-30.868Zm-28.1-4.478q-.141,0-.141.118t.141.118q.094,0,.094-.118t-.092-.12Zm1.365-.943q-.141,0-.141.118t.141.118q.094,0,.094-.118t-.089-.12Zm8.956,6.458h.283a.277.277,0,0,0-.141-.236Zm8.16-4.056h-.236q0-.141.236-.236Zm-17.111-.8.141-.141-.141-.094-.186.094ZM63.063-32.9q-.094,0-.094.118t.094.118q.094,0,.094-.118T63.063-32.9ZM42.039-38.746q.094,0,.094.118t-.094.118q-.094,0-.094-.118T42.039-38.746Zm14.236,1.084q-.094,0-.094.118t.094.118q.094,0,.094-.118t-.094-.115ZM41.757-39.45q.094,0,.094.118t-.094.118q-.094,0-.094-.118T41.757-39.45ZM50.289-29.5q.094,0,.094.118t-.094.118q-.094,0-.094-.118T50.289-29.5ZM43.359-39.686q.094,0,.094.118t-.094.118q-.094,0-.094-.118T43.359-39.686ZM55.71-32.1q-.094,0-.094.118t.094.118q.094,0,.094-.118T55.71-32.1ZM44.726-29.926q-.094,0-.094.118t.094.118q.094,0,.094-.118t-.094-.12Zm-5.562.424q-.094,0-.094.118t.094.118q.094,0,.094-.118t-.094-.12Zm-7.589.8q-.094,0-.094.118t.094.118q.094,0,.094-.118T31.575-28.7Zm4.9,10.983q-.094,0-.094.118t.094.118q.094,0,.094-.118T36.477-17.719Zm25.5-17.771q-.094,0-.094.118t.094.118q.094,0,.094-.118T61.979-35.491Zm-15.6-.566q.094,0,.094.118t-.094.118q-.094,0-.094-.118T46.376-36.056ZM40.437-28.7q.094,0,.094.118t-.094.118q-.094,0-.094-.118T40.437-28.7ZM30.349-40.252q-.094,0-.094.118t.094.118q.094,0,.094-.118T30.349-40.252Zm-.236,5.987q-.094,0-.094.118t.094.118q.094,0,.094-.118T30.113-34.265Zm26.728-3.818q-.094,0-.094.118t.094.118q.094,0,.094-.118T56.841-38.083ZM30.349-40.911q-.094,0-.094.118t.094.118q.094,0,.094-.118T30.349-40.911ZM65.8-18.379q.094,0,.094.118t-.094.118q-.094,0-.094-.118T65.8-18.379ZM36.053-31.528q-.094,0-.094.118t.094.118q.094,0,.094-.118t-.094-.12Zm4.62-.566q-.094,0-.094.118t.094.118q.094,0,.094-.118t-.094-.12ZM30.632-32.9q-.094,0-.094.118t.094.118q.094,0,.094-.118t-.094-.115Zm12.492-4.761q-.094,0-.094.118t.094.118q.094,0,.094-.118t-.094-.115ZM67.541-22.574q-.094,0-.094.118t.094.118q.094,0,.094-.118T67.541-22.574Zm-34.6,5.421q.094,0,.094.118t-.094.118q-.094,0-.094-.118T32.942-17.153Zm34.883-5.421q-.094,0-.094.118t.094.118q.094,0,.094-.118T67.824-22.574ZM38.5-27.333q-.094,0-.094.118t.094.118q.094,0,.094-.118T38.5-27.333ZM66.6-28.7q-.094,0-.094.118t.094.118q.094,0,.094-.118t-.1-.124ZM44.066-38.083q-.094,0-.094.118t.094.118q.094,0,.094-.118T44.066-38.083Zm18.054,2.027q-.094,0-.094.118t.094.118q.094,0,.094-.118T62.121-36.056ZM53.447-24.507q.094,0,.094.118t-.094.118q-.094,0-.094-.118T53.447-24.507ZM44.066-38.884q.094,0,.094.118t-.094.118q-.094,0-.094-.118T44.066-38.884ZM67.541-25.968q.094,0,.094.118t-.094.118q-.094,0-.094-.118T67.541-25.968ZM45.858-35.491q-.094,0-.094.118t.094.118q.094,0,.094-.118T45.858-35.491Zm-14.8,10.323q-.094,0-.094.118t.094.118q.094,0,.094-.118T31.056-25.167Zm8.815-.943q.094,0,.094.118t-.094.118q-.094,0-.094-.118T39.871-26.11ZM49.252-32.1q.094,0,.094.118t-.094.118q-.094,0-.094-.118T49.252-32.1ZM31.48-21.773q-.094,0-.094.118t.094.118q.094,0,.094-.118T31.48-21.773Zm32.149-11.69q-.094-.047-.094.118t.094.118a.083.083,0,0,0,.071-.024.083.083,0,0,0,.024-.071.151.151,0,0,0-.094-.141Zm1.178,5.138q-.094-.047-.094.071t.094.118Q65.09-28.325,64.807-28.325ZM48.123-34.548q.094,0,.094.118a.169.169,0,0,1-.094.165q-.047.047-.047-.141t.045-.141Zm-2.027.094.283-.236h-.285ZM50.05-17.578a.386.386,0,0,1-.141.236v-.377ZM30.915-25.591q.094.186.236.186v-.186Zm6.647,6.222q.047.047,0,.118a.159.159,0,0,1-.141.071q-.094-.047,0-.165T37.561-19.369Zm27.011-9.475q-.047-.094-.141,0t0,.141q.094.047.141,0T64.572-28.844Zm2.687,1.084a.083.083,0,0,1,.071.024.083.083,0,0,1,.024.071.272.272,0,0,1-.094.186q-.047.047-.047-.141t.047-.139Zm-29.32-6.929q-.047-.047-.047.118t.047.118Q38.174-34.548,37.938-34.689Zm-6.885-.424.094-.236h-.236ZM56.7-30.729q-.047-.047-.047.118t.047.118a.151.151,0,0,0,.094-.141.083.083,0,0,0-.024-.071.083.083,0,0,0-.071-.024Zm-2.64,5.091a.136.136,0,0,0,.047-.094q.141-.141-.094-.141v.283ZM36.715-34.265q.094-.094-.024-.094t-.118.094q.047.094.094.094T36.715-34.265Zm20.691,2.734a.229.229,0,0,0,.047.118.229.229,0,0,1,.047.118v-.424a.136.136,0,0,0-.047.094A.136.136,0,0,0,57.407-31.531Zm8.063.236q0-.094-.094,0t0,.141a.388.388,0,0,0,.118-.024q.068-.024-.026-.118ZM38.928-27.477h.236l-.236-.186ZM49.252-31.3q0,.094-.047.094T49.11-31.3q0-.094.071-.094t.071.094ZM31.339-35.823q0-.047-.094-.047t-.094.047q.047.094.118.094t.071-.092ZM67.824-24.51q.094,0,.094.047t-.094.094a.083.083,0,0,1-.071-.024.083.083,0,0,1-.024-.071q0-.092.094-.045ZM41.9-37.659q-.094-.047-.094.047a.083.083,0,0,0,.024.071.083.083,0,0,0,.071.024q.094-.047.094-.094t-.094-.047ZM30.632-36.2q-.094,0-.094.071t.094.071q.094,0,.094-.047T30.632-36.2Zm32.714.377a.083.083,0,0,0-.071.024.083.083,0,0,0-.024.071.083.083,0,0,0,.024.071.083.083,0,0,0,.071.024l.047-.047a.192.192,0,0,0-.047-.141Zm.424,4.95q0-.094-.071-.094t-.071.094q0,.094.047.094t.094-.092ZM65-28.844q-.094,0-.094.071T65-28.7Q65.137-28.844,65-28.844Zm1.365,7.966q-.094,0-.094.071t.094.071Q66.5-20.736,66.363-20.877ZM40.672-27.9q.141,0,0,.141a.083.083,0,0,1-.071-.024.083.083,0,0,1-.024-.071Q40.578-27.948,40.672-27.9Zm9.378.66q-.094,0-.094.071t.094.071Q50.194-27.1,50.05-27.241ZM33.884-16.355q0,.141-.141,0,0-.094.071-.094T33.884-16.355Zm5.987-13.856q-.094,0-.094.071t.094.071Q40.012-30.07,39.871-30.211Zm-.707-.657q0-.094-.094,0t0,.141Q39.211-30.729,39.164-30.868Zm16.313-.566q-.094,0-.094.071t.094.071q.139-.05,0-.144Zm10.887,7.493v-.186h-.186ZM42.134-39.448q0,.094-.047.094t-.047-.094q-.047-.094.047-.094t.047.092Zm-.9,9.944q0-.094-.071-.094T41.1-29.5Q41.1-29.362,41.238-29.5Zm26.3,6.741q0-.094-.071-.094t-.071.094Q67.447-22.619,67.541-22.763ZM37.561-18l-.094.047L37.42-18q-.047-.094.071-.094T37.561-18Zm-4.855.283q.141.186.236,0Zm5.657-9.758q-.047-.094-.047.024t.047.118q.094-.047.094-.094T38.363-27.477Zm-.8-7.778-.094-.047-.047.047q0,.094.071.094T37.561-35.255Zm15.32,3.394-.047-.047q-.094,0-.094.047.047.094.094.094T52.881-31.861ZM42.039-39.214q-.094.236-.141,0l.047-.047ZM37.561-21.4l-.047.094.047.047q.094,0,.094-.071T37.561-21.4Zm8.815-10.559q.047-.092-.047-.092a.083.083,0,0,0-.071.024.083.083,0,0,0-.024.071l.047.047Zm.707-3.96a.136.136,0,0,0-.094.047q-.094.094-.141.094l.047-.141ZM41.144-38.7a.136.136,0,0,1,.047.094.136.136,0,0,0,.047.094q-.141,0-.141-.236ZM46.8-32.662l-.094-.047-.047.047q0,.094.047.094T46.8-32.662ZM56.982-29.69q-.047.094-.094.094t-.047-.094l.047-.047Zm-14.66-8.393a.29.29,0,0,1,.165.047q.071.047-.024.094ZM30.207-35.632l-.047.094.047.047q.094-.047.094-.094T30.207-35.632Zm33.657,2.171-.047.094.047.047q.094-.047.094-.094t-.094-.05ZM32-22.1q.141,0,.141-.236Zm11.5-9.758-.047.094.047.047Q43.689-31.767,43.5-31.861ZM45.952-36.2q.094.047.094.094t-.094.047L45.9-36.1ZM29.783-37l-.047.094.047.047q.094,0,.094-.047T29.783-37Zm7.778,12.728-.047.094.047.047q.094,0,.094-.047T37.561-24.271Zm4.9-8.249q-.047,0-.094.094a.419.419,0,0,0-.047.186ZM67.68-24.743q.094,0,.094.047t-.094.047l-.047-.047q0-.141.05-.047ZM31.575-22.48l-.047-.047-.047.047q0,.094.047.094T31.575-22.48ZM66.6-24.743l-.047.047.047.047q.094,0,.094-.047T66.6-24.743ZM48.545-32.9l-.045.045.047.047q.094,0,.094-.047T48.545-32.9Zm7.307-5.848q.094,0,.094.047t-.094.047L55.8-38.7Zm-6.364,7.592q.094,0,.094.047t-.094.047l-.047-.047ZM63.3-31.3a.192.192,0,0,0-.047.141Q63.3-31.154,63.3-31.3Zm-25.405,4.62-.047.141Q37.894-26.534,37.894-26.676Zm-2.218,9.758.047-.047.047-.094Z" transform="translate(36.34 52.205)" fill="#fff" stroke="#fff" stroke-width="1"/>
            <path id="Path_547" data-name="Path 547" d="M31.124-25.2a.525.525,0,0,1,.047-.236l-.613.283v.186l.141.141a1.636,1.636,0,0,0-.212.283,2.67,2.67,0,0,0-.212.424q.094-.094.141-.094.094,0,.094.141t-.094.141q-.186,0-.186-.094-.094.141-.141.141,0-.141-.047-.566a.537.537,0,0,0-.377-.519.54.54,0,0,0-.165.047q-.118.047-.118.094a1.461,1.461,0,0,1-.094-.33,2.185,2.185,0,0,1-.047-.424l.141-.283a1.461,1.461,0,0,0,.094-.33,2.352,2.352,0,0,0,.047-.283.286.286,0,0,0-.071-.141.286.286,0,0,1-.071-.141l-.047-.094V-26.9h.377a.772.772,0,0,0-.047-.186v-.141a1.035,1.035,0,0,0,.186-.306q.094-.212,0-.306a.912.912,0,0,1-.165.118.41.41,0,0,1-.165.071.941.941,0,0,0,.212-.682.662.662,0,0,1,.4-.636,1.3,1.3,0,0,1-.613-.471q.236-.094.165-.141a.212.212,0,0,1-.071-.186q-.094,0-.118.047t-.118-.186a1.427,1.427,0,0,0,.165-.306,4.91,4.91,0,0,1,.259-.5q.141-.236.259-.448t.165-.212a.847.847,0,0,1-.141-.519,2.237,2.237,0,0,1,.047-.519,1.379,1.379,0,0,0-.141-.118.468.468,0,0,1-.141-.165l.566-.754v-.047l.047-.094q0-.186-.118-.236t-.118-.236q.186,0,.186-.141a.362.362,0,0,0-.047-.141,1.091,1.091,0,0,0-.141-.236.426.426,0,0,1,.236-.377.909.909,0,0,1,.471-.141h.186q.141,0,.186.186-.047.047-.165.186a.409.409,0,0,0-.118.236.422.422,0,0,0,.071.212.2.2,0,0,0,.165.118q.141,0,.259-.354a2.78,2.78,0,0,0,.118-.4.767.767,0,0,0-.071-.212.715.715,0,0,1-.071-.259l-.464-.139.613-.33q.094.236.118.186t.118-.047q0-.141.071-.165t-.165-.118a2.866,2.866,0,0,1,.5-.471,1.747,1.747,0,0,1,.542-.377.372.372,0,0,1,.283.024,1.01,1.01,0,0,0,.236.071,1.706,1.706,0,0,1,.118-.66q.118-.283.589-.283v-.377a.989.989,0,0,1,.094-.4q.094-.212.141-.212a.9.9,0,0,0,.566-.33,2.339,2.339,0,0,0,.424-.519q.236.186.259.141t.259-.047q0-.094-.047-.118t.186-.165v.471q.094-.047.306-.165a.763.763,0,0,1,.306-.118q.283,0,.212.306t.306.306a.124.124,0,0,0,.107-.035.124.124,0,0,0,.035-.107.434.434,0,0,0-.283-.471.513.513,0,0,1,.4-.283q.212,0,.212-.377v-.236q0-.141-.186-.186l.471-.141a3.619,3.619,0,0,1,.186-.66.55.55,0,0,1,.566-.377.386.386,0,0,0-.141.236q0,.094.186.236a.572.572,0,0,0,.283.141.384.384,0,0,0,.283-.094q-.094.186.141.283l.094-.094a.136.136,0,0,0,.047-.094,1.337,1.337,0,0,1,.566-.424q.283-.094.377-.613h.9a.19.19,0,0,1-.094-.186.124.124,0,0,1,.035-.107.124.124,0,0,1,.107-.035q.094,0,.094.141a.19.19,0,0,1-.094.186h.236a1.132,1.132,0,0,1,.4-.306,1.178,1.178,0,0,1,.542-.165l.141.141a.677.677,0,0,1,.471-.283.452.452,0,0,0,.33.141.79.79,0,0,1-.542.589.806.806,0,0,0-.542.636q.236.141.236.118t.236-.024a.868.868,0,0,1,.094-.5.7.7,0,0,1,.236-.186q.141-.071.259-.141a.5.5,0,0,0,.165-.354,1.071,1.071,0,0,1,.118-.424.4.4,0,0,1,.118-.118.372.372,0,0,0,.094-.071.58.58,0,0,0,.094-.236l.141.424q.047,0,.259-.024a1.915,1.915,0,0,1,.424,0,.966.966,0,0,1,.377.118.348.348,0,0,1,.165.33.452.452,0,0,0-.141.33h.282q.047,0,.212-.165t.212-.165a.76.76,0,0,1,.33.165.977.977,0,0,0,.283.165h.283q.186,0,.236-.071t.283-.071q.236.094.4.141t.306.094a1.19,1.19,0,0,1,.283.141,1.385,1.385,0,0,1,.33.377,1.291,1.291,0,0,0,.5.259,5.291,5.291,0,0,0,.754.186q.4.071.707.141t.306.212a.159.159,0,0,1-.071.141.212.212,0,0,0-.071.186q0,.377.33.377h.613v.283q.283,0,.236.141t.236.283a1.845,1.845,0,0,1,.259.047,1.442,1.442,0,0,1,.306.094,1.634,1.634,0,0,1,.5.589,5.724,5.724,0,0,1,.448.992,9.933,9.933,0,0,1,.306,1.061,3.862,3.862,0,0,1,.118.754q0,.377-.047.992a1.335,1.335,0,0,1-.236.8l-.33.283a.62.62,0,0,0-.636-.471,2.481,2.481,0,0,0-.872.047,1.213,1.213,0,0,1-.542-.966,2.2,2.2,0,0,0-.354-1.108,2.444,2.444,0,0,0-.613-.589q-.471-.354-.613-.448l.094-.094a.136.136,0,0,0,.047-.1.507.507,0,0,1-.283-.094q-.141-.094-.141.283l-.33-.754q-.566-.377-.966-.636a1.832,1.832,0,0,0-1.013-.259.328.328,0,0,0-.141.024.328.328,0,0,1-.141.024h-.141a.633.633,0,0,0-.212.259.763.763,0,0,0-.118.306.062.062,0,0,1-.047.022.062.062,0,0,1-.047-.022h-.047a.136.136,0,0,0-.047-.094l-.094-.094a.325.325,0,0,1-.118.212.325.325,0,0,1-.212.118.372.372,0,0,1-.236.047.192.192,0,0,0-.141.047v-.707a2.834,2.834,0,0,1-.471-.094,3.078,3.078,0,0,1-.471-.141q0-.047-.094-.141a.136.136,0,0,0-.094-.047.3.3,0,0,0-.283.186h-2.26a3.336,3.336,0,0,1-.589.259q-.448.165-.943.354t-.872.354q-.377.165-.424.306a.642.642,0,0,0-.024.448q.071.165-.306.354a.334.334,0,0,0-.33-.236l-.094.047h-.05a11.708,11.708,0,0,0-2.216,2.712,6.32,6.32,0,0,0-.992,3.323v.377a.507.507,0,0,0-.259.283,1.276,1.276,0,0,0-.071.448,4.3,4.3,0,0,0,.024.471q.024.212.024.306,0,.424.047,1.131a6.956,6.956,0,0,0,.236,1.391,4.007,4.007,0,0,0,.541,1.2,1.271,1.271,0,0,0,1.013.566.51.51,0,0,0-.141.377,1.352,1.352,0,0,0,.283.872,2.787,2.787,0,0,0,.754.636l-.186.33a4.006,4.006,0,0,1,1.037.519q.471.33.966.636a9,9,0,0,0,1.013.542,2.818,2.818,0,0,0,1.178.236q.047,0,.542-.071t1.061-.165q.566-.094,1.061-.186a3.438,3.438,0,0,0,.589-.141q.047-.047.283-.259t.33-.212a1.792,1.792,0,0,1,.589-.024q.5.024.589.024a2.582,2.582,0,0,0,.778-.236,1.917,1.917,0,0,1,.825-.186.558.558,0,0,1,.354.071.366.366,0,0,0,.259.071,2.117,2.117,0,0,0,.754-.165q.424-.165.872-.377t.875-.376a2.117,2.117,0,0,1,.754-.165q0,.047.141.094a.772.772,0,0,0,.186.047.767.767,0,0,0,.212-.071.767.767,0,0,1,.212-.071,2.754,2.754,0,0,1,.236.283q.141.186.186.186a.2.2,0,0,0,.186,0,.548.548,0,0,0,.141-.094v.566q0,.047-.165.212t-.165.212q0,.047.141.165t.186.165q-.566.094-.471.566l-.141-.283a.451.451,0,0,0-.354.236,3.152,3.152,0,0,0-.306.566,6.388,6.388,0,0,0-.236.636q-.094.306-.141.5l-.141-.141a1.931,1.931,0,0,1-.306.5.626.626,0,0,1-.5.259.36.36,0,0,1-.259-.118,1.049,1.049,0,0,0-.354-.212v.33a1.158,1.158,0,0,1-.424-.094l-.424-.236H49.31q.33.186.33.424a.367.367,0,0,1-.141.33,3.061,3.061,0,0,0-.283-.259,1.378,1.378,0,0,1-.141-.118l-.047-.047a.186.186,0,0,1-.141.186q-.141.047-.33.118a1.53,1.53,0,0,0-.354.186.545.545,0,0,0-.212.354.409.409,0,0,1-.236-.118.337.337,0,0,1-.141-.259,1.019,1.019,0,0,0-.27.755.773.773,0,0,1-.354-.118q-.212-.118-.212-.071,0,.236-.141.259a1.482,1.482,0,0,1-.236.024h-.285l.186-.141h-.186a1.246,1.246,0,0,0-.8.377,1.559,1.559,0,0,0-.519.757,1.377,1.377,0,0,1-.141.118.313.313,0,0,1-.186.071q-.141,0-.141-.186a2.853,2.853,0,0,1-.236.186.573.573,0,0,1-.283.141,1.094,1.094,0,0,1-.354-.118q-.259-.118-.165-.354a2.569,2.569,0,0,1-1.747.66.961.961,0,0,0-.071-.33.292.292,0,0,0-.306-.186.875.875,0,0,0-.236.213,1.441,1.441,0,0,0-.186.259l.141.141-.141.186-.471-.331a.912.912,0,0,1-.165.118.415.415,0,0,0-.165.165,2.756,2.756,0,0,0-.283-.236,1.226,1.226,0,0,0-.33-.186,1.643,1.643,0,0,0-.285.069,1.644,1.644,0,0,1-.283.071,1.817,1.817,0,0,1-.4-.1q-.306-.094-.354-.186l-.33.283a.615.615,0,0,0-.471-.283,3.417,3.417,0,0,1,.589-.165q.354-.071.354-.354,0-.236-.33-.236a.233.233,0,0,0-.183.062.233.233,0,0,0-.076.177q-.024.236-.354.236-.047,0-.212-.259a.832.832,0,0,0-.5-.354l-.141-.283v-.05a.192.192,0,0,1,.047-.141A.548.548,0,0,1,36.5-17.7a.3.3,0,0,0-.186-.236.89.89,0,0,0-.283-.047.212.212,0,0,0-.186.071.212.212,0,0,1-.186.071q-.186,0-.236-.236a1.055,1.055,0,0,0-.141-.377.313.313,0,0,0-.186.071.45.45,0,0,0-.141.259l.141.141q0,.094-.141.186a.486.486,0,0,1-.186.094.827.827,0,0,1-.542-.33,4.814,4.814,0,0,1-.6-.8,6.6,6.6,0,0,1-.471-.943,2.142,2.142,0,0,1-.186-.707.819.819,0,0,0-.165.259.353.353,0,0,1-.212.212,1.24,1.24,0,0,0-.236-.778,3.134,3.134,0,0,0-.5-.519,2.7,2.7,0,0,0-.5-.33q-.236-.118-.236-.212h.33q0-.283-.424-.424l.141-.186a1.829,1.829,0,0,1-.094-.236l-.186-.377a.626.626,0,0,0-.4-.165q-.259-.024-.259-.354a.651.651,0,0,1,.471.141h.186a1.258,1.258,0,0,0,.212-.754q-.024-.377-.071-.754-.094,0-.094-.165t.094-.165ZM29.38-28.076H29.1a.546.546,0,0,1,.165-.4.766.766,0,0,1,.4-.212ZM44.04-42.545a1.378,1.378,0,0,0,.141.118.286.286,0,0,0,.141.071q.094,0,.165-.141a.558.558,0,0,0,.071-.236,2.176,2.176,0,0,0-.306.024A.239.239,0,0,0,44.04-42.545Zm-6.977,1.6q0-.047.094-.141a.136.136,0,0,0,.047-.094.248.248,0,0,1,.212.212,1.949,1.949,0,0,1,.024.259Q37.064-40.707,37.064-40.942ZM40.272-16.76q-.141,0-.141.094a.151.151,0,0,0,.094.141.19.19,0,0,0-.094.186.124.124,0,0,0,.034.108.124.124,0,0,0,.108.036q.094,0,.118-.141t-.071-.186a.115.115,0,0,0,.068-.141A.112.112,0,0,0,40.272-16.76Zm10.7-3.158q-.094,0-.094.165t.094.165q.141,0,.141-.165T50.97-19.919ZM29.05-27.838q.141,0,.141.165t-.141.165q-.094,0-.094-.165T29.05-27.838Zm1.65-5.939q-.094,0-.094.165t.094.165q.141,0,.141-.165T30.7-33.777Zm14.424-8.768q-.141,0-.141.165t.141.165q.094,0,.094-.165T45.125-42.545ZM29.239-30.619q.094,0,.094.165t-.094.165q-.141,0-.141-.165T29.239-30.619Zm0-.613q.094,0,.094.165t-.094.165q-.141,0-.141-.165T29.239-31.232Zm18.62,13.39q.094,0,.094.165t-.094.165q-.141,0-.141-.165T47.859-17.842ZM36.357-40q.094,0,.094.165t-.094.165q-.141,0-.141-.165T36.357-40Zm-3.818,2.687q.094,0,.094.165t-.094.165q-.141,0-.141-.165T32.539-37.313ZM43-42.687q-.141,0-.141.165t.141.165q.094,0,.094-.165T43-42.687Zm-9.852,4.9q.094,0,.094.165t-.094.165q-.141,0-.141-.165t.144-.163Zm8.2,22.2a.318.318,0,0,1,.141.283q-.283,0-.33-.141Zm-4.429-24.7a.407.407,0,0,1,.141.283l-.283.141Zm-6.694,9.993q-.094,0-.094.141t.094.141a.124.124,0,0,0,.107-.035.124.124,0,0,0,.035-.107.124.124,0,0,0-.035-.107A.124.124,0,0,0,30.229-30.289ZM41.165-16.195a.124.124,0,0,1,.107.035.124.124,0,0,1,.035.107.124.124,0,0,1-.035.107.124.124,0,0,1-.107.035q-.094,0-.094-.141T41.165-16.195Zm2.687-26.633q-.094,0-.094.141t.094.141a.124.124,0,0,0,.107-.035.124.124,0,0,0,.035-.107.124.124,0,0,0-.035-.107A.124.124,0,0,0,43.852-42.828ZM40.081-17.373q-.094,0-.094.141t.094.141a.124.124,0,0,0,.107-.035.124.124,0,0,0,.035-.107.124.124,0,0,0-.035-.107A.124.124,0,0,0,40.081-17.373Zm7.118,0a.124.124,0,0,1,.107.035.124.124,0,0,1,.035.107.124.124,0,0,1-.035.107.124.124,0,0,1-.107.035q-.094,0-.094-.141T47.2-17.373ZM34.047-19.02q-.094,0-.094.141t.094.141a.124.124,0,0,0,.107-.035.124.124,0,0,0,.035-.107.124.124,0,0,0-.035-.107A.124.124,0,0,0,34.047-19.02ZM30.7-34.482q-.094,0-.094.141t.094.141a.124.124,0,0,0,.11-.032.124.124,0,0,0,.037-.109.124.124,0,0,0-.034-.11.124.124,0,0,0-.11-.034Zm1.841-1.037a.124.124,0,0,0-.107.035.124.124,0,0,0-.035.107.124.124,0,0,0,.035.107.124.124,0,0,0,.107.035q.094,0,.094-.141T32.539-35.519ZM50.687-20.06a.124.124,0,0,0-.107.035.124.124,0,0,0-.035.107.124.124,0,0,0,.035.107.124.124,0,0,0,.107.035q.094,0,.094-.141T50.687-20.06Zm-17.536-.9a.124.124,0,0,0-.107.035.124.124,0,0,0-.035.107.124.124,0,0,0,.035.107.124.124,0,0,0,.107.035q.094,0,.094-.141T33.151-20.956ZM46.3-42.828q.094,0,.094.141t-.094.141a.124.124,0,0,1-.107-.035.124.124,0,0,1-.035-.107.124.124,0,0,1,.035-.108.124.124,0,0,1,.109-.034ZM29.852-26.754a.124.124,0,0,0-.107.035.124.124,0,0,0-.035.107.124.124,0,0,0,.035.107.124.124,0,0,0,.107.035q.094,0,.094-.141T29.852-26.754Zm10.889,10.09a.124.124,0,0,0-.107.035.124.124,0,0,0-.035.107.124.124,0,0,0,.035.107.124.124,0,0,0,.107.035q.094,0,.094-.141T40.741-16.663ZM31.973-34.909a.124.124,0,0,0-.107.035.124.124,0,0,0-.035.107.124.124,0,0,0,.035.107.124.124,0,0,0,.107.035q.094,0,.094-.141T31.973-34.909Zm13.765-8.063q.094,0,.094.141t-.094.141a.124.124,0,0,1-.107-.035.124.124,0,0,1-.035-.107.124.124,0,0,1,.036-.1.124.124,0,0,1,.105-.034Zm4.054,4.761q-.094,0-.094.141a.124.124,0,0,0,.035.107.124.124,0,0,0,.107.035q0,.141.094.141v-.089a.192.192,0,0,1-.047-.141q0-.191-.094-.191Zm-8.768-4.759a1.189,1.189,0,0,1-.141.283q-.094.141-.141.141h-.186Zm-2.263,1.178q.094,0,.094.165t-.094.165q-.094,0-.094-.165T38.761-41.791Zm8.155-.9q.094,0,.094.165t-.094.165q-.094,0-.094-.165T46.916-42.687ZM38.148-15.912q.094,0,.094.165t-.094.165q-.094,0-.094-.165T38.148-15.912Zm.139-.613q-.094,0-.094.165t.094.165q.094,0,.094-.165T38.287-16.525Zm-2.26-22.721q-.094,0-.094.165t.094.165q.094,0,.094-.165T36.027-39.245ZM37.818-16.76q.141,0,.141.118t-.141.118q-.094,0-.094-.118T37.818-16.76Zm15.134-5.232q-.094,0-.094.141t.094.141q.094,0,.094-.141t-.1-.141Zm-7.12,4.62q.094,0,.094.141t-.094.141q-.094,0-.094-.141T45.832-17.373ZM32.256-20.2q.094,0,.094.141t-.094.141q-.094,0-.094-.141T32.256-20.2Zm18.1-17.255q-.094,0-.094.141t.094.141q.094,0,.094-.141T50.357-37.454Zm-11.172-4.62q.094,0,.094.141t-.094.141q-.094,0-.094-.141T39.185-42.074ZM50.357-40.9q-.094,0-.094.141t.094.141q.094,0,.094-.141T50.357-40.9Zm-7.212,24.7q.094,0,.094.141t-.094.141q-.094,0-.094-.141T43.145-16.195ZM51.3-40.754q.094,0,.094.141t-.094.141q-.094,0-.094-.141T51.3-40.754ZM34.379-18.881q-.094,0-.094.141t.094.141q.094,0,.094-.141T34.379-18.881Zm9.19,2.218q0,.236.141.283v-.05l.047-.094Q43.758-16.713,43.569-16.663ZM53.091-23.6q.094,0,.094.118t-.094.118q-.094,0-.094-.118T53.091-23.6ZM46.3-17.09v.186h-.186v-.186Zm-3.913.427a.408.408,0,0,0,.141.283l.141-.141ZM49.933-41.6q.047.094-.024.141t-.118,0q-.094-.047,0-.141t.141,0Zm-19.9,11.261q-.186.094-.186.186v.141l.186-.283Zm.519-.141h.33l-.186-.141ZM29.849-26q-.186,0-.186.141v.141Zm.848.141q-.047-.094-.118,0t-.024.141a.192.192,0,0,0,.141-.047.062.062,0,0,0,.023-.047.062.062,0,0,0-.02-.048ZM36.024-40q0,.094-.047.094T35.883-40q0-.094.071-.094t.073.094Zm15.556.471q-.094-.047-.094.047a.083.083,0,0,0,.024.071.083.083,0,0,0,.071.024q.094-.047.094-.094t-.092-.047Zm-20.406,5.61q-.094,0-.094.071t.094.071q.094,0,.094-.047t-.1-.094Zm14.377-5.327q-.094-.047-.094.071t.094.118q.092-.189,0-.189ZM44.04-16.525a.083.083,0,0,0-.071.023.083.083,0,0,0-.023.071q0,.094.094.047.094,0,.094-.047T44.04-16.525Zm1.7-.377q.141,0,0,.141a.083.083,0,0,1-.069-.024.083.083,0,0,1-.024-.071q0-.094.094-.047ZM32.114-33.447q-.094-.047-.094.047a.083.083,0,0,0,.024.071.083.083,0,0,0,.071.024Q32.256-33.447,32.114-33.447ZM52.525-20.06q.141,0,0,.141a.083.083,0,0,1-.073-.022.083.083,0,0,1-.024-.072Q52.429-20.107,52.525-20.06Zm-7.257,3.535q.089.047.089.094t-.094.047q-.092.047-.092-.047A.083.083,0,0,1,45.2-16.5a.083.083,0,0,1,.071-.023ZM39.8-16.9Q39.845-17,39.751-17a.083.083,0,0,0-.071.024.083.083,0,0,0-.024.071Q39.8-16.76,39.8-16.9Zm-2.451,0a.337.337,0,0,0,.186-.33Zm1.98.377v-.236l-.141.1ZM31.784-34.2l-.094-.047-.047.047q0,.094.047.094T31.784-34.2Zm-1.084.9q.186,0,.186-.141Z" transform="translate(79.736 55.863)" fill="#fff" stroke="#fff" stroke-width="1"/>
            <path id="Path_546" data-name="Path 546" d="M7.376-14.824q.1,0,.1.131t-.1.128q-.033,0-.033-.131a.761.761,0,0,1-.23.362.591.591,0,0,1-.46.23L6.39-14.3a1.35,1.35,0,0,1-.265-.266.16.16,0,0,1,.033-.082.636.636,0,0,0,.066-.181.1.1,0,0,1-.066-.033.383.383,0,0,0-.095-.062l-.164.46q-.1-.066-.1-.1a.479.479,0,0,0-.2-.062,1.641,1.641,0,0,0-.2-.033v-.164q0-.033-.214-.2t-.31-.23a.339.339,0,0,0-.131-.066q0-.263-.2-.263v.427l-.2-.1a.076.076,0,0,0-.082.049q-.017.05-.115.05a.288.288,0,0,1-.279-.164.729.729,0,0,1-.082-.329.105.105,0,0,0-.1.066q-.033.066-.066-.23l-.2.2q-.1-.263-.23-.263a.489.489,0,0,1-.248-.066.579.579,0,0,1-.2-.345,4.924,4.924,0,0,1-.082-1.131q0-.1.017-.362t.016-.329q.1-.033.2-.28a4.5,4.5,0,0,0,.18-.581q.082-.329.164-.641a1.892,1.892,0,0,1,.182-.476.4.4,0,0,0,.15-.082q.115-.082.115-.115a.705.705,0,0,0,.016-.3q-.017-.23-.016-.3a1.945,1.945,0,0,0,.148-.394,2.663,2.663,0,0,1,.213-.526,1.675,1.675,0,0,1,.248-.443,1.527,1.527,0,0,0,.248-.477v-.46a.447.447,0,0,1,.131-.28.427.427,0,0,1,.18-.1.517.517,0,0,0,.164-.066q.082-.049.082-.214a2.784,2.784,0,0,0,.033-.543,2.245,2.245,0,0,0-.033-.51,1.56,1.56,0,0,0,.378-.592,4.551,4.551,0,0,0,.176-.687q.066-.362.115-.739a3.473,3.473,0,0,1,.18-.74q.164-.164.164-.23A4.246,4.246,0,0,0,6.6-29.318a8.368,8.368,0,0,1,.378-1.545q.131-.263.263-.279t.263-.279a.564.564,0,0,1-.164-.164.481.481,0,0,1-.1-.164.292.292,0,0,1-.033-.131h.3q-.131-.1-.279-.213a.465.465,0,0,0-.28-.115q-.033,0-.164.148t-.31.329q-.18.181-.329.362t-.181.214a1.054,1.054,0,0,0-.164.46q-.033.263-.263.263a.146.146,0,0,1-.066-.017.146.146,0,0,0-.066-.016.226.226,0,0,0,.049-.115.224.224,0,0,0-.017-.148q0-.066-.2-.181t-.427-.263q-.23-.148-.46-.28a1.635,1.635,0,0,1-.3-.2q-.1-.066-.213-.148a.4.4,0,0,0-.148-.082.315.315,0,0,0-.131.082.507.507,0,0,0-.131.148l-.723-.986a.821.821,0,0,0-.214-.51.654.654,0,0,0-.411-.115l-.164.131q-.033,0-.049-.066t.016-.066q.131,0,.131-.263t-.1-.31a1.167,1.167,0,0,0-.329-.079v-.131a.2.2,0,0,1,.049-.1.218.218,0,0,0,.049-.131l.066.131q.1,0,.1-.131a.134.134,0,0,0-.033-.1q-.066-.066-.066-.1v-.23a.1.1,0,0,1,.066.033.383.383,0,0,0,.1.066.758.758,0,0,1,0-.329.635.635,0,0,1,.1-.329q0-.066.164-.148t.164-.115v-.23a.087.087,0,0,1,.025-.074.087.087,0,0,1,.074-.025.243.243,0,0,1,.115.23q-.016.131.148.2l.164-.329-.1-.106v-.131a1.385,1.385,0,0,1,.033-.23,1.019,1.019,0,0,1,.066-.23q.131.1.082.115a.076.076,0,0,0-.05.082.868.868,0,0,0,.444-.2.542.542,0,0,0,.28-.427.144.144,0,0,1,.084.091.144.144,0,0,1-.018.124.144.144,0,0,0-.018.124.144.144,0,0,0,.084.091,2.1,2.1,0,0,1,.115-.329q.049-.1.248-.1h.131a.63.63,0,0,1,.194.048.7.7,0,0,0,.164.05.755.755,0,0,0,.427-.131.756.756,0,0,1,.427-.131,2.684,2.684,0,0,1,.543.066q.31.066.31.46v.2q0,.066-.1.1v-.164a.1.1,0,0,1-.066-.033.376.376,0,0,0-.066.148.705.705,0,0,0-.033.181q0,.1.066.1.394-.3.543-.427a1.753,1.753,0,0,1,.641-.263,1.128,1.128,0,0,0-.066.46.625.625,0,0,0,.131-.362H7.8v.362a.587.587,0,0,1,.164-.164.339.339,0,0,1,.131-.066.193.193,0,0,1,.164.1,1.838,1.838,0,0,1,.115.2,1.082,1.082,0,0,0,.1.164q.049.066.082,0a.218.218,0,0,0,.131-.049.2.2,0,0,1,.1-.05q.131,0,.248.2a.335.335,0,0,1,.016.362l.558.362q-.1,0-.1.131l.033.1q.033.066.066.066l.131-.3a.532.532,0,0,0,.3.394q-.1.164.066.164.033,0,.1-.1v.657q-.1,0-.1.131a.538.538,0,0,0,.033.131q.033.1.066.1a.1.1,0,0,0,.033-.066l.066-.1a.215.215,0,0,1,.1-.1.682.682,0,0,0,.181.526.728.728,0,0,1,.181.558h.164a.892.892,0,0,0,.263.657l.263-.427v.2a.3.3,0,0,1,.148.05q.082.049.017.18a.1.1,0,0,1-.033.066.806.806,0,0,1,.3.723l-.066.131a.816.816,0,0,0-.033.3v.263l-.1-.131q-.131.164-.18.23a.863.863,0,0,0-.082.131.643.643,0,0,0,.049.476,2.791,2.791,0,0,0,.213.345q-.131,0-.164.263l.164.394q-.066.164-.115.148a.364.364,0,0,0-.115-.017,1.192,1.192,0,0,0,.115.51,1.192,1.192,0,0,1,.115.51,1.414,1.414,0,0,1-.033.263,1.64,1.64,0,0,0-.033.2q0,.033-.082.115t-.082.115a2.213,2.213,0,0,0,.033.362,2.017,2.017,0,0,1,.033.263.221.221,0,0,1-.1.2.372.372,0,0,0-.131.131v-.131a.3.3,0,0,1,.1-.263q-.066-.131-.131-.1a.291.291,0,0,1-.131.033v.888q.066,0,.066.131a.318.318,0,0,1-.05.214.158.158,0,0,1-.115.049.364.364,0,0,1-.115-.016q-.05-.017-.082.082v-.131a1.359,1.359,0,0,1,.016-.181.166.166,0,0,1,.115-.148l-.131-.033a.233.233,0,0,0-.248.2,1.759,1.759,0,0,0-.05.427h.164l-.362.329.2.1q0,.066-.131.115a.63.63,0,0,1-.2.05q-.131-.066-.3-.131t-.164-.131v-.23q-.066.1-.131.1l-.1-.1-.1.033v.558l.1-.1q.066-.066.1,0,.033,0,.082.066a.218.218,0,0,1,.05.131.343.343,0,0,1,0,.213q-.033.148-.066.148h-.5l.066.23H9.67q.066-.033.066-.066.066-.066.1-.066a.4.4,0,0,1,.148.033.208.208,0,0,1,.115.1q.131-.164.2-.263a1.613,1.613,0,0,0,.1-.164q.033.1.115.3a.948.948,0,0,1,.082.362.39.39,0,0,1-.066.248.347.347,0,0,1-.164.115.83.83,0,0,0-.2.1.481.481,0,0,0-.164.23.087.087,0,0,1,.074.025.087.087,0,0,1,.025.074.541.541,0,0,1-.033.164,1.275,1.275,0,0,1-.066.164q-.033.1-.082.3a2.809,2.809,0,0,1-.115.362q-.066.164-.1.263t-.033,0a2.592,2.592,0,0,0-.05-.509,1.768,1.768,0,0,1-.016-.543q-.2.164-.28.115a.576.576,0,0,0-.28-.05q0,.066-.016.214T9-22.023a1.489,1.489,0,0,0,0,.31,1.219,1.219,0,0,0,.049.248q.131-.033.148-.214t.05-.115q.066,0,.131.115a.4.4,0,0,1,.066.181.207.207,0,0,0-.213.115.662.662,0,0,0-.05.263q0,.148.016.31t.017.263a.213.213,0,0,0,.2-.115.213.213,0,0,1,.2-.115.454.454,0,0,1-.082.3.718.718,0,0,1-.2.164,1.479,1.479,0,0,0-.214.148,1.264,1.264,0,0,0-.2.214A.16.16,0,0,1,9-19.922a.11.11,0,0,1,.049.1.058.058,0,0,1,.049.017.058.058,0,0,1,.017.049,1.167,1.167,0,0,0-.427.066.88.88,0,0,1-.329.066v.23H8.165l-.1-.1L8-18.8a.11.11,0,0,0,.05.1.2.2,0,0,0,.115.033q.066,0,.066-.131a.54.54,0,0,0-.016-.131.186.186,0,0,1,.016-.131l.263.394h.394a1.848,1.848,0,0,0,.477-.066,1.848,1.848,0,0,1,.476-.066h.164a1.675,1.675,0,0,1,.329.033q.164.033.3.066t.131.1a.506.506,0,0,1,.2-.082,1.034,1.034,0,0,1,.164-.016.988.988,0,0,0,.164.033h.164l.164.066a.152.152,0,0,0,.164-.113q.033-.115.2-.115.066,0,.1.082a.128.128,0,0,0,.131.082.155.155,0,0,0,.164-.131h1.446a.248.248,0,0,1,.28-.148q.213.017.31.017a1.619,1.619,0,0,1,.625.1,1.465,1.465,0,0,0,.723.033.532.532,0,0,0,.082.214q.082.148.082.05,0-.131.164-.131a.118.118,0,0,0-.066.115q0,.082.066.082t.082-.082a.094.094,0,0,0-.049-.115q.2,0,.3.3a.221.221,0,0,1,.2-.1q.066,0,.066.263l-.164.2h.263q-.159.082-.31.18a.434.434,0,0,0-.213.28h.131a.222.222,0,0,0-.1.148.705.705,0,0,0-.033.181l.263.263-.033.1a.252.252,0,0,0-.033.1h.329v-.3l-.164.1q.1-.3.329-.3a4.66,4.66,0,0,1-.066.657q-.066.427-.362.427a.416.416,0,0,1-.2-.23l.066-.1q-.3,0-.3.427a2.227,2.227,0,0,0-.164-.329l-.1.23a.152.152,0,0,0-.164-.1.355.355,0,0,0-.263.1q.066-.131.148-.329a.62.62,0,0,0,.05-.362q.2.066.23.362a.355.355,0,0,0,.1-.263.27.27,0,0,0-.017-.082.27.27,0,0,1-.016-.082.616.616,0,0,1-.2-.115q-.1-.082-.1-.017l-.2.394q0,.033-.066.033a.134.134,0,0,1-.1-.033l-.1.164q.1.033.1.23a.221.221,0,0,1-.1.2l-.066-.2A1.275,1.275,0,0,0,15-16.1a.412.412,0,0,1-.1.164.4.4,0,0,0-.1-.248.4.4,0,0,0-.23-.049q0,.033.05.066t.016.1a.515.515,0,0,1-.1.131l-.131.131V-16.3a.393.393,0,0,1-.329-.18.423.423,0,0,0-.362-.181,2.477,2.477,0,0,0,.1.427q.066.066.1.016t.066-.049l.1-.033a1,1,0,0,1-.1.362q.1,0,0,.131-.066,0-.066-.1-.23.46-.394.46a.515.515,0,0,1-.394-.181.515.515,0,0,0-.394-.181q-.066,0-.1.1a.152.152,0,0,1-.164.1.458.458,0,0,1-.2-.033.366.366,0,0,0-.164-.037,1.1,1.1,0,0,1-.033.394.1.1,0,0,1-.066.033q0-.066-.082-.066a.118.118,0,0,1-.115-.066.538.538,0,0,0-.066.082q-.033.05-.066.049a1.05,1.05,0,0,1-.248.066,1.681,1.681,0,0,1-.248.033v-.164a.35.35,0,0,1-.181-.033q-.049-.033-.148.1a.252.252,0,0,0,.05-.213q-.017-.148-.082-.148t-.066-.1q0-.1.066-.1l.1.1a.134.134,0,0,1,.033-.1l-.131-.263-.228.692q0-.066-.181-.148a.966.966,0,0,0-.213-.082q-.131,0-.164.214a2.915,2.915,0,0,0-.033.444.885.885,0,0,1-.28-.05.352.352,0,0,1-.213-.248.277.277,0,0,0,.115-.213.4.4,0,0,1,.115-.248l.1-.1v-.131a2.269,2.269,0,0,1-.476.263.553.553,0,0,0-.31.46,1.174,1.174,0,0,0-.1-.3q-.066-.2-.2-.2-.033,0-.131.1l-.1.1a.124.124,0,0,0,.016-.115q-.017-.082-.05-.082-.066,0-.049.115t.082.115l-.1.1q-.066,0-.066-.1H7.508l.164.23a.269.269,0,0,1-.164.1.2.2,0,0,1-.1-.05.2.2,0,0,0-.1-.049q-.066,0-.066.1a.147.147,0,0,1,.082.1.54.54,0,0,1,.017.131Zm-2.1-.857a.9.9,0,0,0,.082.263.9.9,0,0,1,.082.263.705.705,0,0,1,.13-.228.321.321,0,0,0,.066-.23v-.13q0-.066-.1-.066l-.131.1Zm3.978-7.3a.3.3,0,0,0,.1.263q.066,0,.1-.164a.672.672,0,0,0,0-.3.174.174,0,0,0-.149.05.174.174,0,0,0-.048.149ZM6.124-18.8a.35.35,0,0,0-.033-.181.1.1,0,0,0-.079-.047.483.483,0,0,1-.115-.016.147.147,0,0,1-.1-.082v.329Zm.759-7.429a.942.942,0,0,0,.1.427.277.277,0,0,0,.115-.213q.016-.148.016-.213Zm-.759,10.75q-.066,0-.164.18a.678.678,0,0,0-.1.31.233.233,0,0,0,.23-.164A.568.568,0,0,0,6.124-15.481Zm.134-17.324q-.131,0-.164.164a1.675,1.675,0,0,0-.033.329q.131,0,.164-.164A1.675,1.675,0,0,0,6.258-32.805ZM9.677-21.2a1.125,1.125,0,0,1-.082.23.186.186,0,0,1-.181.1q-.066,0-.066-.131ZM6.719-35.238q0,.2.164.2l-.066-.5A.4.4,0,0,0,6.719-35.238ZM6.258-24.88q-.23,0-.23.3a.193.193,0,0,0,.164-.1.354.354,0,0,0,.066-.2Zm.822-1.841q-.1,0-.1.131t.1.131q.066,0,.066-.131t-.066-.135Zm0,10.651q-.1,0-.1.131t.1.131q.066,0,.066-.131t-.066-.135ZM5.535-19.064a.825.825,0,0,1,.2-.329l-.2-.1Zm9.6,3.123q.1,0,.1.115t-.1.115q-.066,0-.066-.115T15.134-15.941Zm-4.6-17.423q-.1,0-.1.115t.1.115q.066,0,.066-.115T10.532-33.364Zm-4.8,18.212q-.1,0-.1.115t.1.115q.066,0,.066-.115T5.732-15.152Zm.33-4.8q-.066,0-.066.115t.066.115q-.1.1,0,.1a.062.062,0,0,0,.043-.04.062.062,0,0,0-.011-.058.326.326,0,0,0,.029-.149Q6.124-19.952,6.062-19.952Zm2.171,3.879q-.033,0-.033.131t.033.131q.1,0,.1-.131T8.233-16.073Zm7.857-2.3q-.066,0-.066.131t.066.131q.066,0,.066-.131t-.068-.131Zm.427,0q-.066,0-.066.131t.066.131q.066,0,.066-.131t-.068-.131ZM9.35-21.332q.066,0,.066.131t-.066.131q-.066,0-.066-.131T9.35-21.332Zm-2.959-.131q-.066,0-.066.131t.066.131q.066,0,.066-.131t-.067-.131Zm3.122,1.38q.066,0,.066.131t-.066.131q-.066,0-.066-.131T9.513-20.084Zm4.8,4.011q.066,0,.066.131t-.066.131q-.062,0-.062-.131T14.312-16.073ZM5.9-16.664q-.066,0-.066.131T5.9-16.4q.066,0,.066-.131T5.9-16.664Zm-.263,1.742q-.068,0-.068.131t.066.131q.066,0,.066-.131T5.634-14.922Zm.756-9.862q-.066,0-.066.131t.066.131q.066,0,.066-.131T6.39-24.784Zm1.183-3.549q-.066,0-.066.131t.066.131q.066,0,.066-.131T7.573-28.333Zm3.123,0q-.066,0-.066.131t.066.131q.066,0,.066-.131T10.7-28.333ZM5.042-14.824q.066,0,.066.131t-.066.128q-.066,0-.066-.131T5.042-14.824Zm5.49-1.116H10.7a.291.291,0,0,0-.033-.131.212.212,0,0,0-.131-.1Zm5.458-1.116q-.066,0-.066.1t.066.1a.087.087,0,0,0,.074-.025.087.087,0,0,0,.025-.074.087.087,0,0,0-.025-.078.087.087,0,0,0-.078-.024Zm-9.4-7.563a.087.087,0,0,0-.074.025.087.087,0,0,0-.025.074.087.087,0,0,0,.025.074.087.087,0,0,0,.074.025q.066,0,.066-.1T6.587-24.62Zm-.855.1a.087.087,0,0,0-.074.025.087.087,0,0,0-.025.074.087.087,0,0,0,.025.074.087.087,0,0,0,.074.025q.066,0,.066-.1T5.732-24.521ZM3.859-20.872a.265.265,0,0,0-.131.263h.131Zm.066-15.22q-.033,0-.033.115t.033.115q.1,0,.1-.115T3.924-36.093ZM8.362-23.634q-.1,0-.1.115t.1.115q.033,0,.033-.115T8.362-23.634Zm2.6-2.5q-.1,0-.1.115t.1.115q.033,0,.033-.115T10.962-26.132Zm-5.657,2.5q-.066,0-.066.115t.066.115q.066,0,.066-.115T5.305-23.634Zm4.8.23q-.066,0-.066.115t.066.115q.066,0,.066-.115T10.1-23.4ZM6.39-19.952q-.066,0-.066.115t.066.115q.066,0,.066-.115T6.39-19.952Zm.5-7.462q-.066,0-.066.115t.066.115q.066,0,.066-.115t-.069-.115ZM6.062-15.941q-.066,0-.066.115t.066.115q.066,0,.066-.115T6.062-15.941ZM9.678-28.2q-.066,0-.066.115t.066.115q.066,0,.066-.115T9.677-28.2ZM15-16.5q-.066,0-.066.115t.066.115q.066,0,.066-.115T15-16.5Zm-8.12,1.118q-.066,0-.066.115t.066.115q.066,0,.066-.115T6.883-15.382ZM8.658-21q-.066,0-.066.115t.066.115q.066,0,.066-.115T8.658-21Zm.1,5.621q.066,0,.066.115t-.066.115q-.066,0-.066-.115T8.757-15.382Zm7.331-2.268q-.066,0-.066.115t.066.115q.066,0,.066-.115T16.087-17.651Zm0-.362q-.066,0-.066.115t.066.115q.066,0,.066-.115T16.087-18.012Zm.526.69q.033,0,.033.131t-.033.131q-.066,0-.066-.131T16.613-17.322Zm-9.8-15.253q-.066,0-.066.131t.066.131q.033,0,.033-.131T6.817-32.575ZM6.488-15.022q-.066,0-.066.1t.066.1q.066,0,.066-.1t-.066-.1Zm9.829-3.187q-.066,0-.066.1t.066.1q.066,0,.066-.1T16.318-18.21Zm.69,1.249q.066,0,.066.1t-.066.1q-.066,0-.066-.1T17.008-16.96ZM6.982-25.672q-.066,0-.066.1t.066.1q.066,0,.066-.1T6.982-25.672ZM5.963-33.035q-.033,0-.033.131t.033.131q.066,0,.066-.131T5.963-33.035Zm-1.841-3.55q-.033,0-.033.131t.033.131q.066,0,.066-.131T4.122-36.586Zm4.8,15.713q-.033,0-.033.131t.033.131q.066,0,.066-.131T8.921-20.872Zm.822-1.613q-.033,0-.033.131t.033.131q.066,0,.066-.131t-.066-.13Zm4.8,5.72q-.033,0-.033.131t.033.131q.066,0,.066-.131t-.066-.13ZM5.206-23.732l.2-.23-.1-.1Zm6.608-5.159a.2.2,0,0,1-.033.115q-.033.05-.1.016t.017-.115Q11.781-28.959,11.814-28.891Zm-.362,1.151q-.066,0-.066.115t.066.115q.033,0,.033-.115t-.033-.117ZM7.179-36.093q-.066,0-.066.115t.066.115q.033,0,.033-.115T7.179-36.093Zm1.675.427q-.066,0-.066.115t.066.115q.033,0,.033-.115T8.853-35.665Zm-.69-.657q-.066,0-.066.115t.066.115q.033,0,.033-.115t-.031-.115Zm.69,20.71q.033,0,.033.115t-.033.115q-.066,0-.066-.115T8.853-15.613Zm3.945.23q.033,0,.033.115t-.033.115q-.066,0-.066-.115t.068-.115Zm-6.474.23q-.066,0-.066.115t.066.115q.033,0,.033-.115T6.324-15.152ZM15.07-18.6q-.066,0-.066.115t.066.115q.033,0,.033-.115t-.034-.115ZM6.82-16.171q-.066,0-.066.115t.066.115q.033,0,.033-.115t-.036-.115Zm2.033-3.452q.033,0,.033.115t-.033.115q-.066,0-.066-.115T8.853-19.623Zm-2.729.362h.2q-.1-.1-.1-.131-.033-.033-.1,0Zm3.287-8.711q-.033,0-.033.115t.033.115q.066,0,.066-.115T9.412-27.973ZM4.253-36.684q-.033,0-.033.115t.033.115q.066,0,.066-.115T4.253-36.684Zm9.8,20.973q.066,0,.066.115t-.066.115q-.033,0-.033-.115T14.049-15.711Zm-4.8.329q.066,0,.066.115t-.066.115q-.033,0-.033-.115T9.25-15.382Zm-.69-6.41q-.033,0-.033.115t.033.115q.066,0,.066-.115T8.559-21.793ZM5.108-15.481q-.033,0-.033.115t.033.115q.066,0,.066-.115T5.108-15.481Zm.855-9.533q-.033,0-.033.115t.033.115q.066,0,.066-.115T5.963-25.014ZM5.8-16.171q-.033,0-.033.115t.033.115q.066,0,.066-.115T5.8-16.171Zm3.945-7.462q-.033,0-.033.115t.033.115q.066,0,.066-.115T9.743-23.634ZM3.267-19.492q-.033,0-.033.115t.033.115q.066,0,.066-.115T3.267-19.492Zm.986,3.32q-.033,0-.033.115t.033.115q.066,0,.066-.115T4.253-16.171Zm-.131.46q-.033,0-.033.115t.033.115q.066,0,.066-.115t-.066-.115Zm5.621-10.75q-.033,0-.033.115t.033.115q.066,0,.066-.115T9.743-26.461ZM8.494-20.215q.033,0,.05-.066a.54.54,0,0,0,.017-.131.693.693,0,0,0-.017-.115q-.017-.082-.05-.082Zm-2.17,5.556q-.066,0-.066.1t.066.1q.033,0,.033-.1T6.324-14.659ZM2.018-34.482q-.066,0-.066.1t.066.1q.033,0,.033-.1T2.018-34.482Zm5.819,15.22q-.066,0-.066.1t.066.1q.033,0,.033-.1T7.836-19.261Zm1.085-3.552q-.033,0-.033.1t.033.1q.066,0,.066-.1T8.921-22.813Zm.822,1.742q.066,0,.066.1t-.066.1q-.033,0-.033-.1t.033-.1Zm-6.312,4.8q-.033,0-.033.1t.033.1q.066,0,.066-.1T3.431-16.27ZM5.8-19.82q-.033,0-.033.1t.033.1q.066,0,.066-.1T5.8-19.82Zm3.452-4.7q-.033,0-.033.1t.033.1q.066,0,.066-.1T9.25-24.521ZM4.615-16.862q-.033,0-.033.1t.033.1q.066,0,.066-.1T4.615-16.862Zm4.177-2.4q0,.131-.23.2a1.234,1.234,0,0,0,.115-.131.142.142,0,0,1,.115-.066ZM2.083-34.876q-.066,0-.066.082t.066.082Q2.217-34.778,2.083-34.876ZM9.908-24.426a.118.118,0,0,1,.066.115q0,.082-.066.082-.033.033-.033-.1T9.908-24.426Zm1.709-7q-.1.1-.1.131v.131q.1-.1.1-.131ZM3.892-16.073l-.066.131a.107.107,0,0,0,.033.131.642.642,0,0,0,.049-.131.186.186,0,0,0-.016-.131Zm12.426-.789q.033-.066-.05-.05t-.082.05Q16.252-16.7,16.318-16.862ZM10.1-34.876q.066,0,.066.1h-.131Q10.039-34.876,10.1-34.876Zm1.282,8.843q-.066.164-.1,0,0-.066.05-.066T11.387-26.033ZM10.006-15.711q.033-.066-.033-.066a.058.058,0,0,0-.049.017.058.058,0,0,0-.016.049q.033.066.066.066T10.006-15.711Zm.427-11.308q0-.066-.05-.066t-.05.066q.033.066.066.066T10.433-27.02ZM5.042-15.711q-.066-.031-.066.031a.058.058,0,0,0,.017.049.058.058,0,0,0,.049.017q.066-.033.066-.066T5.042-15.711ZM8.658-35.764q-.066-.033-.066.033a.058.058,0,0,0,.017.049.058.058,0,0,0,.049.017q.066-.033.066-.066t-.066-.033Zm-1.775-.558q-.066-.033-.066.033a.058.058,0,0,0,.017.049.058.058,0,0,0,.049.017q.066-.033.066-.066t-.066-.033ZM8.165-22.615q-.066,0-.066.082t.066.05Q8.2-22.582,8.165-22.615ZM5.732-31.162q-.066-.033-.066.05t.066.082Q5.8-31.162,5.732-31.162ZM9.611-28.63q0-.066-.05-.066t-.049.066Q9.579-28.5,9.611-28.63Zm.657,5.819a.134.134,0,0,1-.033.1q-.1,0-.05-.082t.082-.018ZM10.1-26.921q0-.066-.049-.066t-.05.066Q10.072-26.822,10.1-26.921Zm-.1,1.019q.033-.066-.033-.066a.058.058,0,0,0-.049.017.058.058,0,0,0-.016.049Q10.006-25.8,10.006-25.9Zm-.329-3.912q-.033.131,0,.131.066-.033.066-.082T9.677-29.814Zm2.005-1.841q.033-.066-.016-.066t-.05.066q0,.066.033.066T11.682-31.655ZM6.39-20.511q.033-.066-.017-.066t-.05.066q0,.066.033.066T6.39-20.511Zm5.128-10.358q.033-.066-.016-.066t-.05.066q0,.066.033.066t.035-.062Zm.69,14.928q0-.066-.05-.066t-.049.066Q12.141-15.876,12.208-15.941ZM7.9-22.22q-.033-.066-.033.016t.033.082q.066-.033.066-.066T7.9-22.22Zm4.635,6.41q-.033-.066-.033.017t.033.082q.066-.033.066-.066T12.537-15.81ZM8.559-20.084a1.04,1.04,0,0,0-.1.23.154.154,0,0,0,.082-.115.693.693,0,0,0,.017-.115ZM5.634-15.251q-.068-.033-.068.033a.058.058,0,0,0,.017.049.058.058,0,0,0,.049.017Q5.667-15.184,5.634-15.251ZM2.577-35.172q.033-.066-.016-.066t-.049.066q.033.066.049.066T2.577-35.172ZM16.087-15.81q.1,0,0,.1-.033,0-.033-.082T16.087-15.81ZM4.22-20.281l-.1.066v.131Zm6.114-6.082a.256.256,0,0,0-.1.23Zm-.923,4.011q-.033.164-.066.164Q9.35-22.352,9.412-22.352ZM10.2-33.43q-.066-.066-.066,0a.058.058,0,0,0,.017.049.058.058,0,0,0,.049.017q.068-.066,0-.066ZM5.8-24.324q-.033,0-.033.066.1.033.1,0T5.8-24.324ZM3.924-36.684q-.033,0-.033.066Q4.056-36.583,3.924-36.684Zm6.41,12.259q0,.1-.131.1Zm.1-1.381q-.033.131,0,.131.033-.03,0-.128Zm-6.9,5.4q.033.1,0,.131-.033,0,0-.133Zm7.758-7.232q-.066.066-.033.066t.033-.068Zm-.855,4.011q-.066.066-.033.066t.033-.068ZM3.267-16.073q-.066.066-.033.066T3.267-16.073Z" transform="translate(136.986 38.89)" fill="#fff" stroke="#fff" stroke-width="1"/>
          </g>
        </g>
      </g>
      <g id="Group_431" data-name="Group 431" transform="translate(0.002 10.168)">
        <g id="Group_400" data-name="Group 400" transform="translate(0 0)" clip-path="url(#clip-path)">
          <path id="Path_505" data-name="Path 505" d="M94.372,121.708a6.426,6.426,0,0,1,1.538-3.571,8.835,8.835,0,0,1,4.233-2.849c1.934-.589,3.872-1.164,5.8-1.762a11.153,11.153,0,0,0,4.665-2.605,5.855,5.855,0,0,0,1.757-3.233,2.18,2.18,0,0,0-1.517-2.611,4.985,4.985,0,0,0-1.357-.212c-1.809-.084-3.625-.086-5.428-.232a7.962,7.962,0,0,1-2.791-.615,5.724,5.724,0,0,1-2.452-2.458,9.331,9.331,0,0,1,1.069.207,54.112,54.112,0,0,0,7.9.839,11.84,11.84,0,0,1,2.951.394,4.726,4.726,0,0,1,2.379,1.275,3.393,3.393,0,0,1,1.051,2.815,8.388,8.388,0,0,1-3.939,6.536,26.149,26.149,0,0,1-6.428,2.977c-1.472.509-2.942,1.033-4.379,1.627a12.467,12.467,0,0,0-4.182,2.795,10.27,10.27,0,0,1-.872.687" transform="translate(-70.616 -81.061)" fill="#fff"/>
        </g>
        <g id="Group_401" data-name="Group 401" transform="translate(0 0)" clip-path="url(#clip-path)">
          <path id="Path_506" data-name="Path 506" d="M59.72,35.507c.393-.091.7.351.829.62a13.559,13.559,0,0,0,2.515,3.689,14.442,14.442,0,0,0,9.118,4.275c1.941.217,3.9.294,5.85.43a22.855,22.855,0,0,1,7.292,1.434,5.214,5.214,0,0,1,3.33,3.767,7.993,7.993,0,0,1,.109,2.435,5.4,5.4,0,0,1-.44-.855c-1.544-2.928-4.234-3.875-7.4-4.079-2.91-.186-5.83-.344-8.72-.682a13.866,13.866,0,0,1-8.617-4.148,15.6,15.6,0,0,1-3.325-5.362c-.186-.5-.357-.992-.547-1.525" transform="translate(-43.883 -29.593)" fill="#fff"/>
        </g>
        <g id="Group_402" data-name="Group 402" transform="translate(0 0)" opacity="0.44" clip-path="url(#clip-path)">
          <path id="Path_507" data-name="Path 507" d="M109.718,88.7c-.163-.3-.334-.589-.489-.888a4.911,4.911,0,0,0-3.287-2.361,12.444,12.444,0,0,0-2.206-.354c-2.057-.124-4.118-.179-6.176-.295a19.467,19.467,0,0,1-5.42-1.036A9.738,9.738,0,0,1,87.573,80.1a5.37,5.37,0,0,1,.868.4A14.074,14.074,0,0,0,94.2,82.129c2.481.2,4.968.283,7.447.468a10.811,10.811,0,0,1,6.265,2.047,4.984,4.984,0,0,1,1.857,2.93,2.376,2.376,0,0,1-.048,1.133" transform="translate(-65.371 -64.342)" fill="#fff"/>
        </g>
        <g id="Group_403" data-name="Group 403" transform="translate(0 0)" opacity="0.44" clip-path="url(#clip-path)">
          <path id="Path_508" data-name="Path 508" d="M116.983,135.586a3.033,3.033,0,0,1-.5,1.139,6.858,6.858,0,0,1-3.492,2.1c-.936.318-1.917.51-2.866.795q-2.136.639-4.254,1.332a8.445,8.445,0,0,0-2.909,1.678c-.206.179-.43.337-.773.6a2.971,2.971,0,0,1,.306-1.11,5.867,5.867,0,0,1,3.089-3.277,15.9,15.9,0,0,1,4.148-1.272,27.459,27.459,0,0,0,5.485-1.234c.577-.225,1.139-.486,1.76-.754" transform="translate(-76.65 -107.569)" fill="#fff"/>
        </g>
        <g id="Group_404" data-name="Group 404" transform="translate(0 0)" opacity="0.44" clip-path="url(#clip-path)">
          <path id="Path_509" data-name="Path 509" d="M123.48,127.57a2.183,2.183,0,0,1-1.252,1.4,8.881,8.881,0,0,1-3.338,1c-1.124.163-2.258.268-3.377.462a11.891,11.891,0,0,0-4.723,1.8,6.179,6.179,0,0,0-.711.538,3.631,3.631,0,0,1,1.111-2.266,6.678,6.678,0,0,1,3.854-1.833,22.624,22.624,0,0,1,2.646-.261c1.881-.115,3.293.226,5.217-.6.047-.02.428-.207.571-.248" transform="translate(-82.733 -101.324)" fill="#fff"/>
        </g>
        <g id="Group_405" data-name="Group 405" transform="translate(0 0)" clip-path="url(#clip-path)">
          <path id="Path_510" data-name="Path 510" d="M174.151,51.6a8.337,8.337,0,0,0-4.652-3.882,12.773,12.773,0,0,0-1.283-.413,6.229,6.229,0,0,1,1.617,1.03,11.268,11.268,0,0,0-3.6.092,8.637,8.637,0,0,1,2.7.643,3.839,3.839,0,0,0-2.817,3l.264.574-.615,1.219a9.037,9.037,0,0,1,4.731,3.084c.287-1.566-.47-2.9-.054-4.218,1.342-.326,2.384.582,3.556.607a1.229,1.229,0,0,0,.158-1.729m-1.145-.464c-.071.062-.34-.117-.6-.4s-.415-.558-.344-.62.34.117.6.4.414.558.344.62" transform="translate(-125.689 -38.791)" fill="#fff"/>
        </g>
      </g>
      <path id="Path_542" data-name="Path 542" d="M312.45,1590h0s-1.139-4.444.663-5.448c1-.612,2.457-.348,6.451.1,15.871.8,18.963-1.29,20.286-1.719-.544,1.9.111,2.968-.675,6.839,1.175,0,1.359.02,2.7,0,1.035-5.1,1.445-9.441-3.374-9.313-4.342,1-22.763-.489-24.206.64a5.582,5.582,0,0,0-2.34.171c-.135.09-2.229-.217-1.913,2.481.21,5.111.558,6.111.737,6.246a6.888,6.888,0,0,0,1.675,0Z" transform="translate(-166.105 -1453.399)" fill="#fff"/>
    </g>
  </g>
</svg>
