<svg id="meh" xmlns="http://www.w3.org/2000/svg" width="16.049" height="16.049" viewBox="0 0 16.049 16.049">
  <g id="Group_170" data-name="Group 170">
    <g id="Group_169" data-name="Group 169">
      <path id="Path_227" data-name="Path 227" d="M8.025,0a8.025,8.025,0,1,0,8.025,8.025A8.034,8.034,0,0,0,8.025,0Zm0,15.352a7.327,7.327,0,1,1,7.327-7.327A7.335,7.335,0,0,1,8.025,15.352Z" fill="#f3c300"/>
      <path id="Path_228" data-name="Path 228" d="M97.047,130.093A1.047,1.047,0,1,0,96,129.047,1.048,1.048,0,0,0,97.047,130.093Zm0-1.4a.349.349,0,1,1-.349.349A.349.349,0,0,1,97.047,128.7Z" transform="translate(-91.813 -122.418)" fill="#f3c300"/>
      <path id="Path_229" data-name="Path 229" d="M225.047,128a1.047,1.047,0,1,0,1.047,1.047A1.048,1.048,0,0,0,225.047,128Zm0,1.4a.349.349,0,1,1,.349-.349A.349.349,0,0,1,225.047,129.4Z" transform="translate(-214.231 -122.418)" fill="#f3c300"/>
      <path id="Path_230" data-name="Path 230" d="M103.327,224H96.349a.349.349,0,1,0,0,.7h6.978a.349.349,0,0,0,0-.7Z" transform="translate(-91.813 -214.231)" fill="#f3c300"/>
    </g>
  </g>
</svg>
