<svg xmlns="http://www.w3.org/2000/svg" width="16.161" height="16.159" viewBox="0 0 16.161 16.159">
  <path id="pen" d="M14.3.621a2.226,2.226,0,0,0-3.145,0l-.787.791L1.993,9.788l-.018.018s0,.009-.009.009-.022.027-.031.04,0,0,0,.009-.013.022-.022.036,0,.009-.009.014-.009.022-.014.036,0,0,0,.009L.023,15.548A.438.438,0,0,0,.13,16a.448.448,0,0,0,.317.129.525.525,0,0,0,.143-.022l5.587-1.864s0,0,.009,0a.161.161,0,0,0,.04-.018.016.016,0,0,0,.009,0c.013-.009.031-.018.045-.027s.027-.022.04-.031.009,0,.009-.009.014-.009.018-.018L15.51,4.967a2.226,2.226,0,0,0,0-3.145ZM6.032,13.2l-3.1-3.1,7.748-7.747,3.1,3.1ZM2.5,10.925l2.7,2.706-4.06,1.352ZM14.883,4.344l-.472.476-3.1-3.1.476-.476a1.334,1.334,0,0,1,1.886,0l1.211,1.21a1.339,1.339,0,0,1,0,1.886Zm0,0" transform="translate(0.001 0.029)" fill="#98a7b2"/>
</svg>
