<svg xmlns="http://www.w3.org/2000/svg" width="15.52" height="17.332" viewBox="0 0 15.52 17.332">
  <path id="Union_17" data-name="Union 17" d="M16.108,20.6h0a1.13,1.13,0,0,1-.34-.149l-2.82-1.822a7.829,7.829,0,0,1-3.529-.049l-.012,0a7.777,7.777,0,1,1,7.814-2.51l.291,3.338a1.133,1.133,0,0,1-1.4,1.195ZM13.145,17.67a.466.466,0,0,1,.142.062l2.988,1.931a.182.182,0,0,0,.2,0,.18.18,0,0,0,.091-.178l-.308-3.536a.47.47,0,0,1,.119-.355,6.849,6.849,0,1,0-3.461,2.073.466.466,0,0,1,.113-.014.478.478,0,0,1,.116.014Zm-2.663-1.046a.677.677,0,1,1,.677.675.684.684,0,0,1-.677-.675Zm0-2.332V11.539a.676.676,0,0,1,.677-.675A2.008,2.008,0,1,0,9.145,8.856a.677.677,0,0,1-1.354,0,3.368,3.368,0,1,1,4.045,3.289V14.29a.677.677,0,0,1-1.354,0Z" transform="translate(-3.545 -3.302)" fill="#5d3195"/>
</svg>
