<svg xmlns="http://www.w3.org/2000/svg" width="16.265" height="17.121" viewBox="0 0 16.265 17.121">
  <defs>
    <style>
      .cls-1 {
        fill: #afafaf;
      }
    </style>
  </defs>
  <path id="Icon_material-airplanemode-inactive" data-name="Icon material-airplanemode-inactive" class="cls-1" d="M12.417,8.992V4.284a1.284,1.284,0,1,0-2.568,0v3.15l6.7,6.7,2.714.848V13.273ZM3.856,5.8l4.272,4.272L3,13.273v1.712l6.849-2.14v4.708L8.136,18.837v1.284l3-.856,3,.856V18.837l-1.712-1.284V14.36l4.905,4.905,1.087-1.087L4.943,4.712Z" transform="translate(-3 -3)"/>
</svg>
