<svg xmlns="http://www.w3.org/2000/svg" width="28.4" height="34.643" viewBox="0 0 28.4 34.643">
  <path id="Union_4" data-name="Union 4" d="M0,34.643V0H19.88L28.4,8.661V34.643Zm1.99-1.6H26.465l-.075-22.938H18.46V2.043H2.024ZM20.149,8.5h5.767L20.149,2.7ZM6,27V25H21v2Zm0-6V19H21v2Zm0-5V14H21v2Zm0-6V8h7v2Z" fill="#c7d0d6"/>
</svg>
