<svg xmlns="http://www.w3.org/2000/svg" width="21.192" height="15.192" viewBox="0 0 21.192 15.192">
  <g id="Group_144" data-name="Group 144" transform="translate(453.956 -97.951)">
    <path id="Path_167" data-name="Path 167" d="M18,38.081a1.784,1.784,0,0,0-2.514.2L5.139,48.449.814,44.582a1.849,1.849,0,0,0-2.592-.338,1.849,1.849,0,0,0-.338,2.593l5.888,5.332c.914.8,1.686.9,2.494.279.231-.177.346-.334.62-.588l11.43-11.277A1.785,1.785,0,0,0,18,38.081Z" transform="translate(-451.457 60.292)" fill="#7a4fb7"/>
  </g>
</svg>
