<svg xmlns="http://www.w3.org/2000/svg" width="28.975" height="29.625" viewBox="0 0 28.975 29.625">
  <path id="Forma_1" data-name="Forma 1" d="M22.467,28.468V25.285H19.354a1.158,1.158,0,0,1,0-2.314h3.113V19.789a1.132,1.132,0,1,1,2.264,0v3.182h3.113a1.158,1.158,0,0,1,0,2.314H24.73v3.182a1.132,1.132,0,1,1-2.264,0ZM3.435,29.625A3.388,3.388,0,0,1,.773,28.331a3.573,3.573,0,0,1-.7-2.946A15.158,15.158,0,0,1,5.14,16.836a14.616,14.616,0,0,1,4.743-2.666,7.922,7.922,0,0,1-3.092-6.3A7.793,7.793,0,0,1,14.487,0a7.793,7.793,0,0,1,7.7,7.869,7.922,7.922,0,0,1-3.086,6.3,14.546,14.546,0,0,1,1.7.7,1.169,1.169,0,0,1,.536,1.542,1.121,1.121,0,0,1-1.508.548,12.107,12.107,0,0,0-5.039-1.223q-.151.006-.3.006t-.3-.006A12.583,12.583,0,0,0,2.29,25.857a1.229,1.229,0,0,0,.24,1.014,1.142,1.142,0,0,0,.905.44H17.373a1.158,1.158,0,0,1,0,2.314ZM9.055,7.869a5.509,5.509,0,0,0,5.159,5.548l.274,0,.276,0A5.509,5.509,0,0,0,19.92,7.869a5.434,5.434,0,1,0-10.865,0Z" fill="#65299b"/>
</svg>
