<svg xmlns="http://www.w3.org/2000/svg" width="35.993" height="29.526" viewBox="0 0 35.993 29.526">
  <g id="course" transform="translate(0 -46)">
    <path id="Path_8779" data-name="Path 8779" d="M195.138,346H186.7a.7.7,0,0,0,0,1.406h8.435a.7.7,0,0,0,0-1.406Z" transform="translate(-172.924 -278.91)" fill="#5d3195"/>
    <circle id="Ellipse_555" data-name="Ellipse 555" cx="0.777" cy="0.777" r="0.777" transform="translate(17.219 73.972)" fill="#5d3195"/>
    <path id="Path_8780" data-name="Path 8780" d="M35.29,69.9H33.884V56.544a2.112,2.112,0,0,0-2.109-2.109H29.948V50.921a.7.7,0,0,0-.7-.7H27.136V46.7a.7.7,0,0,0-1.017-.629L18,50.135,9.879,46.074a.7.7,0,0,0-1.017.629v3.515H6.745a.7.7,0,0,0-.7.7v3.515H4.218a2.112,2.112,0,0,0-2.109,2.109V69.9H.7a.7.7,0,0,0-.7.7,4.926,4.926,0,0,0,4.921,4.921h9.913a.7.7,0,1,0,0-1.406H4.921a3.521,3.521,0,0,1-3.444-2.812h11.6v.7a.7.7,0,0,0,.7.7h8.435a.7.7,0,0,0,.7-.7v-.7h11.6a3.52,3.52,0,0,1-3.443,2.813H21.16a.7.7,0,1,0,0,1.406h9.913A4.926,4.926,0,0,0,35.993,70.6a.7.7,0,0,0-.7-.7ZM28.546,51.624V64.278H20.975l5.772-2.889a.7.7,0,0,0,.389-.629V51.624Zm-2.812,8.7L18.7,63.843V51.356l7.03-3.515ZM10.259,47.84l7.03,3.515V63.844l-7.03-3.515ZM7.451,51.624H8.857v9.138a.7.7,0,0,0,.389.629l5.773,2.886H7.451ZM22.214,69.9a.7.7,0,0,0-.7.7v.7h-7.03v-.7a.7.7,0,0,0-.7-.7H3.515V56.544a.7.7,0,0,1,.7-.7H6.045V64.98a.7.7,0,0,0,.7.7h22.5a.7.7,0,0,0,.7-.7V55.841h1.828a.7.7,0,0,1,.7.7V69.9Z" fill="#5d3195"/>
  </g>
</svg>
