<svg xmlns="http://www.w3.org/2000/svg" width="30" height="30" viewBox="0 0 30 30">
  <path id="Forma_1" data-name="Forma 1" d="M0,30V24.668H2.062l1.757-5.273H6.092L4.548,12.449a4.406,4.406,0,0,1,2.542-5V0H30V30ZM8.848,7.09a4.4,4.4,0,0,1,4.3,5.359L11.6,19.394h2.272l1.758,5.273h2v3.574H28.242V1.758H8.848ZM1.758,28.242H15.879V26.426H1.758Zm2.157-3.574h9.866l-1.172-3.515H5.087Zm2.349-12.6,1.628,7.326H9.8l1.628-7.326a2.647,2.647,0,1,0-5.167,0Zm9.307-1.309a5.425,5.425,0,0,1,8.805-4.245l.654-.872,1.24.93-.818,1.09a5.426,5.426,0,1,1-9.882,3.1Zm1.551,0A3.877,3.877,0,1,0,24.45,9L21.082,13.49,18.9,11.308l1.1-1.1.919.919,2.53-3.374a3.874,3.874,0,0,0-6.323,3Z" fill="#65299b"/>
</svg>
