<svg xmlns="http://www.w3.org/2000/svg" width="36" height="29.449" viewBox="0 0 36 29.449">
  <path id="tv-24px" d="M33.727,3H4.273A3.283,3.283,0,0,0,1,6.273V25.9a3.283,3.283,0,0,0,3.273,3.273h8.178v1.637a1.641,1.641,0,0,0,1.637,1.637H23.9a1.641,1.641,0,0,0,1.637-1.637V29.174h8.182A3.269,3.269,0,0,0,36.984,25.9L37,6.265A3.283,3.283,0,0,0,33.727,3ZM32.09,25.9H5.91a1.641,1.641,0,0,1-1.637-1.637V7.91A1.641,1.641,0,0,1,5.91,6.273H32.09A1.641,1.641,0,0,1,33.727,7.91V24.273A1.641,1.641,0,0,1,32.09,25.9Z" transform="translate(-1 -3)" fill="#5d3195"/>
</svg>
