<svg xmlns="http://www.w3.org/2000/svg" width="28.149" height="29.998" viewBox="0 0 28.149 29.998">
  <path id="Forma_1" data-name="Forma 1" d="M2.686,30A2.912,2.912,0,0,1,.012,26.927V6.037c0-.061,0-.123,0-.184a2.635,2.635,0,0,1,2.675-2.6H4.937V1.266A1.378,1.378,0,0,1,6.45,0H8.526A1.226,1.226,0,0,1,9.863,1.266V3.254h8.443V1.266A1.226,1.226,0,0,1,19.643,0h2.076a1.378,1.378,0,0,1,1.513,1.265V3.254h2.252q.09,0,.179,0a2.647,2.647,0,0,1,2.495,2.782v20.89A2.912,2.912,0,0,1,25.483,30ZM1.419,26.927c0,.8.493,1.626,1.266,1.626h22.8c.774,0,1.266-.831,1.266-1.626V11.566H1.419ZM2.5,4.7A1.22,1.22,0,0,0,1.419,6.037v4.084h25.33V6.037a1.267,1.267,0,0,0,0-.188A1.208,1.208,0,0,0,25.483,4.7H23.231v.8a1.463,1.463,0,0,1-1.513,1.373H19.571a1.322,1.322,0,0,1-1.266-1.373V4.7H9.863v.8q0,.037,0,.073a1.317,1.317,0,0,1-1.337,1.3H6.45A1.463,1.463,0,0,1,4.937,5.495V4.7H2.686l-.076,0Q2.556,4.7,2.5,4.7Zm17.14.72h2.181V1.447H19.643Zm-13.193,0H8.455V1.447H6.45ZM9.617,25.5a.74.74,0,0,1-.071-.454l.633-3.614L7.611,18.9a.811.811,0,0,1-.176-.759A.743.743,0,0,1,8,17.674l3.518-.542L13.1,13.843a.7.7,0,0,1,.94-.335.713.713,0,0,1,.326.335l1.583,3.289,3.518.542a.744.744,0,0,1,.563.47.811.811,0,0,1-.176.759l-2.568,2.53.633,3.614a.732.732,0,0,1-.281.687.657.657,0,0,1-.422.145l-.317-.072-3.166-1.7-3.166,1.7a.685.685,0,0,1-.326.083A.7.7,0,0,1,9.617,25.5Zm4.432-2.875,2.216,1.229-.422-2.566a.772.772,0,0,1,.211-.651l1.794-1.771-2.5-.361a.636.636,0,0,1-.493-.4L13.732,15.8l-1.126,2.313a.636.636,0,0,1-.493.4l-2.5.361,1.794,1.771a.772.772,0,0,1,.211.651L11.2,23.855l2.216-1.229.317-.072Z" transform="translate(-0.01 -0.001)" fill="#65299b"/>
</svg>
