<svg xmlns="http://www.w3.org/2000/svg" width="22.999" height="30.001" viewBox="0 0 22.999 30.001">
  <path id="Union_7" data-name="Union 7" d="M369.916-427A1.9,1.9,0,0,1,368-428.875v-26.249A1.9,1.9,0,0,1,369.916-457h14.7c.013,0,.025.007.037.005a.65.65,0,0,1,.166.032c.02.007.04.012.059.021a.657.657,0,0,1,.187.125l5.75,5.625a.643.643,0,0,1,.128.183c.008.02.013.039.021.059a.617.617,0,0,1,.033.162c0,.014.007.025.007.039v21.875A1.9,1.9,0,0,1,389.083-427Zm-.638-28.125v26.249a.632.632,0,0,0,.638.625h19.167a.632.632,0,0,0,.639-.625v-21.25h-3.834A1.9,1.9,0,0,1,383.972-452v-3.75H369.916A.632.632,0,0,0,369.278-455.125ZM385.25-452a.631.631,0,0,0,.638.625h2.93l-3.569-3.491Zm-6.192,20-.965-2.552h-3.859L373.326-432h-1.187l3.492-9.1h1.1l3.5,9.1Zm-3.053-7.389-1.416,3.879h3.155l-1.428-3.879a3.8,3.8,0,0,1-.139-.609h-.025A3.4,3.4,0,0,1,376.006-439.389Zm8.095,4.769v-1.968h-1.967v-.654H384.1v-1.967h.65v1.967h1.973v.654H384.75v1.968ZM373-445a1,1,0,0,1-1-1,1,1,0,0,1,1-1h11a1,1,0,0,1,1,1,1,1,0,0,1-1,1Zm0-5a1,1,0,0,1-1-1,1,1,0,0,1,1-1h6a1,1,0,0,1,1,1,1,1,0,0,1-1,1Z" transform="translate(-368 457)" fill="#65299b"/>
</svg>
