<svg xmlns="http://www.w3.org/2000/svg" width="22.735" height="22.735" viewBox="0 0 22.735 22.735">
    <g id="prefix___2759855" data-name="2759855">
        <path id="prefix__Path_8812" fill="#5d3195" d="M22.449 2.783a.666.666 0 0 0-.613-.076l-1.764.662V.666A.666.666 0 0 0 19.2.034l-7.832 2.594L3.54.034a.666.666 0 0 0-.876.632v2.7L.9 2.706a.666.666 0 0 0-.9.624v13.41a.666.666 0 0 0 .484.641l2.18.62v4.068a.666.666 0 0 0 .848.641l7.855-2.234 7.855 2.234a.666.666 0 0 0 .848-.641V18l2.18-.62a.666.666 0 0 0 .484-.641V3.33a.666.666 0 0 0-.287-.547zM4 12.334l4.633 1.532a3.026 3.026 0 0 1 1.911 1.9L4 13.6zm14.742-1.4L13.685 12.6a4.358 4.358 0 0 0-1.651 1V3.811l6.705-2.223zm0 1.4V13.6l-6.544 2.169a3.025 3.025 0 0 1 1.909-1.9zM10.7 3.811V13.6a4.363 4.363 0 0 0-1.652-1L4 10.931V1.588zM4 21.187V18.38l4.936 1.4zm14.742 0l-4.936-1.4 4.936-1.4zm2.664-4.95l-10.038 2.854-10.036-2.854V4.291l1.332.5v9.285a.666.666 0 0 0 .456.632l8.037 2.664a.666.666 0 0 0 .419 0l8.037-2.664a.666.666 0 0 0 .456-.632V4.791l1.332-.5z" data-name="Path 8812"/>
    </g>
</svg>
