<svg xmlns="http://www.w3.org/2000/svg" width="29.23" height="29.23" viewBox="0 0 29.23 29.23">
  <path id="Union_8" data-name="Union 8" d="M379.268-427.994l-1.323-1.733a8.12,8.12,0,0,1-6.331-7.912,8.122,8.122,0,0,1,.8-3.513,8.451,8.451,0,0,1-1.562-1.1h-2.279a.571.571,0,0,1-.468-.244.571.571,0,0,1-.068-.525l.742-2.012a8.345,8.345,0,0,1-.777-3.54A8.444,8.444,0,0,1,376.434-457a8.433,8.433,0,0,1,7.107,3.9,8.343,8.343,0,0,1,2.478-1.368.57.57,0,0,1,.726.351.57.57,0,0,1-.351.726,7.259,7.259,0,0,0-2.3,1.309,8.382,8.382,0,0,1,.768,3.515,8.406,8.406,0,0,1-2.327,5.811,7.276,7.276,0,0,0,6.256,3.543,7.265,7.265,0,0,0,4.974-1.96.57.57,0,0,1,.39-.154h1.68L395.3-442.8a.57.57,0,0,1,.024-.453,7.213,7.213,0,0,0,.765-3.254,7.3,7.3,0,0,0-4.89-6.887.571.571,0,0,1-.351-.727.57.57,0,0,1,.726-.351,8.442,8.442,0,0,1,5.656,7.965,8.345,8.345,0,0,1-.777,3.54l.742,2.012a.576.576,0,0,1-.068.525.572.572,0,0,1-.469.244h-2.278a8.4,8.4,0,0,1-5.585,2.114,8.494,8.494,0,0,1-.984-.058c.012.152.017.31.017.489a8.12,8.12,0,0,1-6.331,7.912l-1.324,1.733a.57.57,0,0,1-.454.224A.57.57,0,0,1,379.268-427.994Zm-6.513-9.644a6.974,6.974,0,0,0,5.624,6.836.573.573,0,0,1,.344.214l1,1.307,1-1.307a.573.573,0,0,1,.344-.214,6.973,6.973,0,0,0,5.623-6.836,5.093,5.093,0,0,0-.046-.709,8.412,8.412,0,0,1-4.959-3.622,8.392,8.392,0,0,1-5.249,1.838,8.411,8.411,0,0,1-2.984-.544A6.974,6.974,0,0,0,372.755-437.639Zm-3.613-10.928a7.213,7.213,0,0,0,.764,3.254.567.567,0,0,1,.025.453l-.542,1.471h1.68a.568.568,0,0,1,.389.154,7.266,7.266,0,0,0,4.975,1.96,7.3,7.3,0,0,0,7.292-7.292,7.3,7.3,0,0,0-7.292-7.292A7.3,7.3,0,0,0,369.142-448.566Zm10.2,14.6v-4.442h-.5a.571.571,0,0,1-.571-.572.571.571,0,0,1,.571-.571h1.072a.571.571,0,0,1,.571.571v5.014a.571.571,0,0,1-.571.571A.571.571,0,0,1,379.345-433.967Zm8.094-9.459a.6.6,0,0,1-.386-.392c-.1-.316.047-.5.361-.916.255-.333.729-.954,1.523-2.088a2.786,2.786,0,0,0,.438-.865l.015-.122a.713.713,0,0,0-.711-.68.712.712,0,0,0-.7.573.572.572,0,0,1-.671.45.571.571,0,0,1-.45-.671,1.857,1.857,0,0,1,1.819-1.495,1.856,1.856,0,0,1,1.854,1.854.485.485,0,0,1-.005.072l-.024.194c0,.019-.006.038-.01.056a3.817,3.817,0,0,1-.622,1.287c-.523.747-.91,1.276-1.188,1.648.444,0,.979-.005,1.483-.012a.573.573,0,0,1,.579.564.571.571,0,0,1-.564.578c-.715.009-1.237.013-1.62.013A4.21,4.21,0,0,1,387.438-443.426Zm-12.84-3.6a1.894,1.894,0,0,1-.018-.258.571.571,0,0,1,.571-.571.571.571,0,0,1,.572.571.724.724,0,0,0,.006.1.714.714,0,0,0,.706.612.713.713,0,0,0,.712-.712.713.713,0,0,0-.712-.712.571.571,0,0,1-.572-.571.571.571,0,0,1,.572-.571.713.713,0,0,0,.712-.712.713.713,0,0,0-.712-.712.712.712,0,0,0-.7.573.572.572,0,0,1-.671.45.571.571,0,0,1-.45-.671,1.857,1.857,0,0,1,1.819-1.495,1.856,1.856,0,0,1,1.853,1.854,1.847,1.847,0,0,1-.517,1.283,1.847,1.847,0,0,1,.517,1.283,1.856,1.856,0,0,1-1.853,1.854A1.861,1.861,0,0,1,374.6-447.026ZM388.25-454.2a.575.575,0,0,1,.2-.616.576.576,0,0,1,.636-.044.573.573,0,0,1,.276.6.577.577,0,0,1-.562.469A.576.576,0,0,1,388.25-454.2Z" transform="translate(-368 457)" fill="#65299b"/>
</svg>
