<svg xmlns="http://www.w3.org/2000/svg" width="34.808" height="29.116" viewBox="0 0 34.808 29.116">
  <g id="_1720229" data-name="1720229" transform="translate(0.003 0.002)">
    <path id="Path_8805" data-name="Path 8805" d="M34.8.625C34.8.28,34.356,0,33.8,0H30.791a1.142,1.142,0,0,0-.917.371.457.457,0,0,0,.171.677l.933.646-12.052,4L14.1,2.686a1.478,1.478,0,0,0-1.108-.131L.607,5.891C.1,6.028-.135,6.4.084,6.713a1.309,1.309,0,0,0,1.32.326L13.16,3.867,18.032,6.9a1.484,1.484,0,0,0,1.182.109L32.363,2.644l.7.483a1.476,1.476,0,0,0,1.185.144c.34-.1.562-.323.562-.565Zm0,0" transform="translate(0 0)" fill="#5d3195"/>
    <path id="Path_8806" data-name="Path 8806" d="M34.321,98.622a.917.917,0,0,0-.989-.028l-14.405,8.546L14.1,101.767a.931.931,0,0,0-1.108-.236L.609,107.49A1.127,1.127,0,0,0,0,108.514v13.775a1.063,1.063,0,0,0,1,1.117H33.8a1.063,1.063,0,0,0,1-1.116V99.579a1.149,1.149,0,0,0-.483-.957ZM2.012,109.248l4.552-2.19v14.115H2.012Zm6.56-3.156,4.552-2.189v17.27H8.572Zm6.56-.019,2.9,3.231a.929.929,0,0,0,1.182.193l.465-.276V121.17H15.13Zm6.559,1.96,4.552-2.7v15.84H21.69Zm11.11,13.14H28.249V104.141l4.552-2.7Zm0,0" transform="translate(-0.002 -94.291)" fill="#5d3195"/>
  </g>
</svg>
