<svg xmlns="http://www.w3.org/2000/svg" width="35.299" height="36.291" viewBox="0 0 35.299 36.291">
  <path id="Subtraction_10" data-name="Subtraction 10" d="M18.364,36.291H16.8a3.352,3.352,0,0,1-3.416-3.276V26.421a1.07,1.07,0,0,0-.583-.953,9.637,9.637,0,0,1-5.323-8.54,9.227,9.227,0,0,1,.8-3.767,9.7,9.7,0,0,1,2.175-3.081A10.173,10.173,0,0,1,13.664,8a10.423,10.423,0,0,1,11.064,2.074,9.435,9.435,0,0,1,2.958,6.855,9.64,9.64,0,0,1-5.3,8.527,1.1,1.1,0,0,0-.609.966v6.593A3.352,3.352,0,0,1,18.364,36.291Zm-2.7-8.783h0v5.507A1.117,1.117,0,0,0,16.8,34.107h1.566A1.117,1.117,0,0,0,19.5,33.014V27.658s0-.008,0-.019a9.045,9.045,0,0,1,.226-2.356.13.13,0,0,0,.009-.056A3.355,3.355,0,0,1,21.3,23.534a7.469,7.469,0,0,0,4.106-6.607,7.691,7.691,0,0,0-7.768-7.508h-.055a7.685,7.685,0,0,0-7.833,7.508,7.467,7.467,0,0,0,4.125,6.617,3.3,3.3,0,0,1,1.542,1.666.119.119,0,0,0,.012.048,7.4,7.4,0,0,1,.232,2.249Zm13.663,1.711a1.155,1.155,0,0,1-.805-.32L26.6,27.065a1.061,1.061,0,0,1,0-1.544,1.173,1.173,0,0,1,1.61,0l1.912,1.834a1.061,1.061,0,0,1,0,1.544A1.156,1.156,0,0,1,29.322,29.219Zm-23.349,0a1.123,1.123,0,0,1-1.051-.677,1.041,1.041,0,0,1,.246-1.187L7.08,25.517a1.173,1.173,0,0,1,1.61,0,1.062,1.062,0,0,1,0,1.544L6.778,28.9A1.156,1.156,0,0,1,5.973,29.216ZM34.16,18.022h-2.7a1.093,1.093,0,1,1,0-2.184h2.7a1.093,1.093,0,1,1,0,2.184Zm-30.317,0h-2.7a1.093,1.093,0,1,1,0-2.184h2.7a1.093,1.093,0,1,1,0,2.184ZM27.413,8.658a1.123,1.123,0,0,1-1.051-.677,1.041,1.041,0,0,1,.246-1.188L28.521,4.96a1.173,1.173,0,0,1,1.61,0,1.062,1.062,0,0,1,0,1.544L28.219,8.338A1.155,1.155,0,0,1,27.413,8.658Zm-19.525,0a1.156,1.156,0,0,1-.805-.32L5.171,6.5a1.062,1.062,0,0,1,0-1.544,1.173,1.173,0,0,1,1.61,0L8.694,6.791a1.041,1.041,0,0,1,.246,1.187A1.123,1.123,0,0,1,7.889,8.655Zm9.763-3.877a1.118,1.118,0,0,1-1.139-1.092V1.092a1.14,1.14,0,0,1,2.277,0V3.686A1.117,1.117,0,0,1,17.652,4.778Z" fill="#5d3195"/>
</svg>
