<svg xmlns="http://www.w3.org/2000/svg" id="prefix___2948035" width="19.628" height="19.628" data-name="2948035" viewBox="0 0 19.628 19.628">
    <defs>
        <style>
            .prefix__cls-1{fill:#8d6eb4}
        </style>
    </defs>
    <path id="prefix__Path_8807" d="M9.814 19.628a9.813 9.813 0 1 1 7.5-3.489A9.917 9.917 0 0 1 16.16 17.3a9.817 9.817 0 0 1-6.346 2.328zm0-18.4a8.588 8.588 0 0 0-6.567 14.12 8.687 8.687 0 0 0 1.014 1.016 8.588 8.588 0 0 0 11.1 0 8.687 8.687 0 0 0 1.014-1.017 8.588 8.588 0 0 0-6.561-14.12z" class="prefix__cls-1" data-name="Path 8807"/>
    <path id="prefix__Path_8808" d="M163.68 71.36a3.68 3.68 0 1 1 3.68-3.68 3.684 3.684 0 0 1-3.68 3.68zm0-6.134a2.453 2.453 0 1 0 2.453 2.453 2.456 2.456 0 0 0-2.453-2.452z" class="prefix__cls-1" data-name="Path 8808" transform="translate(-153.866 -61.547)"/>
    <path id="prefix__Path_8809" d="M92.7 232.859a.614.614 0 0 1-.6-.763 5.525 5.525 0 0 0-5.274-6.869h-.162a5.525 5.525 0 0 0-5.274 6.869.613.613 0 0 1-1.19.3A6.749 6.749 0 0 1 86.651 224h.191a6.752 6.752 0 0 1 6.449 8.394.614.614 0 0 1-.591.465z" class="prefix__cls-1" data-name="Path 8809" transform="translate(-76.933 -215.413)"/>
</svg>
