<svg xmlns="http://www.w3.org/2000/svg" width="41.991" height="42.747" viewBox="0 0 41.991 42.747">
  <g id="Group_2505" data-name="Group 2505" transform="translate(-3097.235 -6614.421)">
    <path id="star-solid" d="M39.243,1.474,34.117,12.527,22.65,14.305a2.72,2.72,0,0,0-1.389,4.558l8.3,8.6L27.595,39.608a2.546,2.546,0,0,0,3.642,2.813L41.5,36.686l10.258,5.735A2.548,2.548,0,0,0,55.4,39.608L53.433,27.461l8.3-8.6a2.72,2.72,0,0,0-1.389-4.558L48.873,12.527,43.748,1.474A2.45,2.45,0,0,0,39.243,1.474Z" transform="translate(3076.735 6614.433)" fill="#6190fd"/>
  </g>
</svg>
