<svg xmlns="http://www.w3.org/2000/svg" xmlns:xlink="http://www.w3.org/1999/xlink" width="384.004" height="512.01" viewBox="0 0 384.004 512.01">
  <defs>
    <linearGradient id="linear-gradient" x1="0.5" x2="0.5" y2="1" gradientUnits="objectBoundingBox">
      <stop offset="0" stop-color="#a52800"/>
      <stop offset="0.388" stop-color="#f98e5f"/>
      <stop offset="1" stop-color="#9f2600"/>
    </linearGradient>
  </defs>
  <g id="Group_10" data-name="Group 10" transform="translate(-402 326)">
    <path id="award-solid" d="M97.12,362.63c-8.69-8.69-4.16-6.24-25.12-11.85-9.51-2.55-17.87-7.45-25.43-13.32L1.2,448.7a16,16,0,0,0,15.43,22.03l52.69-2.01L105.56,507a16,16,0,0,0,26.43-4.96l52.05-127.62a71.764,71.764,0,0,1-86.92-11.79ZM382.8,448.7,337.43,337.46c-7.56,5.88-15.92,10.77-25.43,13.32-21.07,5.64-16.45,3.18-25.12,11.85a71.778,71.778,0,0,1-86.93,11.79L252,502.04A16,16,0,0,0,278.43,507l36.25-38.28,52.69,2.01A16,16,0,0,0,382.8,448.7ZM263,340c15.28-15.55,17.03-14.21,38.79-20.14a40.638,40.638,0,0,0,28.47-28.98c7.48-28.4,5.54-24.97,25.95-45.75a41.483,41.483,0,0,0,10.42-39.58c-7.47-28.38-7.48-24.42,0-52.83a41.483,41.483,0,0,0-10.42-39.58c-20.41-20.78-18.47-17.36-25.95-45.75a40.638,40.638,0,0,0-28.47-28.98C273.91,30.8,277.27,32.79,256.84,12A39.79,39.79,0,0,0,217.95,1.39c-27.87,7.6-23.98,7.61-51.9,0A39.767,39.767,0,0,0,127.16,12c-20.41,20.78-17.05,18.8-44.94,26.41A40.638,40.638,0,0,0,53.75,67.39c-7.47,28.39-5.54,24.97-25.95,45.75a41.459,41.459,0,0,0-10.42,39.58c7.47,28.36,7.48,24.4,0,52.82A41.508,41.508,0,0,0,27.8,245.13c20.41,20.78,18.47,17.35,25.95,45.75a40.638,40.638,0,0,0,28.47,28.98C104.6,325.96,106.27,325,121,340a39.742,39.742,0,0,0,49.74,5.82,39.676,39.676,0,0,1,42.53,0A39.73,39.73,0,0,0,263,340ZM97.66,175.96c0-53.03,42.24-96.02,94.34-96.02s94.34,42.99,94.34,96.02S244.1,271.98,192,271.98s-94.34-42.99-94.34-96.02Z" transform="translate(402.002 -325.992)" fill="url(#linear-gradient)"/>
  </g>
</svg>
