<?xml version="1.0" encoding="utf-8"?>
<!-- Generator: Adobe Illustrator 15.0.0, SVG Export Plug-In . SVG Version: 6.00 Build 0)  -->
<!DOCTYPE svg PUBLIC "-//W3C//DTD SVG 1.1//EN" "http://www.w3.org/Graphics/SVG/1.1/DTD/svg11.dtd">
<svg version="1.1" id="Layer_1" xmlns="http://www.w3.org/2000/svg" xmlns:xlink="http://www.w3.org/1999/xlink" x="0px" y="0px"
	 width="439px" height="269px" viewBox="0 0 439 269" enable-background="new 0 0 439 269" xml:space="preserve">
<g>
	<defs>
		<rect id="SVGID_1_" width="439" height="269"/>
	</defs>
	<clipPath id="SVGID_2_">
		<use xlink:href="#SVGID_1_"  overflow="visible"/>
	</clipPath>
	<g id="iPad_1" clip-path="url(#SVGID_2_)">
		<g id="crown" transform="translate(1 -0.453)">
			<path id="Path_5" fill="#52AAE1" d="M368.641,214.855H68.266c-2.917-0.001-5.511-1.854-6.457-4.613L16.907,79.277
				c-1.221-3.568,0.679-7.451,4.246-8.677c1.057-0.367,2.189-0.462,3.293-0.277c2.553,0.149,4.808,1.717,5.836,4.059
				c5.551,12.605,25.3,53.3,48.332,53.3c0.285,0,0.574-0.008,0.867-0.023c13.895-0.617,35.625-16.652,60.246-89.5
				c1.207-3.572,5.08-5.489,8.651-4.283c2.017,0.682,3.601,2.265,4.283,4.283c8.406,24.84,36.582,89.117,65.84,89.117
				c0.078,0,0.152,0,0.234,0c13.871-0.168,35.201-15.734,58.039-88.961c0.891-2.852,3.533-4.794,6.521-4.793h0.065
				c3.014,0.029,5.651,2.031,6.488,4.926c6.98,24.039,31.738,87,62.105,89.633c17.742,1.461,37.414-18.617,56.836-58.277
				c1.656-3.388,5.745-4.792,9.133-3.136c3.093,1.512,4.577,5.09,3.461,8.347L375.1,210.242c-0.947,2.76-3.543,4.613-6.461,4.613
				H368.641z M73.141,201.2h290.617l26.742-78.146c-12.926,13.68-26.051,19.781-39.738,18.633
				c-33.633-2.926-56.711-51.392-67.44-79.879c-18.953,52.906-40.113,78.833-64.435,79.117c-0.133,0-0.258,0.009-0.391,0.009
				c-33.988,0-60.227-52.105-72.113-80.849c-20.281,53.52-42.047,80.129-66.3,81.215c-12.434,0.48-23.262-5.715-32.586-14.906
				L73.141,201.2z"/>
			<path id="Path_6" fill="#52AAE1" d="M368.641,269.469H68.266c-3.768,0.002-6.823-3.052-6.824-6.819c0-0.003,0-0.006,0-0.009
				v-54.612c0.003-3.771,3.061-6.824,6.831-6.821c3.766,0.003,6.818,3.055,6.821,6.821v47.789h286.719v-47.789
				c0-3.771,3.057-6.826,6.826-6.826c3.771,0,6.826,3.056,6.826,6.826v54.612c0.004,3.768-3.048,6.825-6.816,6.828
				C368.646,269.469,368.644,269.469,368.641,269.469z"/>
			<path id="Path_7" fill="#52AAE1" d="M149.012,47.176c-12.901-0.001-23.36-10.461-23.359-23.363
				c0.001-12.902,10.461-23.36,23.363-23.359s23.36,10.461,23.359,23.363C172.358,36.713,161.907,47.161,149.012,47.176z
				 M149.012,14.11c-5.361,0-9.707,4.346-9.707,9.707c0,5.361,4.346,9.707,9.707,9.707c5.361,0,9.707-4.346,9.707-9.707
				C158.712,18.459,154.37,14.117,149.012,14.11z"/>
			<path id="Path_8" fill="#52AAE1" d="M281.277,47.176c-12.902-0.001-23.36-10.461-23.359-23.363s10.461-23.36,23.363-23.359
				c12.901,0.001,23.359,10.46,23.359,23.362C304.624,36.712,294.173,47.161,281.277,47.176z M281.277,14.11
				c-5.361,0.002-9.705,4.35-9.703,9.711c0.002,5.361,4.35,9.705,9.711,9.703c5.359-0.002,9.703-4.348,9.703-9.707
				C290.981,18.457,286.637,14.114,281.277,14.11z"/>
			<path id="Path_9" fill="#52AAE1" d="M413.547,80.242c-12.9,0-23.359-10.458-23.359-23.359c0-12.9,10.459-23.358,23.359-23.358
				c12.901,0,23.359,10.458,23.359,23.358C436.89,69.777,426.441,80.225,413.547,80.242z M413.547,47.176
				c-5.361,0-9.707,4.346-9.707,9.707c0,5.361,4.346,9.707,9.707,9.707s9.707-4.346,9.707-9.707
				C423.25,51.523,418.906,47.18,413.547,47.176z"/>
			<path id="Path_10" fill="#52AAE1" d="M23.359,80.242C10.458,80.239,0.002,69.779,0.005,56.878
				c0.003-12.9,10.463-23.356,23.364-23.354c12.898,0.002,23.354,10.46,23.354,23.359C46.707,69.779,36.255,80.229,23.359,80.242z
				 M23.359,47.176c-5.361,0.002-9.705,4.35-9.703,9.711c0.002,5.361,4.35,9.705,9.711,9.703c5.359-0.002,9.703-4.347,9.703-9.707
				C33.064,51.523,28.719,47.18,23.359,47.176z"/>
		</g>
	</g>
</g>
</svg>
