<svg xmlns="http://www.w3.org/2000/svg" xmlns:xlink="http://www.w3.org/1999/xlink" width="50" height="69" viewBox="0 0 50 69">
  <defs>
    <clipPath id="clip-path">
      <rect id="Rectangle_1" data-name="Rectangle 1" width="50" height="69"/>
    </clipPath>
  </defs>
  <g id="custom_1" data-name="custom – 1" clip-path="url(#clip-path)">
    <g id="icon" transform="translate(-3.303)">
      <g id="Group_1" data-name="Group 1" transform="translate(3.303)">
        <path id="Path_1" data-name="Path 1" d="M33.351,40.741a1.934,1.934,0,0,0,2.212-1.613l.456-3.029a1.885,1.885,0,0,1,1.022-1.4l2.743-1.37a1.924,1.924,0,0,0,.847-2.606l-1.413-2.733a1.886,1.886,0,0,1,0-1.724l1.413-2.73a1.948,1.948,0,0,0,.121-1.481,1.928,1.928,0,0,0-.968-1.125l-2.743-1.37a1.885,1.885,0,0,1-1.022-1.4l-.456-3.029a1.935,1.935,0,0,0-2.212-1.61l-3.035.507a1.88,1.88,0,0,1-1.643-.534l-2.155-2.19a1.931,1.931,0,0,0-1.37-.569,1.952,1.952,0,0,0-1.37.569l-2.155,2.19a1.87,1.87,0,0,1-1.643.534l-3.029-.5a1.936,1.936,0,0,0-2.215,1.61l-.453,3.029a1.891,1.891,0,0,1-1.022,1.405l-2.746,1.37a1.93,1.93,0,0,0-.847,2.606l1.413,2.73a1.87,1.87,0,0,1,0,1.724L9.667,30.726a1.93,1.93,0,0,0,.847,2.606L13.26,34.7a1.891,1.891,0,0,1,1.022,1.4l.453,3.029A1.935,1.935,0,0,0,16.95,40.75l3.029-.5a1.86,1.86,0,0,1,1.643.531l2.155,2.185a1.915,1.915,0,0,0,2.741,0l2.155-2.185a1.865,1.865,0,0,1,1.643-.531ZM25.145,38.53A11.688,11.688,0,1,1,36.833,26.843,11.688,11.688,0,0,1,25.145,38.53Z" transform="translate(7.139 18.204)" fill="#030104"/>
        <path id="Path_2" data-name="Path 2" d="M21.558,12.991a9.986,9.986,0,1,0,9.989,9.987,9.986,9.986,0,0,0-9.989-9.987Z" transform="translate(10.728 22.052)" fill="#030104"/>
        <path id="Path_3" data-name="Path 3" d="M30.206,26.085,24.77,20.647l-.27,1.834A3.238,3.238,0,0,1,23.2,24.6a3.2,3.2,0,0,1-2.406.575l-3.037-.5a.6.6,0,0,0-.513.167l-.518.521,7.1,7.1a1.033,1.033,0,0,0,1.751-.539l.639-3.445,3.455-.647a1.019,1.019,0,0,0,.793-.712A1.033,1.033,0,0,0,30.206,26.085Z" transform="translate(19.487 35.048)" fill="#030104"/>
        <path id="Path_4" data-name="Path 4" d="M21.551,24.669l-3.129.51a3.23,3.23,0,0,1-3.7-2.706l-.275-1.826L9.011,26.085a1.033,1.033,0,0,0,.537,1.748L13,28.478l.647,3.45a1.028,1.028,0,0,0,1.743.542l7.1-7.1-.518-.523a.584.584,0,0,0-.421-.178Z" transform="translate(5.871 35.048)" fill="#030104"/>
        <path id="Path_5" data-name="Path 5" d="M33.48,4.217H8.029a1.661,1.661,0,0,0,0,3.321H33.48a1.661,1.661,0,0,0,0-3.321Z" transform="translate(1.903 7.158)" fill="#030104"/>
        <path id="Path_6" data-name="Path 6" d="M33.48,7.371H8.029a1.658,1.658,0,1,0,0,3.315H33.48a1.658,1.658,0,1,0,0-3.315Z" transform="translate(1.903 12.512)" fill="#030104"/>
        <path id="Path_7" data-name="Path 7" d="M21.023,54.532l-1.254-1.626a4.393,4.393,0,0,1-.882-.6H9.172a1.332,1.332,0,0,1-1.33-1.327V5.866a1.331,1.331,0,0,1,1.33-1.333H42.827a1.333,1.333,0,0,1,1.33,1.333v23.3c1.82.436,4.2,1.929,4.48,3.779l.054-28.073A4.867,4.867,0,0,0,43.827,0H8.172A4.877,4.877,0,0,0,3.3,4.869V51.983a4.878,4.878,0,0,0,4.869,4.872H18.706Z" transform="translate(-3.303)" fill="#030104"/>
      </g>
    </g>
  </g>
</svg>
