<svg id="xzcGJI.tif" xmlns="http://www.w3.org/2000/svg" width="19.563" height="17.215" viewBox="0 0 19.563 17.215">
  <g id="Group_2306" data-name="Group 2306">
    <path id="Path_8286" data-name="Path 8286" d="M247.954,347.215h-.522c-.979-.672-1.946-1.361-2.944-2a1.918,1.918,0,0,0-.955-.3c-1.649-.029-3.3-.006-4.947-.016a1.675,1.675,0,0,1-1.845-1.86c0-.7,0-1.395,0-2.2-.847.565-1.554,1.065-2.291,1.513-.231.141-.637.283-.8.176a1.24,1.24,0,0,1-.379-.811,9.443,9.443,0,0,1-.016-1.312c-1.513-.217-1.6-.266-2.255-1.274v-7.956A1.513,1.513,0,0,1,232.174,330h11.477a2.242,2.242,0,0,1,1.184,2.42c-.068.7-.013,1.41-.013,2.158,1.229,0,2.375.04,3.516-.012a2.077,2.077,0,0,1,2.225,1.3v7.825a1.972,1.972,0,0,1-2.254,1.188,5.8,5.8,0,0,1-.009.938C248.214,346.29,248.072,346.751,247.954,347.215Zm-13.418-6.32c.666-.442,1.272-.907,1.936-1.264a3.4,3.4,0,0,1,1.435-.444c1.65-.054,3.3-.025,4.954-.019.519,0,.812-.175.808-.757-.015-2.173-.011-4.346,0-6.519,0-.491-.219-.729-.7-.729q-5.052,0-10.1,0c-.437,0-.7.2-.7.667q0,3.324,0,6.649a.6.6,0,0,0,.615.681c.488.046,1.14-.061,1.416.21C234.487,339.66,234.425,340.312,234.536,340.9Zm3.363-.558c0,.885,0,1.665,0,2.445,0,.866.075.945.92.948,1.433,0,2.868.043,4.3-.014a3.355,3.355,0,0,1,2.351.718c.493.392,1.048.706,1.633,1.093.1-1.658.1-1.665,1.664-1.794.424-.035.633-.233.633-.656,0-2.215.014-4.43-.021-6.644,0-.226-.295-.633-.465-.64-1.354-.053-2.711-.03-4.093-.03,0,1.006.01,1.939,0,2.872a1.653,1.653,0,0,1-1.44,1.66,7.984,7.984,0,0,1-.975.04C240.931,340.34,239.459,340.338,237.9,340.338Z" transform="translate(-231 -330)" fill="#fff"/>
    <path id="Path_8288" data-name="Path 8288" d="M253.332,357.447h-3.778c-.429,0-.831-.095-.819-.61.011-.472.4-.563.8-.561.825,0,1.65,0,2.475,0q2.54,0,5.081,0c.423,0,.846.068.855.574s-.408.6-.834.6Q255.221,357.445,253.332,357.447Z" transform="translate(-246.421 -352.848)" fill="#fff"/>
    <path id="Path_8289" data-name="Path 8289" d="M251.552,375.155c-.715,0-1.43,0-2.145,0-.406,0-.7-.163-.7-.585s.3-.579.707-.577q2.145.012,4.29,0c.417,0,.751.2.688.576a.956.956,0,0,1-.7.56A19.668,19.668,0,0,1,251.552,375.155Z" transform="translate(-246.397 -368.255)" fill="#fff"/>
  </g>
</svg>
