<svg xmlns="http://www.w3.org/2000/svg" width="36.651" height="48.868" viewBox="0 0 36.651 48.868">
  <path id="Icon_awesome-hourglass-end" data-name="Icon awesome-hourglass-end" d="M34.36,6.108a2.291,2.291,0,0,0,2.291-2.291V2.291A2.291,2.291,0,0,0,34.36,0H2.291A2.291,2.291,0,0,0,0,2.291V3.818A2.291,2.291,0,0,0,2.291,6.108c0,8.682,4.869,16.009,11.534,18.325C7.16,26.75,2.291,34.077,2.291,42.759A2.291,2.291,0,0,0,0,45.05v1.527a2.291,2.291,0,0,0,2.291,2.291H34.36a2.291,2.291,0,0,0,2.291-2.291V45.05a2.291,2.291,0,0,0-2.291-2.291c0-8.682-4.869-16.009-11.534-18.325C29.491,22.118,34.36,14.791,34.36,6.108ZM18.325,19.853C12.81,19.853,8.4,13.5,8.4,6.108H28.252C28.252,13.548,23.813,19.853,18.325,19.853Z" fill="#edb828"/>
</svg>
