<svg xmlns="http://www.w3.org/2000/svg" width="20.224" height="20.192" viewBox="0 0 20.224 20.192">
  <g id="Group_2472" data-name="Group 2472" transform="translate(0.152 0.15)">
    <path id="Path_8290" data-name="Path 8290" d="M37.045,222.318c-.2-.04-.41-.072-.612-.121a1.712,1.712,0,0,1-.922-.493.343.343,0,0,0-.23-.058q-2.822,0-5.644,0c-.368,0-.737,0-1.105,0a1.032,1.032,0,0,1-1.061-1.314q.649-3.312,1.29-6.625c.05-.258.1-.515.154-.772a.7.7,0,0,1,.754-.629c.189,0,.378,0,.585,0a.781.781,0,0,1,.835-.87c-.028-.3-.067-.582-.078-.865a2.553,2.553,0,0,1,.339-1.3.738.738,0,0,0,.067-.348,1.382,1.382,0,0,1,.666-1.281.4.4,0,0,0,.212-.29,1.671,1.671,0,0,1,2-1.352.23.23,0,0,0,.185-.055,2.323,2.323,0,0,1,2.963-.494,5.58,5.58,0,0,1,.821-.3,1.3,1.3,0,0,1,1.247.472.375.375,0,0,0,.22.122,2.889,2.889,0,0,1,2.75,2.226.262.262,0,0,0,.141.149,1.388,1.388,0,0,1,.918,1.712.313.313,0,0,0,.018.2,2.185,2.185,0,0,1,.205,1.4.775.775,0,0,1,.784.868c.2,0,.382,0,.564,0a.71.71,0,0,1,.778.649q.722,3.7,1.446,7.4a1.032,1.032,0,0,1-1.086,1.3q-3.365,0-6.73,0a.407.407,0,0,0-.321.135,2.1,2.1,0,0,1-1.256.5c-.063.009-.125.027-.187.041ZM34.392,213.3a7.6,7.6,0,0,1-1.195-.011,2.507,2.507,0,0,1-1.689-1.1c-.131-.189-.3-.077-.445-.055a.218.218,0,0,0-.13.15c-.075.4-.138.8-.2,1.2l-.7,4.215-.288,1.741a11.62,11.62,0,0,1,7.312,0v-.262q0-1.816,0-3.632a3.312,3.312,0,0,1,0-.335.334.334,0,0,1,.339-.317.338.338,0,0,1,.342.315,1.412,1.412,0,0,1,0,.177q0,1.9,0,3.809v.242a11.633,11.633,0,0,1,7.313,0l-1.212-7.291c-.353-.073-.379-.064-.516.2-.024.046-.027.1-.05.149a7.761,7.761,0,0,1-.456.931,5.328,5.328,0,0,1-.593.66c.092.24.2.479.275.73a1.019,1.019,0,0,1-.459,1.142.988.988,0,0,1-1.222-.115,2.9,2.9,0,0,0-1.148-.694,1.814,1.814,0,0,1-1.287-1.182c-.2-.036-.378-.06-.555-.106a.265.265,0,0,0-.262.061,2.053,2.053,0,0,1-1.8.412A2.093,2.093,0,0,1,34.392,213.3Zm7.867-.228a2.127,2.127,0,0,1-1.782-.319.348.348,0,0,0-.319-.063,1.147,1.147,0,0,1-1.243-.513c-.141-.228-.118-.416.064-.536s.342-.061.5.152a.507.507,0,0,0,.655.194.5.5,0,0,0,.228-.639c-.078-.238-.013-.419.178-.491a.351.351,0,0,1,.458.256,1.155,1.155,0,0,1-.116,1.087,1.426,1.426,0,0,0,1.768-.109,1.35,1.35,0,0,0,.364-1.508l-.051.028c-.284.171-.461.165-.587-.02s-.068-.348.221-.551a.705.705,0,0,0-.23-1.269.741.741,0,0,0-.6.123.337.337,0,1,1-.372-.562.911.911,0,0,1,.257-.143c.149-.046.163-.128.1-.25a4.344,4.344,0,0,0-.305-.592,2.125,2.125,0,0,0-1.588-.9c-.093.317-.174.4-.372.4s-.322-.127-.349-.393a.665.665,0,0,0-.467-.6.623.623,0,0,0-.72.17.957.957,0,0,0-.2.434c-.054.28-.186.421-.42.385-.2-.031-.307-.217-.266-.471.016-.1.035-.2.054-.311a1.618,1.618,0,0,0-1.744,0,1.582,1.582,0,0,0-.717.952.341.341,0,0,1-.425.256.345.345,0,0,1-.229-.439c.012-.055.026-.11.039-.166a.936.936,0,0,0-1.057.782l.13.032a1.3,1.3,0,0,1,.777.5.34.34,0,0,1-.217.547c-.163.025-.263-.081-.366-.189a.7.7,0,0,0-1.186.269.709.709,0,0,0,.3.808.35.35,0,0,1,.111.482.345.345,0,0,1-.5.07c-.063-.042-.123-.089-.186-.135a1.989,1.989,0,0,0,.348,2.139,1.967,1.967,0,0,0,1.96.619l-.036-.293c-.067-.018-.13-.033-.192-.051a1.161,1.161,0,0,1-.834-1.057c-.008-.243.1-.388.3-.4s.337.1.367.345a.485.485,0,0,0,.466.474,2.107,2.107,0,0,1,.178-.367.46.46,0,0,1,.265-.2.47.47,0,0,1,.32.132.3.3,0,0,1,.011.383,1.44,1.44,0,0,0,.846,2.095,1.362,1.362,0,0,0,1.414-.363.453.453,0,0,1,.526-.141,2.593,2.593,0,0,0,1.57.054c.243-.062.426.022.478.214.056.208-.06.379-.309.444-.131.034-.264.06-.448.1a2.725,2.725,0,0,0,.33.3,2.338,2.338,0,0,0,.49.248,3.006,3.006,0,0,1,1.365.825.353.353,0,0,0,.58-.356,2.932,2.932,0,0,0-.2-.471.188.188,0,0,0-.161-.067c-.16.03-.315.09-.475.124a.338.338,0,0,1-.186-.648,1.434,1.434,0,0,1,.191-.047A2.157,2.157,0,0,0,42.259,213.067ZM39.3,219.714c.03.394.062.734.081,1.074.008.149.085.161.206.161q3.356,0,6.711,0c.3,0,.431-.163.375-.458s-.113-.566-.168-.85q-.465-2.386-.929-4.771c-.121-.622-.244-1.245-.365-1.862h-.521c.008.082.011.148.022.213q.5,3.019,1.01,6.038a.7.7,0,0,1-.172.659.69.69,0,0,1-.746.16,11.15,11.15,0,0,0-3.886-.517C40.379,219.584,39.846,219.66,39.3,219.714ZM29.6,213c-.019.078-.039.147-.053.216q-.7,3.613-1.4,7.226c-.071.365.04.5.412.5h6.613c.033,0,.066,0,.1,0,.1.009.144-.028.151-.131.024-.353.054-.705.084-1.1-.549-.055-1.088-.134-1.63-.158a11.272,11.272,0,0,0-3.848.508c-.627.193-1.058-.214-.935-.861.038-.2.068-.4.1-.6q.327-1.961.654-3.922c.092-.555.183-1.111.277-1.68Zm6.577,6.872c-.033.416-.058.782-.092,1.147-.03.316-.029.328.271.44a3.144,3.144,0,0,0,1.589.124,3.306,3.306,0,0,0,.671-.208.224.224,0,0,0,.119-.171c-.027-.431-.071-.861-.113-1.329-.33.114-.643.209-.943.332a.665.665,0,0,1-.545,0C36.831,220.089,36.518,219.993,36.175,219.874Z" transform="translate(-27.442 -202.426)" fill="#fff" stroke="#fff" stroke-width="0.3"/>
    <path id="Path_8291" data-name="Path 8291" d="M190.1,145.793c-.027.214-.093.332-.251.383a.288.288,0,0,1-.373-.135c-.164-.348-.311-.7-.442-1.066a.285.285,0,0,1,.171-.358c.143-.07.316-.071.388.069C189.783,145.061,189.943,145.454,190.1,145.793Z" transform="translate(-182.622 -144.275)" fill="#fff" stroke="#fff" stroke-width="0.3"/>
    <path id="Path_8292" data-name="Path 8292" d="M343.462,145.225a.9.9,0,0,1-.037.144c-.118.291-.236.582-.362.87a.338.338,0,1,1-.626-.251c.12-.3.245-.607.377-.906a.336.336,0,0,1,.649.143Z" transform="translate(-329.946 -144.56)" fill="#fff" stroke="#fff" stroke-width="0.3"/>
    <path id="Path_8293" data-name="Path 8293" d="M444.945,259.99a.338.338,0,0,1,.323.244.288.288,0,0,1-.134.373c-.343.16-.694.306-1.051.434a.289.289,0,0,1-.38-.2.3.3,0,0,1,.134-.408c.344-.159.7-.294,1.05-.438A.255.255,0,0,1,444.945,259.99Z" transform="translate(-427.209 -255.128)" fill="#fff" stroke="#fff" stroke-width="0.3"/>
    <path id="Path_8294" data-name="Path 8294" d="M74.275,259.977a1.459,1.459,0,0,1,.153.046c.278.113.557.227.833.345.228.1.319.275.243.465a.35.35,0,0,1-.5.165c-.3-.119-.594-.24-.887-.369a.313.313,0,0,1-.2-.368A.348.348,0,0,1,74.275,259.977Z" transform="translate(-72.079 -255.115)" fill="#fff" stroke="#fff" stroke-width="0.3"/>
    <path id="Path_8295" data-name="Path 8295" d="M408.7,196.618c-.072-.06-.2-.118-.243-.215a.418.418,0,0,1,.028-.344,2.065,2.065,0,0,1,.412-.421.3.3,0,0,1,.4.012c.124.1.2.251.1.381a5.01,5.01,0,0,1-.517.531C408.848,196.59,408.792,196.59,408.7,196.618Z" transform="translate(-393.361 -193.254)" fill="#fff" stroke="#fff" stroke-width="0.3"/>
    <path id="Path_8296" data-name="Path 8296" d="M125.613,196.193c-.059.076-.113.208-.207.25a.408.408,0,0,1-.341-.023,2.286,2.286,0,0,1-.42-.41.3.3,0,0,1,.013-.412.29.29,0,0,1,.4-.077,4.275,4.275,0,0,1,.493.5C125.583,196.049,125.585,196.1,125.613,196.193Z" transform="translate(-120.725 -193.158)" fill="#fff" stroke="#fff" stroke-width="0.3"/>
    <path id="Path_8297" data-name="Path 8297" d="M271.178,137.592c0,.345-.116.51-.353.5s-.335-.167-.335-.5.114-.515.343-.516S271.178,137.253,271.178,137.592Z" transform="translate(-260.876 -137.078)" fill="#fff" stroke="#fff" stroke-width="0.3"/>
    <path id="Path_8298" data-name="Path 8298" d="M249.29,309.494c-.321-.192-.606-.359-.888-.531a.687.687,0,0,1-.145-.133.343.343,0,0,1-.016-.495.348.348,0,0,1,.5.011c.049.043.094.093.145.133a1.348,1.348,0,0,0,2.155-.712c.011-.038.021-.076.034-.113a.338.338,0,0,1,.422-.227.347.347,0,0,1,.231.406,2,2,0,0,1-1.438,1.552.463.463,0,0,0-.317.242,1.639,1.639,0,0,1-1.433.9.351.351,0,0,1-.384-.316c-.016-.2.13-.328.351-.376a3.908,3.908,0,0,0,.6-.205A.843.843,0,0,0,249.29,309.494Z" transform="translate(-239.413 -300.674)" fill="#fff" stroke="#fff" stroke-width="0.3"/>
    <path id="Path_8299" data-name="Path 8299" d="M214.077,273.637c.254-.011.406.1.417.309s-.123.343-.374.362a.862.862,0,0,0-.827.823c-.024.244-.144.383-.337.39a.358.358,0,0,1-.352-.411A1.555,1.555,0,0,1,214.077,273.637Z" transform="translate(-205.279 -268.235)" fill="#fff" stroke="#fff" stroke-width="0.3"/>
  </g>
</svg>
