<svg id="edit-tools" xmlns="http://www.w3.org/2000/svg" width="16.92" height="16.917" viewBox="0 0 16.92 16.917">
  <path id="Path_8214" data-name="Path 8214" d="M15.623,48.153a.423.423,0,0,0-.422.424v3.765a1.27,1.27,0,0,1-1.265,1.272H2.108A1.27,1.27,0,0,1,.843,52.342V41.292A1.27,1.27,0,0,1,2.108,40.02H5.851a.424.424,0,0,0,0-.848H2.108A2.116,2.116,0,0,0,0,41.292v11.05a2.116,2.116,0,0,0,2.108,2.12H13.937a2.116,2.116,0,0,0,2.108-2.12V48.577A.423.423,0,0,0,15.623,48.153Zm0,0" transform="translate(0 -37.545)" fill="#fff"/>
  <path id="Path_8215" data-name="Path 8215" d="M119.41.812a1.881,1.881,0,0,0-2.66,0l-7.457,7.457a.418.418,0,0,0-.107.184l-.981,3.54a.418.418,0,0,0,.514.514l3.54-.981a.418.418,0,0,0,.184-.107L119.9,3.962a1.883,1.883,0,0,0,0-2.66ZM110.2,8.541l6.1-6.1,1.968,1.968-6.1,6.1Zm-.393.789,1.573,1.573-2.175.6Zm9.5-5.958-.443.443L116.9,1.846l.443-.443a1.045,1.045,0,0,1,1.478,0l.491.49A1.046,1.046,0,0,1,119.31,3.371Zm0,0" transform="translate(-103.531 -0.261)" fill="#fff"/>
</svg>
