<svg xmlns="http://www.w3.org/2000/svg" width="62.015" height="75.95" viewBox="0 0 62.015 75.95">
    <defs>
        <linearGradient id="prefix__linear-gradient" x1=".5" x2=".5" y2="1" gradientUnits="objectBoundingBox">
            <stop offset="0" stop-color="#f55e31"/>
            <stop offset=".522" stop-color="#ff347a"/>
            <stop offset="1" stop-color="#cb370a"/>
        </linearGradient>
    </defs>
    <path id="prefix__Forma_1" fill="url(#prefix__linear-gradient)" d="M14.95 75.094l-3.421-5.68A5.062 5.062 0 0 0 7.878 67.2l-6.41-.28c-1.31-.057-1.844-1.075-1.186-2.262l9.291-16.78c.224-.342-.107-.547-.282-.6-1.5-.47-3-.959-3.666-2.151-1.217-2.189.936-5.786.365-8.134-.587-2.416-4.043-4.5-4.043-6.957 0-2.724 3.567-5.111 4.135-7.466s-1.593-5.945-.382-8.135 5.266-2.019 6.931-3.7C14.346 9 14.333 4.772 16.4 3.609c1.136-.639 2.664-.226 4.192.186a7.722 7.722 0 0 0 3.574.429C24.771 4.078 28.618 0 31.036 0c2.383 0 4.422 3.595 6.7 4.145a7.725 7.725 0 0 0 3.573-.436c1.527-.416 3.054-.831 4.192-.195 2.07 1.158 2.065 5.388 3.781 7.116 1.668 1.68 5.721 1.5 6.937 3.688s-.936 5.786-.365 8.134c.584 2.4 4.148 5.2 4.148 7.592 0 2.457-3.447 4.548-4.031 6.965-.567 2.348 1.592 5.942.379 8.133-.728 1.315-2.479 1.778-4.123 2.3l9.5 17.087c.659 1.185.127 2.2-1.182 2.265l-6.41.292a5.063 5.063 0 0 0-3.648 2.22L47.082 75a1.3 1.3 0 0 1-2.465-.044l-9.563-17.2c-.158-.338-.375-.175-.464-.1-1.094.977-2.2 1.853-3.4 1.853a6.506 6.506 0 0 1-3.725-1.864c-.092-.082-.285-.13-.477.1l-9.575 17.3a1.49 1.49 0 0 1-1.237.9 1.506 1.506 0 0 1-1.226-.851zm-2.343-56.475c-5.724 10.339-2.591 23.541 6.93 29.923a20.507 20.507 0 0 0 22.093.437c10.147-6.178 13.6-19.843 7.7-30.461a21.67 21.67 0 0 0-7.74-8.075l-.224-.132-.158-.092a20.409 20.409 0 0 0-10.144-2.706 21.14 21.14 0 0 0-18.457 11.106zm9.443 27.389c-.211-.128-.417-.26-.621-.4a18.271 18.271 0 0 1-5.989-6.465c-4.967-8.935-2.062-20.432 6.476-25.631a17.239 17.239 0 0 1 18.005 0l.089.052c8.547 5.182 11.472 16.673 6.52 25.618A17.787 17.787 0 0 1 31 48.531a17.2 17.2 0 0 1-8.951-2.522zm11.14-7.063l3.7 2.035c1.146.63 1.9.054 1.685-1.281l-.707-4.31a5.42 5.42 0 0 1 1.287-4.147l2.993-3.053c.927-.945.637-1.878-.644-2.073l-4.136-.629A5.05 5.05 0 0 1 34 22.925L32.148 19c-.573-1.215-1.51-1.215-2.083 0l-1.85 3.922a5.051 5.051 0 0 1-3.371 2.563l-4.136.629c-1.281.195-1.571 1.128-.644 2.073l2.993 3.053a5.421 5.421 0 0 1 1.287 4.147l-.707 4.31c-.219 1.335.54 1.912 1.685 1.281l3.7-2.035a4.827 4.827 0 0 1 4.167 0z" data-name="Forma 1"/>
</svg>
