<svg xmlns="http://www.w3.org/2000/svg" width="10.129" height="10.129" viewBox="0 0 10.129 10.129">
  <path id="Path_135" data-name="Path 135" d="M8.824.791h-.91V.317a.317.317,0,1,0-.633,0V.791H2.849V.317a.317.317,0,1,0-.633,0V.791h-.91A1.307,1.307,0,0,0,0,2.1V8.824a1.307,1.307,0,0,0,1.306,1.306H8.824a1.307,1.307,0,0,0,1.306-1.306V2.1A1.307,1.307,0,0,0,8.824.791Zm-7.518.633h.91v.317a.317.317,0,1,0,.633,0V1.424H7.281v.317a.317.317,0,1,0,.633,0V1.424h.91A.673.673,0,0,1,9.5,2.1v.752H.633V2.1A.673.673,0,0,1,1.306,1.424ZM8.824,9.5H1.306a.673.673,0,0,1-.673-.673V3.482H9.5V8.824A.673.673,0,0,1,8.824,9.5Z" fill="#707070"/>
</svg>
