<svg xmlns="http://www.w3.org/2000/svg" width="30" height="29" viewBox="0 0 30 29">
  <defs>
    <style>
      .cls-1, .cls-4 {
        fill: none;
      }

      .cls-1 {
        stroke: #3e3b65;
      }

      .cls-2 {
        fill: #3e3b65;
      }

      .cls-3 {
        stroke: none;
      }
    </style>
  </defs>
  <g id="Attachments" transform="translate(-0.371 -0.015)">
    <g id="Ellipse_520" data-name="Ellipse 520" class="cls-1" transform="translate(0.371 0.015)">
      <ellipse class="cls-3" cx="15" cy="14.5" rx="15" ry="14.5"/>
      <ellipse class="cls-4" cx="15" cy="14.5" rx="14.5" ry="14"/>
    </g>
    <path id="Icon_metro-attachment" data-name="Icon metro-attachment" class="cls-2" d="M12.529,6.569l-.922-.921L7,10.256a1.955,1.955,0,0,0,2.765,2.765l5.531-5.53a3.259,3.259,0,1,0-4.609-4.608L4.879,8.689,4.866,8.7a4.545,4.545,0,0,0,6.428,6.427l.012-.012h0l3.964-3.963-.922-.921-3.964,3.963-.012.012A3.241,3.241,0,0,1,5.788,9.623L5.8,9.611h0L11.607,3.8a1.955,1.955,0,0,1,2.765,2.765L8.842,12.1a.652.652,0,0,1-.922-.921l4.609-4.609Z" transform="translate(4.984 4.889)"/>
  </g>
</svg>
