<svg xmlns="http://www.w3.org/2000/svg" width="12.703" height="12.703" viewBox="0 0 12.703 12.703">
  <path id="XMLID_444_" d="M.577,2.31H2.31V.577A.577.577,0,0,1,2.887,0h9.238A.577.577,0,0,1,12.7.577V9.816a.577.577,0,0,1-.577.577H10.393v1.732a.577.577,0,0,1-.577.577H.577A.577.577,0,0,1,0,12.125V2.887A.577.577,0,0,1,.577,2.31Zm10.97,6.929V1.155H3.464V2.31H9.816a.577.577,0,0,1,.577.577V9.238ZM1.155,11.548H9.238V3.464H1.155Z" fill="#adb0b3"/>
</svg>
