<svg xmlns="http://www.w3.org/2000/svg" width="36.056" height="36.056" viewBox="0 0 36.056 36.056">
  <path id="Union_32" data-name="Union 32" d="M6.009,36.056V21.033H0V7.511H6.009V0H36.056V27.042l-9.014,9.014Zm1.5-1.5H25.54V25.54h9.013V1.5H7.511V7.511H25.54V21.033H7.511Zm19.531-.622,6.889-6.889H27.042ZM1.5,19.531H24.037V9.014H1.5Zm3.959-2.138a1.4,1.4,0,0,1-.586-.64,3.247,3.247,0,0,1-.283-1.068,13.285,13.285,0,0,1-.074-1.473,8.686,8.686,0,0,1,.1-1.423,2.875,2.875,0,0,1,.356-1.025,1.642,1.642,0,0,1,.665-.617,2.323,2.323,0,0,1,1.037-.207,1.951,1.951,0,0,1,1.533.529,2.194,2.194,0,0,1,.469,1.509H7.439a1.759,1.759,0,0,0-.041-.368,1.185,1.185,0,0,0-.13-.346A.869.869,0,0,0,7.04,12a.553.553,0,0,0-.339-.1.707.707,0,0,0-.676.525,5.111,5.111,0,0,0-.208,1.729c0,.386.013.733.036,1.046a4.072,4.072,0,0,0,.131.8,1.148,1.148,0,0,0,.27.5.617.617,0,0,0,.455.176.663.663,0,0,0,.258-.063.878.878,0,0,0,.262-.189,1.039,1.039,0,0,0,.2-.32,1.182,1.182,0,0,0,.079-.456v-.658H6.657v-.956h2.1V17.5H7.8v-.595H7.783a1.359,1.359,0,0,1-.562.536,1.81,1.81,0,0,1-.789.158A1.993,1.993,0,0,1,5.461,17.392Zm8.261.11V11.066h3.6V12.13h-2.3v1.514h2.164v1.064H15.02V17.5Zm-3.163,0V11.066h1.3V17.5Z" fill="#707070"/>
</svg>
