<svg xmlns="http://www.w3.org/2000/svg" width="36.06" height="36.06" viewBox="0 0 36.06 36.06">
  <path id="Union_36" data-name="Union 36" d="M6.01,36.06V21.035H0V7.512H6.01V0H36.06V27.045L27.045,36.06Zm1.5-1.5h18.03V25.542h9.015V1.5H7.512v6.01h18.03V21.035H7.512Zm19.533-.622,6.89-6.89h-6.89ZM1.5,19.532H24.04V9.015H1.5Zm15.614-2.138a1.406,1.406,0,0,1-.586-.64,3.254,3.254,0,0,1-.282-1.068,13.2,13.2,0,0,1-.074-1.474,8.6,8.6,0,0,1,.1-1.423,2.866,2.866,0,0,1,.356-1.025,1.634,1.634,0,0,1,.665-.617,2.308,2.308,0,0,1,1.037-.208,1.953,1.953,0,0,1,1.533.529,2.194,2.194,0,0,1,.469,1.51H19.1a1.726,1.726,0,0,0-.041-.368,1.2,1.2,0,0,0-.13-.348A.872.872,0,0,0,18.7,12a.558.558,0,0,0-.34-.1.707.707,0,0,0-.676.525,5.118,5.118,0,0,0-.208,1.729c0,.386.012.733.036,1.045a4.019,4.019,0,0,0,.131.8,1.143,1.143,0,0,0,.27.5.616.616,0,0,0,.455.176.659.659,0,0,0,.258-.063.875.875,0,0,0,.262-.189,1.042,1.042,0,0,0,.2-.32,1.178,1.178,0,0,0,.081-.457v-.658h-.854v-.956h2.1V17.5h-.957v-.595h-.018a1.358,1.358,0,0,1-.564.537,1.812,1.812,0,0,1-.788.157A2,2,0,0,1,17.116,17.395Zm-4.157.109L11.373,13h-.02V17.5h-1.19V11.067h1.5l1.568,4.41h.019v-4.41h1.19V17.5Zm-8.376,0V11.067H6.855a1.882,1.882,0,0,1,.834.167,1.513,1.513,0,0,1,.545.438,1.713,1.713,0,0,1,.3.617,2.865,2.865,0,0,1,.09.708,2.308,2.308,0,0,1-.149.866,1.546,1.546,0,0,1-.414.6,1.71,1.71,0,0,1-.645.352,2.889,2.889,0,0,1-.838.119H5.881V17.5Zm1.3-3.522h.577a.856.856,0,0,0,.627-.235.986.986,0,0,0,.239-.73,1.143,1.143,0,0,0-.207-.74.858.858,0,0,0-.695-.252h-.54Z" fill="#707070"/>
</svg>
