<svg xmlns="http://www.w3.org/2000/svg" width="15.309" height="10.207" viewBox="0 0 15.309 10.207">
  <path id="Icon_ionic-ios-arrow-round-back" data-name="Icon ionic-ios-arrow-round-back" d="M17.646,11.447a.7.7,0,0,0-.005.978l3.227,3.238H8.573a.691.691,0,0,0,0,1.382h12.3l-3.232,3.238a.7.7,0,0,0,.005.978.688.688,0,0,0,.973,0l4.375-4.413h0a.776.776,0,0,0,.144-.218.66.66,0,0,0,.053-.266.693.693,0,0,0-.2-.484L18.61,11.462a.677.677,0,0,0-.964-.015Z" transform="translate(-7.882 -11.253)"/>
</svg>
