<svg xmlns="http://www.w3.org/2000/svg" width="19.267" height="19.267" viewBox="0 0 19.267 19.267">
  <defs>
    <style>
      .cls-1 {
        fill: #8d6eb4;
        stroke: #8d6eb4;
        stroke-width: 1.5px;
      }
    </style>
  </defs>
  <g id="full-screen" transform="translate(0.75 0.75)">
    <path id="Path_8824" data-name="Path 8824" class="cls-1" d="M5.711,0H0V5.711H.635V.635H5.711Zm0,0"/>
    <path id="Path_8825" data-name="Path 8825" class="cls-1" d="M309.076,5.711h.635V0H304V.635h5.076Zm0,0" transform="translate(-291.944)"/>
    <path id="Path_8826" data-name="Path 8826" class="cls-1" d="M.635,304H0v5.711H5.711v-.635H.635Zm0,0" transform="translate(0 -291.944)"/>
    <path id="Path_8827" data-name="Path 8827" class="cls-1" d="M309.711,304h-.635v5.076H304v.635h5.711Zm0,0" transform="translate(-291.944 -291.944)"/>
  </g>
</svg>
