<svg xmlns="http://www.w3.org/2000/svg" width="15.914" height="15.862" viewBox="0 0 15.914 15.862">
  <g id="pie-chart-outline" transform="translate(0 -0.083)">
    <g id="Group_209" data-name="Group 209" transform="translate(0 0.083)">
      <g id="Group_208" data-name="Group 208" transform="translate(0)">
        <path id="Path_549" data-name="Path 549" d="M7.184,4.781a7.184,7.184,0,1,0,7.184,7.184H7.184Z" transform="translate(0 -3.288)" fill="#adb0b3"/>
        <path id="Path_550" data-name="Path 550" d="M27.463.083V7.267h7.184A7.184,7.184,0,0,0,27.463.083Z" transform="translate(-18.733 -0.083)" fill="#adb0b3"/>
      </g>
    </g>
  </g>
</svg>
