<svg xmlns="http://www.w3.org/2000/svg" xmlns:xlink="http://www.w3.org/1999/xlink" width="84" height="47" viewBox="0 0 84 47">
  <defs>
    <clipPath id="clip-path">
      <rect width="42" height="84" fill="none"/>
    </clipPath>
    <clipPath id="clip-ic-add-badge">
      <rect width="84" height="47"/>
    </clipPath>
  </defs>
  <g id="ic-add-badge" clip-path="url(#clip-ic-add-badge)">
    <g id="bookmark" transform="translate(84 -3.5) rotate(90)">
      <g id="Repeat_Grid_1" data-name="Repeat Grid 1" transform="translate(3.5)" clip-path="url(#clip-path)">
        <g transform="translate(-3.5)">
          <path id="Path_1" data-name="Path 1" d="M8.589,0A5.09,5.09,0,0,0,3.5,5.089V84l18-12,18,12V6a6.018,6.018,0,0,1,6-6Z" fill="#68b800"/>
        </g>
      </g>
      <path id="Path_2" data-name="Path 2" d="M45.41,0A6.015,6.015,0,0,0,39.5,6V23h11V5.135A5.132,5.132,0,0,0,45.41,0Z" fill="#467b01"/>
    </g>
  </g>
</svg>
