<svg xmlns="http://www.w3.org/2000/svg" width="17.264" height="17.273" viewBox="0 0 17.264 17.273">
    <defs>
        <style>
            .prefix__cls-1{fill:#879091}
        </style>
    </defs>
    <g id="prefix___1006767" data-name="1006767" transform="translate(-.126)">
        <g id="prefix__Group_3440" data-name="Group 3440" transform="translate(.126)">
            <g id="prefix__Group_3439" data-name="Group 3439">
                <path id="prefix__Path_8852" d="M16.792 1.282h-7.54V.506a.506.506 0 1 0-1.012 0v.776H.724a.6.6 0 0 0-.6.6v1.562a.6.6 0 0 0 .6.6h.307v7.964a1.52 1.52 0 0 0 1.518 1.518H8.24v1L6.693 16.45a.506.506 0 1 0 .789.634l1.264-1.573 1.264 1.573a.506.506 0 1 0 .789-.634l-1.547-1.925v-1h5.69a1.52 1.52 0 0 0 1.518-1.518V4.043h.332a.6.6 0 0 0 .6-.6V1.88a.6.6 0 0 0-.6-.598zm-1.344 10.724a.506.506 0 0 1-.506.506H2.549a.506.506 0 0 1-.506-.506V4.043h13.4v7.964zm.93-8.976H1.138v-.736h15.24z" class="prefix__cls-1" data-name="Path 8852" transform="translate(-.126)"/>
            </g>
        </g>
        <g id="prefix__Group_3442" data-name="Group 3442" transform="translate(3.561 5.836)">
            <g id="prefix__Group_3441" data-name="Group 3441">
                <path id="prefix__Path_8853" d="M105.011 176.468l-.986-3.217a.34.34 0 0 0-.192-.2.874.874 0 0 0-.691 0 .34.34 0 0 0-.192.2l-.981 3.217a.288.288 0 0 0-.011.058.283.283 0 0 0 .171.237.7.7 0 0 0 .356.1q.227 0 .269-.153l.179-.659h1.113l.179.659q.042.153.269.153a.7.7 0 0 0 .356-.1.234.234 0 0 0 .161-.3zm-1.909-1.05l.385-1.413.385 1.413z" class="prefix__cls-1" data-name="Path 8853" transform="translate(-101.957 -172.977)"/>
            </g>
        </g>
        <g id="prefix__Group_3444" data-name="Group 3444" transform="translate(7.649 7.554)">
            <g id="prefix__Group_3443" data-name="Group 3443">
                <path id="prefix__Path_8854" d="M225.571 225.971a.857.857 0 0 0-.406-.287.806.806 0 0 0 .448-.828q0-.939-1.055-.939h-1.081a.468.468 0 0 0-.253.066.209.209 0 0 0-.106.187v3.354a.214.214 0 0 0 .1.174.422.422 0 0 0 .261.074h1.171a1.079 1.079 0 0 0 .773-.272 1.139 1.139 0 0 0 .287-.862v-.111a.938.938 0 0 0-.139-.556zm-1.635-1.337h.554a.256.256 0 0 1 .221.111.433.433 0 0 1 .079.258.421.421 0 0 1-.079.256.259.259 0 0 1-.221.108h-.554zm.949 1.936q0 .485-.422.485h-.527V226h.527q.422 0 .422.485v.084z" class="prefix__cls-1" data-name="Path 8854" transform="translate(-223.119 -223.917)"/>
            </g>
        </g>
        <g id="prefix__Group_3446" data-name="Group 3446" transform="translate(11.004 5.192)">
            <g id="prefix__Group_3445" data-name="Group 3445">
                <path id="prefix__Path_8855" d="M325.051 156.387a.5.5 0 0 0-.322-.082q-.385 0-.406.248a1.71 1.71 0 0 1-.024.174.883.883 0 0 1-.055.161.281.281 0 0 1-.14.145.56.56 0 0 1-.245.047q-.48 0-.48-.527v-1.4q0-.527.475-.527a.426.426 0 0 1 .469.475q.016.248.411.248a.484.484 0 0 0 .316-.082.4.4 0 0 0 .095-.309.91.91 0 0 0-.372-.77 1.541 1.541 0 0 0-.952-.28 1.357 1.357 0 0 0-.915.3 1.177 1.177 0 0 0-.351.944v1.4a1.178 1.178 0 0 0 .351.944 1.357 1.357 0 0 0 .915.3 1.483 1.483 0 0 0 .952-.3.975.975 0 0 0 .372-.807.4.4 0 0 0-.094-.302z" class="prefix__cls-1" data-name="Path 8855" transform="translate(-322.556 -153.911)"/>
            </g>
        </g>
    </g>
</svg>
