<svg xmlns="http://www.w3.org/2000/svg" width="17.92" height="18.948" viewBox="0 0 17.92 18.948">
  <g id="Group_2409" data-name="Group 2409" transform="translate(-1.301 -44.398)">
    <path id="Icon_material-live-tv" data-name="Icon material-live-tv" d="M17.791,6.258H3.129A1.629,1.629,0,0,0,1.5,7.887v9.775a1.634,1.634,0,0,0,1.629,1.629H17.791a1.634,1.634,0,0,0,1.629-1.629V7.887A1.629,1.629,0,0,0,17.791,6.258Zm0,11.4H3.129V7.887H17.791Z" transform="translate(-0.199 44.055)" fill="#fff"/>
    <ellipse id="Ellipse_488" data-name="Ellipse 488" cx="1.407" cy="1.407" rx="1.407" ry="1.407" transform="translate(8.676 48.653)" fill="#fff"/>
    <path id="Path_8424" data-name="Path 8424" d="M48.669,39.854a.319.319,0,0,1,.017-.412,3.613,3.613,0,0,1,5.129,0,.3.3,0,0,1-.429.429,3.018,3.018,0,0,0-4.288,0A.3.3,0,0,1,48.669,39.854Z" transform="translate(-41.16 7.967)" fill="#fff"/>
    <path id="Path_8425" data-name="Path 8425" d="M40.772,29.4a.3.3,0,0,1,0-.429,5.736,5.736,0,0,1,7.992,0,.3.3,0,0,1,0,.429.311.311,0,0,1-.438,0,5.134,5.134,0,0,0-7.133,0A.317.317,0,0,1,40.772,29.4Z" transform="translate(-34.685 17.048)" fill="#fff"/>
    <path id="Path_8426" data-name="Path 8426" d="M34.1,77.327V74.6h.562v2.267h1.38v.46Z" transform="translate(-28.996 -18.979)" fill="#fff"/>
    <path id="Path_8427" data-name="Path 8427" d="M51.9,77.244V74.5h.562v2.744Z" transform="translate(-43.708 -18.896)" fill="#fff"/>
    <path id="Path_8428" data-name="Path 8428" d="M61.688,77.244,60.7,74.5h.6l.7,2.028L62.66,74.5h.6l-.971,2.744Z" transform="translate(-50.96 -18.896)" fill="#fff"/>
    <path id="Path_8429" data-name="Path 8429" d="M81.6,77.244V74.5h2.045v.46H82.162v.613h1.38v.46h-1.38v.75H83.7v.46Z" transform="translate(-68.229 -18.896)" fill="#fff"/>
  </g>
</svg>
