<?xml version="1.0" encoding="utf-8"?>
<!-- Generator: Adobe Illustrator 15.0.0, SVG Export Plug-In . SVG Version: 6.00 Build 0)  -->
<!DOCTYPE svg PUBLIC "-//W3C//DTD SVG 1.1//EN" "http://www.w3.org/Graphics/SVG/1.1/DTD/svg11.dtd">
<svg version="1.1" id="Layer_1" xmlns="http://www.w3.org/2000/svg" xmlns:xlink="http://www.w3.org/1999/xlink" x="0px" y="0px"
	 width="439px" height="269px" viewBox="0 0 439 269" enable-background="new 0 0 439 269" xml:space="preserve">
<g>
	<defs>
		<rect id="SVGID_1_" width="439" height="269"/>
	</defs>
	<clipPath id="SVGID_2_">
		<use xlink:href="#SVGID_1_"  overflow="visible"/>
	</clipPath>
	<g id="iPad_1" clip-path="url(#SVGID_2_)">
		<g id="wallet_1_" transform="translate(84.319)">
			<path id="Path_37" fill="#52AAE1" d="M267.818,125.234h-12.9V65.9c-0.014-14.243-11.557-25.786-25.799-25.8h-17.466
				L193.776,7.961c-4.151-7.473-13.574-10.165-21.047-6.013c-0.001,0-0.003,0.001-0.004,0.002l-68.61,38.15H27.478
				c-14.243,0.014-25.786,11.557-25.8,25.8v177.138c0.014,14.243,11.557,25.786,25.8,25.8h201.645
				c14.244-0.014,25.786-11.557,25.801-25.8v-52.022h12.9L267.818,125.234z M229.119,50.422c7.859,0.024,14.449,5.947,15.308,13.76
				H225.04l-7.646-13.76H229.119z M177.745,10.969c2.494-1.326,5.592-0.442,7.012,2l28.479,51.207H82.054L177.745,10.969z
				 M244.6,243.038c-0.012,8.544-6.935,15.468-15.479,15.479H27.478c-8.543-0.013-15.466-6.936-15.478-15.479V65.9
				c0.012-8.543,6.935-15.466,15.478-15.478h58.084L60.818,64.183H30.7c-2.85,0.04-5.127,2.382-5.088,5.231
				c0.039,2.794,2.294,5.049,5.088,5.088h213.9v50.737H206.87c-17.544,0.021-31.761,14.238-31.782,31.782v2.219
				c0.021,17.543,14.238,31.76,31.782,31.781H244.6V243.038L244.6,243.038z M257.499,180.7H206.87
				c-11.849-0.013-21.451-9.614-21.463-21.463v-2.22c0.012-11.848,9.614-21.45,21.463-21.463h50.629V180.7z M222.674,158.551
				c0,6.292-5.101,11.393-11.392,11.393c-6.292,0-11.393-5.101-11.393-11.393c0-6.291,5.101-11.392,11.393-11.392l0,0
				c6.289-0.002,11.389,5.096,11.391,11.385c0,0.002,0,0.003,0,0.005L222.674,158.551z"/>
		</g>
	</g>
</g>
</svg>
