<svg xmlns="http://www.w3.org/2000/svg" width="36" height="30.597" viewBox="0 0 36 30.597">
  <g id="inbox" transform="translate(0 -31.368)">
    <g id="Group_30" data-name="Group 30" transform="translate(0 31.368)">
      <path id="Path_22" data-name="Path 22" d="M35.954,48.511l-5.624-14.8A3.555,3.555,0,0,0,27,31.368H9a3.554,3.554,0,0,0-3.33,2.34L.047,48.511A.763.763,0,0,0,0,48.826V58.32a3.645,3.645,0,0,0,3.6,3.645H32.4A3.645,3.645,0,0,0,36,58.32V48.826A.765.765,0,0,0,35.954,48.511ZM7.336,34.338A1.845,1.845,0,0,1,9,33.168H27a1.845,1.845,0,0,1,1.665,1.17l5.175,13.679H29.7V41.942c0-.495-.36-.675-.855-.675H27V36.542c0-.495-.36-.675-.855-.675H9.856c-.495,0-.855.18-.855.675v4.725H7.606c-.495,0-.855.18-.855.675v6.074H2.162Zm17.908,8.729H27.9v4.949H24.03a.9.9,0,0,0-.9.72,5.215,5.215,0,0,1-10.259,0,.9.9,0,0,0-.9-.72H8.551V43.067H25.245ZM10.8,41.267v-3.6H25.2v3.6ZM34.2,58.32a1.845,1.845,0,0,1-1.8,1.845H3.6A1.845,1.845,0,0,1,1.8,58.32v-8.5H11.3a7,7,0,0,0,13.409,0H34.2v8.5Z" transform="translate(0 -31.368)" fill="#5d3195"/>
    </g>
  </g>
</svg>
