<svg xmlns="http://www.w3.org/2000/svg" xmlns:xlink="http://www.w3.org/1999/xlink" width="1330" height="253" viewBox="0 0 1330 253">
  <defs>
    <clipPath id="clip-path">
      <rect id="Rectangle_332" data-name="Rectangle 332" width="103" height="76" transform="translate(0 0)"/>
    </clipPath>
    <clipPath id="clip-Web_1920_1">
      <rect width="1330" height="253"/>
    </clipPath>
  </defs>
  <g id="Web_1920_1" data-name="Web 1920 – 1" clip-path="url(#clip-Web_1920_1)">
    <g id="Group_1" data-name="Group 1" transform="translate(-404 -1672)">
      <path id="Path_544" data-name="Path 544" d="M25.585-82.775c0-37.2,14.405-72.67,52.245-72.67h3.225c12.47,0,24.295,4.945,34.4,13.33L124.7-150.5c-13.33-10.965-28.165-16.985-43.645-16.985H77.83c-46.655,0-64.93,40.635-64.93,84.71S31.175,2.15,77.83,2.15h3.225c15.48,0,30.315-6.02,43.645-16.985l-9.245-8.385c-10.105,8.385-21.93,13.33-34.4,13.33H77.83C39.99-9.89,25.585-45.365,25.585-82.775ZM154.8,0h11.825V-165.335H154.8Zm84.065-116.96c-12.9,0-26.015,3.87-38.7,13.33l7.1,9.03c12.47-8.6,22.36-10.965,31.605-10.965,24.08,0,27.95,16.125,28.6,38.055a60.975,60.975,0,0,0-30.315-8.17c-29.885,0-42.57,22.36-42.57,39.56,0,19.35,10.535,37.41,40.42,37.41,15.91,0,28.6-12.685,32.465-22.79V0h11.825V-59.985C279.285-83.85,278.64-116.96,238.865-116.96ZM235-10.105c-22.145,0-28.38-13.975-28.38-26.23,0-10.965,7.955-27.735,30.53-27.735,16.77,0,27.09,4.515,30.315,6.235C267.46-27.305,252.2-10.105,235-10.105Zm108.36,11.4c19.565,0,40.85-8.815,40.85-32.035,0-23-23.005-29.885-40.635-34.185-11.4-2.8-25.155-8.17-25.155-22.36,0-9.89,9.03-18.275,26.23-18.275,10.75,0,24.3,4.515,28.6,6.45l4.085-10.75c-5.59-2.58-20.64-7.1-32.68-7.1-18.92,0-38.485,9.03-38.485,29.67,0,20.425,17.415,29.67,35.475,33.755,14.19,3.225,30.53,8.815,30.53,22.79,0,14.405-14.62,20.64-28.81,20.64-12.685,0-24.94-5.59-33.755-10.32L305.085-9.46C313.04-5.16,325.51.86,343.355,1.29Zm104.92,0c19.565,0,40.85-8.815,40.85-32.035,0-23-23.005-29.885-40.635-34.185-11.4-2.8-25.155-8.17-25.155-22.36,0-9.89,9.03-18.275,26.23-18.275,10.75,0,24.3,4.515,28.6,6.45l4.085-10.75c-5.59-2.58-20.64-7.1-32.68-7.1-18.92,0-38.485,9.03-38.485,29.67,0,20.425,17.415,29.67,35.475,33.755,14.19,3.225,30.53,8.815,30.53,22.79,0,14.405-14.62,20.64-28.81,20.64-12.685,0-24.94-5.59-33.755-10.32L410-9.46C417.96-5.16,430.43.86,448.275,1.29ZM577.06-112.015a45.5,45.5,0,0,0-21.07-4.945,49.384,49.384,0,0,0-41.065,21.07V0H526.75V-92.88s9.46-12.685,29.24-12.685a31.8,31.8,0,0,1,15.91,4.085Z" transform="translate(793 1885)"/>
      <path id="Path_543" data-name="Path 543" d="M.924-7.035A2.269,2.269,0,0,1,1.683-8.8a2.778,2.778,0,0,1,1.935-.686H17.682a12.538,12.538,0,0,1,5.9,1.347A9.688,9.688,0,0,1,27.58-4.316,11.258,11.258,0,0,1,29,1.393a11.654,11.654,0,0,1-1.4,5.782,9.489,9.489,0,0,1-3.969,3.846,12.647,12.647,0,0,1-5.953,1.347H6.216v8.722a3.7,3.7,0,0,1-1.372,3.087,6.222,6.222,0,0,1-3.92,1.078Zm16.758,14.8a5.878,5.878,0,0,0,4.459-1.69,6.492,6.492,0,0,0,1.617-4.679,6.3,6.3,0,0,0-1.641-4.581,5.9,5.9,0,0,0-4.434-1.69H6.216V7.763ZM34.293-5.761a3.7,3.7,0,0,1,1.372-3.087,6.222,6.222,0,0,1,3.92-1.078V5.215H56.049V-5.761A3.709,3.709,0,0,1,57.4-8.873a6.217,6.217,0,0,1,3.9-1.053V21.091a3.723,3.723,0,0,1-1.347,3.087,6.114,6.114,0,0,1-3.9,1.078V9.821H39.585v11.27a3.7,3.7,0,0,1-1.372,3.087,6.222,6.222,0,0,1-3.92,1.078ZM80.94,25.256a16.464,16.464,0,0,1-7.325-1.592,12.528,12.528,0,0,1-5.1-4.385A11,11,0,0,1,66.682,13.1V2.128A10.765,10.765,0,0,1,68.519-4a12.669,12.669,0,0,1,5.1-4.336,17.645,17.645,0,0,1,14.651,0A12.854,12.854,0,0,1,93.386-4a10.664,10.664,0,0,1,1.862,6.125V13.1a10.893,10.893,0,0,1-1.862,6.174,12.708,12.708,0,0,1-5.12,4.385A16.464,16.464,0,0,1,80.94,25.256Zm0-4.606a10.017,10.017,0,0,0,6.688-2.058,6.889,6.889,0,0,0,2.425-5.537V2.226a6.889,6.889,0,0,0-2.425-5.537A10.017,10.017,0,0,0,80.94-5.369a10.017,10.017,0,0,0-6.688,2.058,6.889,6.889,0,0,0-2.425,5.537V13.055a6.889,6.889,0,0,0,2.425,5.537A10.017,10.017,0,0,0,80.94,20.65Zm19.6-27.685a2.258,2.258,0,0,1,.784-1.739,2.743,2.743,0,0,1,1.911-.71h21.756a5.4,5.4,0,0,1-.906,3.454,3.437,3.437,0,0,1-2.817,1.1H105.832V5.215h13.475a5.507,5.507,0,0,1-.882,3.454,3.364,3.364,0,0,1-2.793,1.1h-9.8V20.258H122.3a3.376,3.376,0,0,1,2.768,1.1,5.4,5.4,0,0,1,.906,3.454H103.235a2.743,2.743,0,0,1-1.911-.711,2.258,2.258,0,0,1-.784-1.739Zm30.723,1.47a4.046,4.046,0,0,1,1.323-3.185,5.189,5.189,0,0,1,3.577-1.176l18.228,27.881.392-.294-1.617-2.695V-9.926a6.108,6.108,0,0,1,3.871,1.053,3.739,3.739,0,0,1,1.323,3.111v27.1a3.61,3.61,0,0,1-1.25,2.793,4.407,4.407,0,0,1-3.062,1.127L135.232-3.556l-.392.343,1.617,2.695V21.091q0,4.165-5.194,4.165Zm34.545-.2a3.7,3.7,0,0,1,1.372-3.087,6.222,6.222,0,0,1,3.92-1.078V21.091a3.7,3.7,0,0,1-1.372,3.087,6.222,6.222,0,0,1-3.92,1.078Zm14.553,31.017a3.907,3.907,0,0,1-2.94-1.225l12-16.9L178.009-8.946a3.923,3.923,0,0,1,2.744-.98,5.193,5.193,0,0,1,2.156.441,3.53,3.53,0,0,1,1.47,1.127l7.693,11.172L190.847,4.48l.392.294,9.114-13.132A3.229,3.229,0,0,1,201.8-9.509a5.28,5.28,0,0,1,2.132-.417,4.585,4.585,0,0,1,1.543.269,3.685,3.685,0,0,1,1.249.71L195.257,7.126l12.054,16.9a3.907,3.907,0,0,1-2.94,1.225,3.96,3.96,0,0,1-1.837-.441,3.746,3.746,0,0,1-1.4-1.225L192.366,11,183.595,23.59a4.245,4.245,0,0,1-1.421,1.225A3.815,3.815,0,0,1,180.361,25.256Z" transform="translate(1518.076 1713.583)" fill="#747474"/>
      <g id="blackboard_2_" data-name="blackboard (2)" transform="translate(406.663 1645.999)">
        <path id="Path_491" data-name="Path 491" d="M337.108,43.772a1.954,1.954,0,0,0-1.376-1.928,14.65,14.65,0,0,0-9.764,1.07c-46.624-1.7-263.921-10.684-315.917-11.306-2.555-.03-2.512,3.782,0,3.941,105.585,6.685,211.647,8.4,317.362,12.517a2.162,2.162,0,0,0,2.033-1.055,13.157,13.157,0,0,0,2.448-.124c.283,0,.564-.025.845-.037-1.018,73.932-3.139,147.994-2.143,221.929a2.393,2.393,0,0,0-1.227-.294c-20.416.6-40.781.189-61.13-.613-.285-.5-.552-1-.838-1.5-.526-.913-1.815-.112-1.389.812.094.2.195.4.288.6-32.392-1.316-64.748-3.567-97.207-4.272-54.083-1.175-107.019,2.349-160.993-3.53.089-2.241.14-4.491.222-6.734q9.35-.4,18.667-1.312a.906.906,0,0,0,.8-.727c96.246,6.92,194.792,8.2,291.056,2.058,1.638-.105,1.671-2.606,0-2.574-.731.014-1.461.023-2.193.037a.649.649,0,0,0,.345-.574c-1.487-63.97-3.324-126.77,4.194-190.523.265-2.258-3.275-2.238-3.538,0-7.424,62.846-11.3,127.845-2.157,190.726a.574.574,0,0,0,.249.386c-10.046.192-30.1.5-30.1.5l-50.054.549s-141.176-.264-212.125-2.986c-.939-.036-1.174.9-.829,1.543-4.757.275-9.506.634-14.247,1.113.1-2.755.154-5.521.242-8.279a37.732,37.732,0,0,0,10.912-1.334c.942-.268.519-1.546-.392-1.422a80.842,80.842,0,0,1-10.461.732c.137-4.464.153-8.953.264-13.421a14.509,14.509,0,0,0,3.975-.963.751.751,0,0,0-.4-1.448c-1.2.228-2.368.379-3.538.521.114-4.806.124-9.63.212-14.441,1.794.087,3.589.169,5.38.138a.912.912,0,0,0,0-1.823c-1.782-.03-3.57.05-5.357.137.066-3.8.062-7.618.114-11.424,1.844-.3,3.693-.577,5.524-.956.946-.2.751-1.833-.231-1.712-1.768.219-3.52.538-5.274.828.075-5.879.072-11.766.115-17.647,2.122-.115,4.248-.28,6.324-.571,1-.141.764-1.812-.239-1.765-2.011.1-4.047.329-6.073.6.022-3.266.006-6.533.019-9.8a26.269,26.269,0,0,1,5.07-.587.956.956,0,0,0,.254-1.869A8.361,8.361,0,0,0,9.5,165c.019-5.667-.071-11.329-.076-17a41.613,41.613,0,0,0,5.15-.164,1.06,1.06,0,0,0,0-2.118,41.79,41.79,0,0,0-5.162-.164c-.006-4.22-.069-8.434-.087-12.654a12.361,12.361,0,0,0,5.913-1.154c1.247-.606.365-2.562-.93-2.2a20.461,20.461,0,0,1-5,.764c-.009-2.177-.043-4.35-.055-6.529a18.348,18.348,0,0,1,6.266-.848.9.9,0,0,0,.238-1.765,9.145,9.145,0,0,0-6.522.467c-.061-10.692-.179-21.37-.294-32.05,1.882.039,3.765.055,5.632-.066a.885.885,0,0,0,0-1.769c-1.874-.121-3.762-.105-5.651-.065-.039-3.455-.124-6.891-.167-10.344a24.084,24.084,0,0,0,7.068-.975.9.9,0,0,0-.477-1.732,33.4,33.4,0,0,1-6.624.679c-.058-4.422-.154-8.827-.215-13.248,2.959-.17,5.913-.187,8.917-.081,1,.035,1.272-1.622.242-1.791a33.661,33.661,0,0,0-9.191-.1c-.071-4.861-.161-9.71-.238-14.566a.94.94,0,0,0,.616.275c11.434.371,22.88.291,34.316.053a1.073,1.073,0,0,0,0-2.144c-11.434-.238-22.883-.317-34.316.053a.947.947,0,0,0-.64.287c-.055-3.445-.088-6.9-.167-10.335a1.207,1.207,0,0,0-2.412,0c-.232,8.933-.408,17.911-.6,26.878-.411.075-.823.13-1.233.212-1.061.215-.6,1.768.441,1.6.252-.04.5-.026.751-.061-.091,4.327-.2,8.638-.288,12.967a.882.882,0,0,0-.035,1.58C4.6,80.606,4.5,84.3,4.428,88.023A.935.935,0,0,0,4.4,89.194q-.508,28.3-.712,56.666a1,1,0,0,0-.007,1.817c-.157,26.121-.11,52.244.435,78.276-.326-.026-.637.027-.968-.016-.92-.12-1.146,1.49-.221,1.632.4.063.812.089,1.217.136.1,4.564.1,9.146.229,13.7a1,1,0,0,0,.04,1.285c.179,6.281.343,12.565.58,18.831a1.505,1.505,0,0,0,2.412,1.158c.107.063.149.185.281.219,21.321,5.6,65.486,7.424,65.486,7.424l20.965-.274s46.746-2.022,69.609-1.621c29.116.51,87.223,3.851,87.223,3.851l20.233.887s38.748,1.071,58.166.407a2.361,2.361,0,0,0,2.068-1.263,1.5,1.5,0,0,0,2.254-1.241c3.09-75.213,2.882-150.653,3.874-225.92A2.161,2.161,0,0,0,337.108,43.772Zm-55.651,207.54-43.2.464Z" transform="translate(0 0)"/>
        <path id="Path_492" data-name="Path 492" d="M308.622,33.646c-25.374,7.169-46.378.835-71.4.969-21.427.114-40.879.952-62.639-.666C123.145,30.125,71.47,27.58,19.878,28.17a1.069,1.069,0,0,0-1.032,1.377A1.749,1.749,0,0,0,16.956,31.2c-3.69,63.547-8.288,130.2-.368,193.539a.778.778,0,0,0,1.554,0C20.62,160.279,16.8,95.783,20.414,31.2a1.689,1.689,0,0,0-.105-.715c55.2,1.213,110.263,2.691,165.3,7.339,22.453,1.9,44.912.105,67.117,2.1,20.43,1.833,36.784,3.182,56.867-2.735C311.861,36.521,310.906,33,308.622,33.646Z" transform="translate(4.373 23.515)"/>
        <path id="Path_500" data-name="Path 500" d="M11.492,62.565c-1.24-.44-2.515-.721-3.791-1.035a.349.349,0,0,0-.185.672c1.275.326,2.532.681,3.833.88A.268.268,0,0,0,11.492,62.565Z" transform="translate(2.179 38.289)"/>
        <g id="Group_396" data-name="Group 396" transform="translate(64.106 107.48)">
          <g id="Group_68" data-name="Group 68" transform="translate(-11 15)">
            <path id="Path_549" data-name="Path 549" d="M16.72-52.16q-.16,0-.12.2t.2.2a.535.535,0,0,1-.72-.08q-.4,0-.36.24t-.52.24v-.32h-.08a.23.23,0,0,1-.16-.08l-.64.48a6.162,6.162,0,0,1,.08,1.24,6.161,6.161,0,0,1-.08,1.24,1.854,1.854,0,0,1-.04.36.229.229,0,0,0,.12.28q0,1.84-.04,3.64t-.2,3.56a2.2,2.2,0,0,0-.12.68,2.2,2.2,0,0,1-.12.68.23.23,0,0,0-.16.08.23.23,0,0,0-.08.16,2.789,2.789,0,0,0,.12.48,2.363,2.363,0,0,1,.12.64,6,6,0,0,1-.2,1.44,5.764,5.764,0,0,0-.2,1.36,4.244,4.244,0,0,0,.04.48.326.326,0,0,0,.36.32,1.991,1.991,0,0,0,.88-.24,2.454,2.454,0,0,0,.04.32.4.4,0,0,0,.2.32.827.827,0,0,0,.8-.48.827.827,0,0,1,.8-.48.807.807,0,0,1,.52.16.807.807,0,0,0,.52.16,3.307,3.307,0,0,0,.44-.04q.28-.04.12-.44h1.12q-.08.4.08.44a1.315,1.315,0,0,0,.32.04,1.151,1.151,0,0,0,.84-.36q.36-.36.52-.36l.16.16a.326.326,0,0,0,.24.08q.08,0,.24-.16t.16-.24l2.16.08a7.089,7.089,0,0,1,.92.16,1.618,1.618,0,0,0,1.16-.08,1.428,1.428,0,0,0-.12.36.7.7,0,0,1-.2.36q.64,0,.48.2a.6.6,0,0,0-.16.36,4.322,4.322,0,0,0,1.28-.32q.88-.32,1.04-.72.16,0,.28.28a1.3,1.3,0,0,1,.12.36,1.891,1.891,0,0,1-.28.96,3.5,3.5,0,0,1-.44.64.716.716,0,0,1,.4.48.477.477,0,0,1-.08.48A1.846,1.846,0,0,1,29-32.4a1.2,1.2,0,0,0,.52-.32v.32l.4-.4a.348.348,0,0,1,.48-.08l.24.16a.889.889,0,0,0-.48.72.661.661,0,0,0,.32.6,1,1,0,0,1,.4.76q.32-.56.48-.44t.56-.28a1.716,1.716,0,0,1-.32.4l-.32.32a1.442,1.442,0,0,1-.48.2q-.4.12-.4.2.08,0-.16.24a.614.614,0,0,0-.08.24.212.212,0,0,1-.24.24q.16-.56-.16-.72a1.422,1.422,0,0,0-.12.4.612.612,0,0,1-.12.32q0,.4-.32.4a1.663,1.663,0,0,1-.72-.28q-.48-.28-.64-.36v1.04l-.08-.08-.24-.08a4.2,4.2,0,0,1-1.44-.88l-1.36,1.2a1.313,1.313,0,0,0-.4-.2,1.714,1.714,0,0,0-.4-.12,1.064,1.064,0,0,0-.48.2q-.32.2-.48.28-1.12.08-2.88.16T16.96-28q-.08.08-.52.04T15.92-28a1.373,1.373,0,0,0-.4.4q-.24.32-.32.32l-.88.48-.16-.48q0,.4-.16.44a1.315,1.315,0,0,1-.32.04,1.315,1.315,0,0,0-.32.04q-.16.04-.16.36v2.48l-.16.24v2.88l-.24.48v2.64l-.4.48q.32.16.36.32a1.683,1.683,0,0,1,.04.4,9.98,9.98,0,0,1-.2,1.96,10.8,10.8,0,0,0-.2,2.12.614.614,0,0,0,.08.24.614.614,0,0,1,.08.24h-.64q.08.64.48.72t.4.64a3.193,3.193,0,0,1-.12.84,3.481,3.481,0,0,0-.12.92v.56A.865.865,0,0,0,13.2-8a1.541,1.541,0,0,0,1.2-.44,2.028,2.028,0,0,1,1.52-.44v.64a1.207,1.207,0,0,0,.84-.48,2.423,2.423,0,0,1,.84-.64l1.92-.72q.16,0,.56.04t.48-.04a2.075,2.075,0,0,0,1-.36q.6-.36.76-.44,2.8-.8,5.72-1.48t5.52-1.16q2.6-.48,4.64-.76a24.917,24.917,0,0,1,3.16-.28q.32,0,1.12.04t1.04.04a.523.523,0,0,1,.24.24,1.253,1.253,0,0,0,.24.32.917.917,0,0,0,.28-.08q.2-.08.36-.16v.56h.32q.16,0,.16.4a1.854,1.854,0,0,0-.36.04.374.374,0,0,0-.28.2,4.2,4.2,0,0,1,.64.4.955.955,0,0,0-.64.84.971.971,0,0,1-.48.84v-.56h-.64a.486.486,0,0,0,.12.24.287.287,0,0,1,.04.32,1.782,1.782,0,0,0-.44.16q-.36.16-.36.24a1.1,1.1,0,0,0-.24.56q-.08.4-.4.4a.439.439,0,0,1-.44-.28.5.5,0,0,0-.52-.28.691.691,0,0,1,.24.48,3.953,3.953,0,0,1-.04.68q-.04.2-.44.2A2.688,2.688,0,0,1,40.12-9q-.6-.28-.6-.44a1.289,1.289,0,0,0-.56-.16,5.848,5.848,0,0,0-.72.04,2.96,2.96,0,0,0-.72.2.62.62,0,0,1-.4.84,7.049,7.049,0,0,1-.96.28L35.92-8l-.24.08a.23.23,0,0,1-.16.08q-.08,0-.32-.24-.32.32-.48.32a3.468,3.468,0,0,1-.52-.12A3.468,3.468,0,0,0,33.68-8h-.32a2.957,2.957,0,0,0-1.4.36,2.815,2.815,0,0,1-1.32.36l-.48-.32a.519.519,0,0,0-.44.16,1.4,1.4,0,0,0-.2.4,1,1,0,0,1-.24.4.652.652,0,0,1-.48.16.246.246,0,0,1-.28-.2q-.04-.2-.52-.2a.534.534,0,0,1,.32.44,1.134,1.134,0,0,1,0,.6q-.8,0-.8-.64l-.4.56-.16-.32-.88.72-.24.16a.23.23,0,0,1-.16.08.346.346,0,0,1-.28-.16.287.287,0,0,1-.04-.32,1.91,1.91,0,0,1-1.04.52,2.142,2.142,0,0,0-1.04.44h-.32l-.4-.32a1.764,1.764,0,0,1-1.12.28q-.64-.04-.64.92h-.08a.314.314,0,0,1-.32-.24.917.917,0,0,0-.28.08.983.983,0,0,1-.36.08l-.24-.16a1.708,1.708,0,0,1-.96.8q-.56.16-1.2.32l-.08.08a.23.23,0,0,1-.16.08l-.72.24q-.64.24-1.48.48t-1.56.44a7.325,7.325,0,0,1-.8.2q.24.08.24.48a1.79,1.79,0,0,1-.64,1.2l-.24-.32a.314.314,0,0,0,.24-.32V-1.52l-.64.64a.23.23,0,0,1-.16.08q-.16,0-.2-.2a.229.229,0,0,1,.12-.28h-.64v.72Q10.4-.8,10.32-.8q-.16,0-.36.24a.7.7,0,0,0-.2.4q0,.32.24.32h.4a.823.823,0,0,1-.72.48,6.941,6.941,0,0,1-.96.08H8.4q-.16,0-1-.08T6.32.56Q6.64.4,6.56.24a3.914,3.914,0,0,0-.24-.4.532.532,0,0,0,.04.28q.04.04-.2.2Q5.84-.24,5.44.16a8.107,8.107,0,0,0-1.4-.88A2.584,2.584,0,0,1,2.8-1.92a3.446,3.446,0,0,1-.16-.76,1.362,1.362,0,0,0-.24-.6l.8-.88a1.705,1.705,0,0,1-.16-.88q0-.72.88-.72a3.761,3.761,0,0,0-.72.96l.48-.24A1.038,1.038,0,0,0,4.2-5.4a1.529,1.529,0,0,0,.04-.84.194.194,0,0,0,.12-.24.189.189,0,0,0-.2-.16q-.24,0-.24.16v-.4H3.44l.16-.16q.16-.16.16-.24l-.24-.24a1.254,1.254,0,0,0-.32-.24,1.247,1.247,0,0,0,.4-.2,5.481,5.481,0,0,1,.68-.36,4.076,4.076,0,0,0,.6-.32l.32-.24v-1.6l-.4-.16a.614.614,0,0,1,.08-.24.614.614,0,0,0,.08-.24.71.71,0,0,1-.08-.32A1.373,1.373,0,0,1,4.8-12a1.737,1.737,0,0,0,.52-.72q.04-.24.08-.4a.99.99,0,0,1,.2-.36,5.282,5.282,0,0,1,.8-.68,1.939,1.939,0,0,1,.28-.24q.12-.08.04-.48a2.978,2.978,0,0,1-1.92.64.987.987,0,0,1-.56-.24,4.677,4.677,0,0,1-.48-.4,5.675,5.675,0,0,1,.32-.52,3.933,3.933,0,0,1,.48-.6,2.339,2.339,0,0,0-.24-.2.648.648,0,0,0-.4-.12.931.931,0,0,0-.24.16.23.23,0,0,1-.16.08L3.44-16q-.16-.32.2-1.08t.28-.76q-.16,0-.16-.24t.16-.24q.16,0,.16.32l.88-1.04-.4-.4a.566.566,0,0,1-.64.64q.16-.4-.04-.4t-.2-.32a3.171,3.171,0,0,1,.28-1.28,3.171,3.171,0,0,0,.28-1.28l.32-.24a.23.23,0,0,1-.08-.16.463.463,0,0,1-.08-.32l.16-.24-.16-.48a1.026,1.026,0,0,1,.36-.8,1.026,1.026,0,0,0,.36-.8.833.833,0,0,1-.48-.08.833.833,0,0,1-.08-.48l.16.08.08.08.16-.4-.16-.64a.543.543,0,0,0,.4.16q.16,0,.4-.44t.48-1q.24-.56.44-1.04a2.194,2.194,0,0,0,.2-.64A4.835,4.835,0,0,0,5.64-28.4q-.52.72-.84,1.12a3.442,3.442,0,0,1,.08-.64,3.992,3.992,0,0,0,.08-.48l.24-.16.16-.32a.614.614,0,0,0,.08-.24l-.16-.16a.326.326,0,0,1-.08-.24,3.051,3.051,0,0,1,.56-1.6,3.051,3.051,0,0,0,.56-1.6.389.389,0,0,0-.08-.2.389.389,0,0,1-.08-.2l-.56.4a1.024,1.024,0,0,1-.4-.64,2.618,2.618,0,0,0,.64-.16q.48-.16.48-.48a.966.966,0,0,0-.32.12.943.943,0,0,1-.4.12H5.2q.4-.16.24-.44t.16-.44a.37.37,0,0,1-.24-.4v-.4a1.315,1.315,0,0,1,.04-.32A1.094,1.094,0,0,0,5.44-36q.24,0,.4-.48a1.8,1.8,0,0,0-.08-.36,2.639,2.639,0,0,0-.16-.44q0-.08.36-.32a1.168,1.168,0,0,1,.52-.24.256.256,0,0,1,.24.16.71.71,0,0,1,.08.32l-.48.16h.72q.4,0,.4-.48a1.02,1.02,0,0,0-.56-1,5.371,5.371,0,0,1-1.04-.68.691.691,0,0,1,.48-.24.735.735,0,0,1,.48.36.59.59,0,0,0,.56.28q.32,0,.28-.28a.29.29,0,0,1,.2-.36.708.708,0,0,1,.44-.12q.12.04.12-.52a.76.76,0,0,0-.64.32.843.843,0,0,1-.72.32q.16,0,.16-.24,0-.08-.04-.44t-.04-.52a2.515,2.515,0,0,0-.4.04q-.24.04-.24-.2a2.8,2.8,0,0,0,.68-.12.558.558,0,0,0,.44-.6H7.2a3.848,3.848,0,0,0,.28-.84,4.151,4.151,0,0,0,.12-.92H8a1.685,1.685,0,0,1,.04-.28q.04-.2-.2-.2-.08,0-.24.16t-.24.16H6.72q0-.24.04-.88a2.6,2.6,0,0,1,.2-.96.141.141,0,0,1,.16-.16h.16v1.04q.24,0,.28-.12A1.04,1.04,0,0,0,7.6-45a1.04,1.04,0,0,1,.04-.32q.04-.12.36-.12a.778.778,0,0,1,.4.16.906.906,0,0,1,.32.32.691.691,0,0,0,.24-.48,2.384,2.384,0,0,1-.24-.32.906.906,0,0,0-.32-.32v-.72q0-.48.16-.6a.635.635,0,0,0,.16-.52q-.32-.24-.52-.4a.8.8,0,0,1-.2-.64q0-.16.56-.56a1.108,1.108,0,0,0,.56-.88h-.4a1.98,1.98,0,0,0,.32-1.12q.08-.88.08-1.04A1.716,1.716,0,0,0,9.04-53a1.9,1.9,0,0,1-.08-.52,1.851,1.851,0,0,0,.24-.4.614.614,0,0,0,.08-.24,1.17,1.17,0,0,1-.4-.04q-.08-.04-.48.12a.986.986,0,0,1,.16-.56,1.137,1.137,0,0,0,.16-.64.691.691,0,0,1-.48.24.68.68,0,0,1-.56-.2,1,1,0,0,0-.32-.28.614.614,0,0,0-.08-.24.71.71,0,0,1-.08-.32,2.646,2.646,0,0,1,.28-1.2A1.338,1.338,0,0,1,8.4-58a.71.71,0,0,1,.32.08l.32.16q.24,0,.68-.52a1.493,1.493,0,0,0,.44-.84h1.6q.16-.4.36-.44a2.248,2.248,0,0,1,.44-.04h.48l-.24.24a2.33,2.33,0,0,1,.56.12,2.33,2.33,0,0,0,.56.12L14-59.2l.16-.24.16-.32a7.869,7.869,0,0,1,2.04-1.28,5.738,5.738,0,0,1,2.36-.56,1.19,1.19,0,0,1,.6.16,1.35,1.35,0,0,0,.68.16,1.189,1.189,0,0,0,.88-.32,5,5,0,0,0,.08.52.869.869,0,0,0,.32.6.868.868,0,0,0,.16-.32,1.309,1.309,0,0,0,.08-.32l-.24-.48a3.481,3.481,0,0,0,.92-.12,4.165,4.165,0,0,1,1.08-.12v.72q.16-.08.64-.36a4.377,4.377,0,0,1,.72-.36.648.648,0,0,1,.4.12.8.8,0,0,0,.48.12h.32a.486.486,0,0,0,.24-.12.486.486,0,0,1,.24-.12q.32,0,.56.8t.88.8v.88h.48v-1.52q0-.16.4-.32l.48-.16q.48.16.48.88a2.724,2.724,0,0,1-.08.88,1.177,1.177,0,0,0,.52-.6,5.009,5.009,0,0,1,.36-.68q0,.08.2.24a.614.614,0,0,0,.28.16l.4-.24h.8a6.487,6.487,0,0,1,1.4.12,7.38,7.38,0,0,1,1.48.6l.48-.32V-60a.794.794,0,0,0-.28.24q-.12.16-.2.16.08.24.48.24.48,0,.4-.64a1.4,1.4,0,0,0,.68.68q.52.28.52.44-.16,0-.56.04t-.4.36a.23.23,0,0,0,.08.16l.08.08a.23.23,0,0,0-.16.08l-.24.24a1.943,1.943,0,0,0,.48.96q.48.64.8.64v.56l.4.24q.16-.08.4-.84a1.852,1.852,0,0,1,.48-.92l-.16-.24q-.08.4-.36.4a.726.726,0,0,0-.52.24l-.08-.08v-.16a4.239,4.239,0,0,1,.56-.8q.56-.72.8-.72a1.06,1.06,0,0,1,.52.16,1.99,1.99,0,0,1,.36.24q.16.16.16.24,0,.56-.2.68t-.2.52q0,.64.4.64v.48a.986.986,0,0,1-.56-.16,1.137,1.137,0,0,0-.64-.16.691.691,0,0,0-.24.48.931.931,0,0,0,.16.24l.24.24q0,.08.16.24a.23.23,0,0,1,.08.16,4.664,4.664,0,0,1-.12.72q-.12.56-.28.64v-.4a5.116,5.116,0,0,1-1.16.92,2.994,2.994,0,0,1-1.48.6l-.4-.24a1,1,0,0,0-.32.28q-.16.2-.24.2-.4,0-.52-.48t-.52-.48a.781.781,0,0,0-.56.16.927.927,0,0,1-.64.16,1.128,1.128,0,0,1-1.04-.52,1.248,1.248,0,0,0-.96-.6q-.08-.08-.4.04a1.532,1.532,0,0,1-.48.12.23.23,0,0,1-.16-.08l-.08-.08a.23.23,0,0,1-.16.08l-.16.08h-.08l-.4.24-.24-.24q-.16-.16-.24-.16a2.493,2.493,0,0,0-1.44.16,4.647,4.647,0,0,0-1.44.64,25.918,25.918,0,0,0-2.88,0,13.72,13.72,0,0,0-2.96.48.326.326,0,0,1-.24-.08.316.316,0,0,1-.2-.04.317.317,0,0,0-.2-.04,2.228,2.228,0,0,0-.48.16q-.4.16-.64.24a.23.23,0,0,1-.16-.08q-.24-.24-.24-.16l-.24.08a.623.623,0,0,1-.24.56.239.239,0,0,0,.04-.24A.189.189,0,0,0,16.72-52.16ZM5.6-12.4q.4.16.4.4t.32.4a2.281,2.281,0,0,0,.44-.88,3.945,3.945,0,0,0,.12-.96.948.948,0,0,0-.72.36Q5.84-12.72,5.6-12.4Zm-1.04-.96-.08-.16L4.4-13.6l.8-.4a3.356,3.356,0,0,1-.36,1.12,2.755,2.755,0,0,1-.68,1.04L4-11.76l-.08-.08a4.135,4.135,0,0,1,.4-.76A1.348,1.348,0,0,0,4.56-13.36ZM3.92-9.04A.23.23,0,0,0,4-8.88a.567.567,0,0,1-.4.56,1.965,1.965,0,0,1-.72.16.738.738,0,0,1,.32-.68,2.136,2.136,0,0,1,.72-.28ZM6.24-22.32q-.48,0-.6.24a1.441,1.441,0,0,0-.12.64.9.9,0,0,0,1.04-.88Zm2-19.12q0,.4.16.48a.691.691,0,0,0,.56-.72.37.37,0,0,0-.24-.4A.627.627,0,0,0,8.24-41.44ZM17.6-57.28a.623.623,0,0,0,.64.4q.08,0,.24-.32a1.316,1.316,0,0,1,.08-.4q-.08,0-.48-.04A.4.4,0,0,0,17.6-57.28ZM7.52-34.08a1.55,1.55,0,0,0-.6.16.566.566,0,0,0-.36.56l.64-.4.16.24L7.84-34H7.68A.23.23,0,0,1,7.52-34.08Zm.32-16.56.08.16q.08,0,.08.16a1.065,1.065,0,0,1-.12.48q-.12.24-.28.24v-.32a1.8,1.8,0,0,1,.08-.36A.915.915,0,0,1,7.84-50.64ZM19.76-62.08q.16,0,.12.12t.12.12q.16,0,.16.24t-.16.24q-.16,0-.24-.24-.16,0-.16-.24T19.76-62.08ZM36.4-8.96a.141.141,0,0,0-.16.16,1.878,1.878,0,0,0-.64.4,3.307,3.307,0,0,0,.44-.04.916.916,0,0,0,.52-.28Q36.56-8.96,36.4-8.96ZM5.6-29.92q-.16,0-.12.2t.2.2q0,.24.16.24a.212.212,0,0,0,.24-.24q0-.24-.32-.24A.141.141,0,0,0,5.6-29.92ZM37.92-9.12q-.08,0,.32-.2a1.639,1.639,0,0,1,.72-.2,1.4,1.4,0,0,1,.4.16ZM6.16-6.88q-.24,0-.24.2t.24.2q0,.24.16.24t.16-.2q0-.2-.24-.2Q6.24-6.88,6.16-6.88ZM7.6-40.96q-.16,0-.16.2t.24.2q0,.24.16.24t.12-.2q-.04-.2-.2-.2Q7.76-40.96,7.6-40.96ZM5.84-6.48q-.16,0-.16.28t.16.28q.24,0,.24-.28T5.84-6.48Zm37.36-7.6q-.56,0-.56.48a.421.421,0,0,0,.36-.16.519.519,0,0,1,.44-.16ZM7.36-.8l-.32.32a.461.461,0,0,0-.16.32h.48Zm-.64-.48q0,.4.24.48l.4-.48Zm2-42.64a.212.212,0,0,0-.24.24.212.212,0,0,0,.24.24q.16,0,.16-.24T8.72-43.92ZM5.44-23.68l.16-.48H4.96Zm35.2-34.16q.16,0,.16.28t-.16.28q-.16,0-.16-.28T40.64-57.84Zm-1.52,3.6q.16,0,.16.28t-.16.28q-.16,0-.16-.28T39.12-54.24Zm-22.8,1.12q-.16,0-.16.28t.16.28q.16,0,.16-.28T16.32-53.12Zm2.16,0q-.16,0-.16.28t.16.28q.16,0,.16-.28T18.48-53.12Zm-2.16-1.12q-.16,0-.16.28t.16.28q.16,0,.16-.28T16.32-54.24ZM4.56-15.44q-.16,0-.16.28t.16.28q.16,0,.16-.28T4.56-15.44ZM6.32-41.68q.16,0,.16.28t-.16.28q-.16,0-.16-.28T6.32-41.68ZM5.84-24.96q-.16,0-.16.2t.16.2q.24,0,.24-.2T5.84-24.96Zm-.88,8.24q-.08-.16-.08.32t.08.4a.543.543,0,0,0,.16-.4A.322.322,0,0,0,4.96-16.72Zm.88.72q-.16,0-.16.2t.16.2q.24,0,.24-.2T5.84-16ZM10.4-51.76q-.16,0-.16.24t.16.24q.16,0,.16-.24T10.4-51.76Zm29.28-3.12q.16,0,.16.24t-.16.24q-.16,0-.16-.24T39.68-54.88ZM8.24-.16q-.16,0-.16.24t.16.24Q8.4.32,8.4.08T8.24-.16ZM39.92-55.52q.16,0,.16.24t-.16.24q-.16,0-.16-.24T39.92-55.52Zm-.64,0q.16,0,.16.24t-.16.24q-.16,0-.16-.24T39.28-55.52ZM4.56-11.12q.16,0,.16.24t-.16.24q-.16,0-.16-.24T4.56-11.12Zm17.6-17.76q-.16,0-.16.24t.16.24q.16,0,.16-.24T22.16-28.88ZM8.96-58.48q.16,0,.16.24T8.96-58q-.16,0-.16-.24T8.96-58.48Zm7.36,28.72q-.16,0-.16.24t.16.24q.16,0,.16-.24T16.32-29.76ZM21.28-4.64q.16,0,.16.24t-.16.24q-.16,0-.16-.24T21.28-4.64ZM19.76-59.36q-.16,0-.16.24t.16.24q.16,0,.16-.24T19.76-59.36Zm4.56-2.24q-.16,0-.16.24t.16.24q.16,0,.16-.24T24.32-61.6Zm7.6,28.72q.16,0,.16.24t-.16.24q-.16,0-.16-.24T31.92-32.88ZM30.64-34q.16,0,.16.24t-.16.24q-.16,0-.16-.24T30.64-34ZM6.96-34.48q-.16,0-.16.24t.16.24q.16,0,.16-.24T6.96-34.48ZM29.12-59.6q-.16,0-.16.24t.16.24q.16,0,.16-.24T29.12-59.6ZM43.76-13.2q-.16,0-.16.24t.16.24q.16,0,.16-.24T43.76-13.2ZM16.72-60.48q-.16,0-.16.24t.16.24q.16,0,.16-.24T16.72-60.48ZM3.2-6.24q.16,0,.16.24t-.16.24q-.16,0-.16-.24T3.2-6.24ZM9.12-.16q-.16,0-.16.24t.16.24q.16,0,.16-.24T9.12-.16Zm18-61.44q.16,0,.16.24t-.16.24q-.16,0-.16-.24T27.12-61.6ZM7.6-42.32q-.16,0-.16.24t.16.24q.16,0,.16-.24T7.6-42.32Zm.64-1.12q-.16,0-.16.24t.16.24q.16,0,.16-.24T8.24-43.44Zm.72,0q-.16,0-.16.24t.16.24q.16,0,.16-.24T8.96-43.44Zm.4-3.6q-.16,0-.16.24t.16.24q.16,0,.16-.24T9.36-47.04Zm-.4,0q-.16,0-.16.24t.16.24q.16,0,.16-.24T8.96-47.04ZM39.52-54q.16,0,.16.24t-.16.24q-.16,0-.16-.24T39.52-54ZM6.16-27.44q-.24,0-.24.2t.24.2q.16,0,.16-.2T6.16-27.44ZM41.68-10.88q-.24,0-.24.2t.24.2q.16,0,.16-.2T41.68-10.88ZM6.16-19.6q-.24,0-.24.2t.24.2q.16,0,.16-.2T6.16-19.6Zm.48.8a.257.257,0,0,0-.28.24,2.514,2.514,0,0,0-.04.4v.32ZM37.92-8.72q-.4,0-.16-.24A.326.326,0,0,1,38-9.04q.16.08.12.2A.185.185,0,0,1,37.92-8.72ZM6.72-42.08q.16,0,.16.2t-.16.2q-.16,0-.16-.2T6.72-42.08Zm.48,4.96q-.16,0-.16.2t.16.2q.16,0,.16-.2T7.2-37.12ZM8-53.28q.16,0,.16.2t-.16.2q-.16,0-.16-.2T8-53.28ZM38.32-8.96q.16,0,.16.2t-.16.2q-.16,0-.16-.2T38.32-8.96ZM29.28-60.88q-.16,0-.16.2t.16.2q.16,0,.16-.2T29.28-60.88ZM10.64.16q.16,0,.16.2t-.16.2q-.16,0-.16-.2T10.64.16ZM8.96-35.6q-.16,0-.16.2t.16.2q.16,0,.16-.2T8.96-35.6Zm18-23.04q-.16,0-.16.2t.16.2q.16,0,.16-.2T26.96-58.64ZM4.8-15.84q-.16,0-.16.2t.16.2q.16,0,.16-.2T4.8-15.84ZM8.96-57.28q-.16,0-.16.2t.16.2q.16,0,.16-.2T8.96-57.28Zm0,12.72q-.16,0-.16.2t.16.2q.16,0,.16-.2T8.96-44.56ZM38.24-55.04q-.16,0-.16.2t.16.2q.16,0,.16-.2T38.24-55.04ZM28-57.52q-.16,0-.16.2t.16.2q.16,0,.16-.2T28-57.52Zm-8.88-.72q-.16,0-.16.2t.16.2q.16,0,.16-.2T19.12-58.24Zm12.8,27.6q.16,0,.16.2t-.16.2q-.16,0-.16-.2T31.92-30.64Zm-.64-1.76q.16,0,.16.2t-.16.2q-.16,0-.16-.2T31.28-32.4ZM7.6-33.52q-.16,0-.16.2t.16.2q.16,0,.16-.2T7.6-33.52Zm12.16-2.24q.16,0,.16.2t-.16.2q-.16,0-.16-.2T19.76-35.76ZM4.16-8Q4-8,4-7.8t.16.2q.16,0,.16-.2T4.16-8Zm2.8-15.04q-.16,0-.16.2t.16.2q.16,0,.16-.2T6.96-23.04Zm7.2-35.84q-.16,0-.16.2t.16.2q.16,0,.16-.2T14.16-58.88Zm13.2.24q-.16,0-.16.2t.16.2q.16,0,.16-.2T27.36-58.64ZM7.84-44.56q-.16,0-.16.2t.16.2q.16,0,.16-.2T7.84-44.56ZM38.48-58.24q-.16,0-.16.2t.16.2q.16,0,.16-.2T38.48-58.24ZM6.72-33.12q-.16,0-.16.2t.16.2q.16,0,.16-.2T6.72-33.12Zm3.92-19.04q-.16,0-.16.2t.16.2q.16,0,.16-.2T10.64-52.16ZM4.8-5.12a.378.378,0,0,0-.4.32h.4ZM5.84-7.76q-.08,0-.12.2a.55.55,0,0,1-.12.28l.24.24Zm3.12-33.2q-.16-.08-.16.2t.16.2q.08,0,.08-.16A.326.326,0,0,0,8.96-40.96ZM28-33.76q-.08-.16-.24,0t0,.24Q28-33.36,28-33.76ZM31.68-32l-.4.4-.24-.16ZM4.8-8a.5.5,0,0,0,.36.16A.287.287,0,0,0,5.44-8ZM15.6-60.48l-.08.08a.231.231,0,0,1-.16.08V-60Q15.6-60,15.6-60.48ZM7.2-36.24q-.48.16-.48.48A.794.794,0,0,0,7-36,2.338,2.338,0,0,1,7.2-36.24ZM4.4-20.56q-.08-.16-.24,0t0,.24A.212.212,0,0,0,4.4-20.56ZM41.28-57.52l-.24.24v-.56Zm-21.76-3.2q0-.08-.16.04t0,.2a.1.1,0,0,0,.16,0Q19.6-60.56,19.52-60.72ZM6.56-23.68q0-.16-.12-.16t-.12.16q.08.16.16.16T6.56-23.68ZM30.4-34.24q.16,0,.16.08T30.4-34a.141.141,0,0,1-.16-.16Q30.24-34.32,30.4-34.24ZM44-12.56q-.16,0-.16.12t.16.12q.16-.08.16-.16T44-12.56ZM4.56-7.28q-.08-.16-.2,0t.04.24a.23.23,0,0,0,.16-.08A.1.1,0,0,0,4.56-7.28ZM38.24-56.72q-.16,0-.16.12t.16.12q.16,0,.16-.08T38.24-56.72ZM4.56-16.96q-.08-.16-.2,0t.04.24Q4.64-16.72,4.56-16.96Zm1.6-7.2q-.16,0-.16.12t.16.12Q6.4-24.16,6.16-24.16Zm.56-16.16q.32,0,0,.32-.08,0-.08-.16T6.72-40.32ZM38.24-54.24q-.16,0-.16.12t.16.12Q38.48-54.08,38.24-54.24ZM5.6-11.12q.08-.16-.08-.16t-.08.16q0,.16.08.16T5.6-11.12Zm-1.44.88q0,.24-.24,0a.141.141,0,0,1,.16-.16Q4.24-10.4,4.16-10.24Zm38.96-.64q0-.16-.12-.16t-.12.16Q43.12-10.64,43.12-10.88Zm-6.64,2a.326.326,0,0,0-.24.08q-.16.16,0,.24Zm3.44-48-.24.16v-.4ZM29.76-33.12v-.24l.4-.16Zm-3.04-2.24q.16,0,.16.08t-.16.08q-.16.08-.16-.08T26.72-35.36ZM5.6-31.76a.1.1,0,0,1,0,.16.1.1,0,0,1-.16,0q-.16,0,0-.16T5.6-31.76ZM5.44-18.32q.24.32.4,0ZM4.8-9.36q-.16.32-.4,0ZM34.72-52.88l-.08-.08q-.16,0-.16.08.08.16.16.16T34.72-52.88ZM31.28-29.76q0,.16-.08.16t-.16-.16q0-.08.16-.08ZM11.36-56q-.16,0-.16.12t.16.12Q11.44-55.84,11.36-56ZM8.24-1.04q-.16,0-.16.12t.16.12Q8.32-.88,8.24-1.04ZM27.76-61.36q0,.24-.4.24Q27.36-61.2,27.76-61.36ZM5.2-27.04q.16,0,.16.08t-.16.16q-.08,0-.08-.16ZM19.12-60.72l.24-.16h-.48Zm14.8.72-.16-.08-.08.08q0,.16.08.16T33.92-60Zm1.92,3.28-.08.16.08.08q.16,0,.16-.08T35.84-56.72ZM12.56.16q.16,0,.16.08t-.16.08q-.08,0-.08-.16T12.56.16Zm8-62q0,.16-.08.16t-.08-.16l.08-.08ZM26.48-6.48l-.08-.08-.08.08q0,.16.08.16T26.48-6.48ZM13.76-27.28a.538.538,0,0,0-.24-.48ZM5.6-.56l-.08.08L5.6-.4q.16,0,.16-.08T5.6-.56ZM3.44-14.24q.16,0,.16.08t-.16.08l-.08-.08Z" transform="translate(-11 73.58)" fill="#4f97eb"/>
            <path id="Path_550" data-name="Path 550" d="M10.613-28.368A5.747,5.747,0,0,0,8.591-21.36l.573.4,2.628.4.876-.809.573.4,2.055-.4h6.4l.876.4,4.986.4.876.371h.876l.876.4h2.325a9.948,9.948,0,0,0,4.38,1.146,6.71,6.71,0,0,0,.27-4.279H36.016l-1.179-.4-1.179-.371-1.146-.4H31.333l-1.146-.371H29.008l-1.179-.4-1.449-.371-1.752-.4a6.012,6.012,0,0,1-3.2-.4H17.621a14.141,14.141,0,0,1-4.649-.371A3.378,3.378,0,0,0,10.613-28.368ZM9.4-15.6q-2.527,2.156-.573,5.323a5.657,5.657,0,0,0,1.954,3.74l1.853-1.482L15.5-8.153l1.011-.27L20.99-9.467l.809.337,1.011-.236.809.337a14.4,14.4,0,0,1,4.481.505L29.682-9.4A20.292,20.292,0,0,0,37.7-10.748l.573-2.224-.1-.505.1.505-.1-.505-1.853-1.651a15.017,15.017,0,0,1-7.884.3,22.438,22.438,0,0,0-5.054.135l-1.146-.27-1.011.236-4.043-.1Z" transform="translate(39.981 63.615)" fill="#ff9b04"/>
            <path id="Path_546" data-name="Path 546" d="M70.452-15.732q.152,0,.152.266t-.152.266h-.228a1.622,1.622,0,0,1-.456.8,3.732,3.732,0,0,1-.646.456,2.922,2.922,0,0,0-.646.494,1.891,1.891,0,0,0-.456.836,2.942,2.942,0,0,0-.3.836,4.157,4.157,0,0,0-.152.912.935.935,0,0,0,.38.152q.3.076.3.228,0,.38-.266.266a1.261,1.261,0,0,0-.494-.114A7.687,7.687,0,0,1,67.45-9.31q-.038.19-.114.152a1.178,1.178,0,0,0-.266-.076q-.19-.038-.418.266-.152.38-.418,1.33t-.418,1.33H65.36a.759.759,0,0,1-.076.722.683.683,0,0,1-.608.418,5.107,5.107,0,0,0-.228.836,5.335,5.335,0,0,0-.152.912q-.076.38-.228.95t-.532.57a.365.365,0,0,1-.266-.114A.365.365,0,0,0,63-2.128a1.208,1.208,0,0,0-1.064.57,1.208,1.208,0,0,1-1.064.57h-.3a6.048,6.048,0,0,0-.418-.836q-.342-.608-.418-.76A10.661,10.661,0,0,1,58.1-6.992q-.342-2.432-.8-4.788a3.787,3.787,0,0,0-.722-1.52,6.685,6.685,0,0,1-.874-1.52q0-.076-.038-.418t-.114-.722q-.076-.38-.152-.684a2.284,2.284,0,0,1-.076-.38,2.991,2.991,0,0,0-1.064-1.216,1.608,1.608,0,0,1-.76-1.368v-.152l.076-.076q0-.152.228-.3t.228-.228a2.4,2.4,0,0,0-.342-1.026q-.342-.646-.722-1.368t-.722-1.444a3.136,3.136,0,0,1-.342-1.33,1.662,1.662,0,0,0-1.064.3,2.243,2.243,0,0,0-.608.76l-.456.912a1.611,1.611,0,0,1-.608.684v-.608q-.456,0-.456.684a4.631,4.631,0,0,0,.228,1.292,1.534,1.534,0,0,1,.684.076q0,.076-.19.228a.954.954,0,0,0-.266.3h.3a2.223,2.223,0,0,1-.456.76,3.652,3.652,0,0,1-.684.76q.076-.152-.3-.8A2.34,2.34,0,0,0,47.5-20.9l-.228.38-.3-.228a.657.657,0,0,1-.228.456v.076a.219.219,0,0,0,.076.152H47.5q0,.456-.532.456t-.836-.684a.461.461,0,0,1-.114.228.616.616,0,0,0-.114.38,1.245,1.245,0,0,0,.456.76,5.311,5.311,0,0,1,.608.684.447.447,0,0,1-.19.418q-.19.114-.19.57l.684-.684.228.3-.228.228.228.152-.912,1.292v-.456l-.076.076H46.36a1.244,1.244,0,0,0-.076-.3q-.076-.228-.228-.228-.532,0-.646.228t-.95.228q0,.836-.152.912t-.152.684a1.4,1.4,0,0,0,.912-.76,1.387,1.387,0,0,1,.836-.76.622.622,0,0,0-.228.38.2.2,0,0,0,.228.228.884.884,0,0,0-.152.228l-.076.076a.966.966,0,0,0-.76.608,2.994,2.994,0,0,1-.76,1.064l.228.076q.228,0,.608-.57a4.227,4.227,0,0,0,.456-.8,1.049,1.049,0,0,1,.228.76q0,.456-.608.38l.836.38a.973.973,0,0,1-.874.3,1.272,1.272,0,0,0-.874.152l.228.836a.44.44,0,0,0,.076.3l.152.152-.456.608q0,.076.152.228l.076.076a.447.447,0,0,0,.38-.228q-.076.608-.57.684t-.494.684l.076-.076a.219.219,0,0,0,.152-.076.884.884,0,0,1,.228-.152q.152,0,.228.19a.871.871,0,0,1,.076.266h-.608a5.533,5.533,0,0,0,.076.646A5.534,5.534,0,0,1,44-8.284a1.942,1.942,0,0,1-.646.95,1.168,1.168,0,0,0-.494.874,4.039,4.039,0,0,0,.114.532,4.04,4.04,0,0,1,.114.532.657.657,0,0,1-.228.456.613.613,0,0,0-.228-.494A1.423,1.423,0,0,0,42.18-5.7v.3l.228.456h-.456a7.031,7.031,0,0,1-.266,1.976,14.269,14.269,0,0,0-.418,1.976q.532,0,.684-.3.076,0,.076.3a.613.613,0,0,1-.3.456A3.869,3.869,0,0,1,41-.114a5.547,5.547,0,0,1-.836.3A2.674,2.674,0,0,1,39.6.3,1.456,1.456,0,0,1,39.14.19a.912.912,0,0,1-.456-.342l.608-.684a.134.134,0,0,0-.152-.152h-.608a1.628,1.628,0,0,0-.38.114q-.3.114-.3.038-.076,0-.228-.19t-.228-.266a.657.657,0,0,1-.456-.228,1.013,1.013,0,0,0,.456-.38,4.443,4.443,0,0,1,.38-.456,1.6,1.6,0,0,1-.266-.038.288.288,0,0,0-.266.038l-.228.228a.583.583,0,0,0-.076.228.681.681,0,0,1-.38.19q-.228.038-.228.19,0,.608.456.532t.456.38a.487.487,0,0,0-.3.456L36.708-.38q0,.152-.3.456a.368.368,0,0,1-.342-.266A.352.352,0,0,1,36.1-.608l-.456.228L36.1-.988a3.378,3.378,0,0,0-.418-.342.935.935,0,0,0-.342-.19q-.456,0-.38.342t-.3.342a1.513,1.513,0,0,1-.988-.38,3.146,3.146,0,0,1-.76-.95,5.151,5.151,0,0,1-.456-1.178,4.271,4.271,0,0,1-.152-.988v-.532a.675.675,0,0,1,.076-.3.871.871,0,0,1,.076-.266.871.871,0,0,0,.076-.266,2.285,2.285,0,0,0-.076-.38,2.285,2.285,0,0,1-.076-.38,8.349,8.349,0,0,1-.152-.988q-.076-.684-.076-.836,0-.3.038-1.292t.038-1.292h-.3l-.228-1.6q.076,0,.152-.266a1.63,1.63,0,0,0,.076-.418,3.94,3.94,0,0,0-.342-1.558,3.94,3.94,0,0,1-.342-1.558.756.756,0,0,1,.114-.456.756.756,0,0,0,.114-.456q.608,0,.684-.228a.393.393,0,0,0-.418-.266q-.266.038-.266-.342a.44.44,0,0,1,.076-.3.219.219,0,0,0,.076-.152l.152-.38a2.667,2.667,0,0,0,.076-.76h-.3a3.253,3.253,0,0,0-.038-.342,3.252,3.252,0,0,1-.038-.342,1.829,1.829,0,0,0-.19-.456,2.321,2.321,0,0,0-.266-.456l.228-.608a2.232,2.232,0,0,0-.19-.494q-.19-.418-.266-.57a2.024,2.024,0,0,1,.228-.912h-.38V-24.4h.836a.661.661,0,0,0-.114-.266.373.373,0,0,0-.342-.19.219.219,0,0,1-.152.076.219.219,0,0,1-.152.076h-.076a1.431,1.431,0,0,1-.418-.95q-.038-.57-.038-1.254a5.533,5.533,0,0,1,.076-.646,5.534,5.534,0,0,0,.076-.646l-.38-.152a.661.661,0,0,1,.114-.266.661.661,0,0,0,.114-.266.761.761,0,0,0-.228-.418.959.959,0,0,1-.228-.646,4.223,4.223,0,0,1,.114-.95,4.549,4.549,0,0,0,.114-1.026,4.663,4.663,0,0,0-.076-.608l-.152-.912q.152,0,.152-.19t-.152-.19q-.152,0-.152.228a2.894,2.894,0,0,0-.3-.76q.38-.152.418-.418t.494-.342q-.38-.912-.646-1.6a4.879,4.879,0,0,1-.266-1.748,3.024,3.024,0,0,1,.684-1.976.382.382,0,0,0-.3-.19,2.389,2.389,0,0,0-.38-.038v-1.368l-.38-.152.152-1.292q0-.076.532-.076a1.415,1.415,0,0,1,.912.3,3.024,3.024,0,0,0,.76.456q1.824.38,2.85.684a3.7,3.7,0,0,1,1.6.874,3.717,3.717,0,0,1,.874,1.482q.3.912.684,2.432l.152.608a8.7,8.7,0,0,0,.532,1.444,3.6,3.6,0,0,1,.38,1.444q0,.152-.076.19a.411.411,0,0,0-.152.19l-.228.228a2.063,2.063,0,0,0,.3.684q.3.532.38.684a9.848,9.848,0,0,1,.228,1.558q.076.95.19,1.938t.3,1.862a2.042,2.042,0,0,0,.57,1.178H39.9a.219.219,0,0,0,.152-.076l.152-.152.228-1.9q0,.076.228.076a.583.583,0,0,1,.228.076q.228,0,.228-.456A1.175,1.175,0,0,0,41-28.272a1.369,1.369,0,0,1-.114-.608.447.447,0,0,1,.19-.418,1.9,1.9,0,0,1,.456-.19,1.036,1.036,0,0,0,.456-.266.774.774,0,0,0,.19-.57l-.228-.228a.661.661,0,0,1,.114-.266.661.661,0,0,0,.114-.266v-.152l.076-.228h.608a4.968,4.968,0,0,0,.3-.532q.152-.228.266-.418a1.767,1.767,0,0,1,.266-.342.661.661,0,0,1,.114-.266q.114-.19.19-.19l.152.152a.31.31,0,0,0,.228.076h.228a.31.31,0,0,1,.076-.228l.076-.228h.3a.871.871,0,0,1,.266.076q.19.076.342.152L46.968-34.5l.3-.38.076.76a2.807,2.807,0,0,0,.722-.114q.418-.114.038-.722l1.52-.152.228.152q-.152.3-.19.228t-.19-.076a1.029,1.029,0,0,0,.076.494q.076.114.076-.038l.152-.076.076-.076h.228l.684.684a.524.524,0,0,0,.342-.19,1.4,1.4,0,0,0,.266-.342l.228.3a.87.87,0,0,0,.152-.342,1.711,1.711,0,0,0,.076-.342l-.228-.38a1.529,1.529,0,0,1,.038-.418A.346.346,0,0,0,51.6-35.8v-.76a.487.487,0,0,1,.456.3.978.978,0,0,1,.912-.684q.38,0,.38.684-.3,0-.456-.38-.152.076-.152.38,0,.228.646.722A4.909,4.909,0,0,1,54.416-34.5v-.456a1.1,1.1,0,0,1,.532.912.876.876,0,0,1-.3.608H55.1a.951.951,0,0,0,.494-.114.951.951,0,0,1,.494-.114,2.009,2.009,0,0,1,1.292.608,1.738,1.738,0,0,1,.684,1.292,3.141,3.141,0,0,1-.418-.038,3.253,3.253,0,0,0-.342-.038A.219.219,0,0,0,57.228-32l-.152-.152a1.158,1.158,0,0,0-.722.266.8.8,0,0,0-.342.646q0,.152.418.532a3.441,3.441,0,0,1,.646.76v.3a.934.934,0,0,1,.342.076.933.933,0,0,0,.342.076q-.3-.532,0-.722a1.264,1.264,0,0,1,.684-.19q.38,0,.38.456a1.94,1.94,0,0,1-.456,1.14,1.94,1.94,0,0,0-.456,1.14q0,.456.076,1.254t.608.8v-.38h.684a.438.438,0,0,0-.152-.3.438.438,0,0,0-.3-.152v-1.064l.456.228a1.985,1.985,0,0,0,.3-.418q.152-.266.152-.19,0,.38.57.646t.722.342a.825.825,0,0,0,.3.152,1.25,1.25,0,0,0,.38.076q-.152.456-.684.3a.516.516,0,0,1,.152.38,1.158,1.158,0,0,1-.266.722,1.074,1.074,0,0,0-.266.646q.532,0,.456.722a1.375,1.375,0,0,0,.38,1.178.582.582,0,0,0,.494.114q.342-.038.342.342a.4.4,0,0,1-.456.456q.076.076.494.608a1.82,1.82,0,0,1,.418.684,1.167,1.167,0,0,1-.152.456.884.884,0,0,1-.152.228q0,.228.152.228a.672.672,0,0,0,.76-.76q.228,0,.228.532a1.684,1.684,0,0,1-.076.532A1.3,1.3,0,0,0,64.6-19.95a3.8,3.8,0,0,0,.608-1.254l.38.3.456-.912.228.228a.893.893,0,0,0,.38-.836q0-.228-.114-.266t-.114-.418a2.247,2.247,0,0,1,.76-1.748l-.3-.228q.608-.3.874-.456t.266-.76l.152.076h.076l.228.456.3-.076q0-.076-.038-.418a2.752,2.752,0,0,1,0-.646.66.66,0,0,1,.228-.456q.19-.152.57.076-.228-.3-.418-.608a.721.721,0,0,1-.038-.684.583.583,0,0,1,.228.076,1.333,1.333,0,0,0,.38.152.767.767,0,0,0,.684-.342,3.2,3.2,0,0,0,.38-.836q.152-.494.266-.988a2.282,2.282,0,0,1,.266-.722.729.729,0,0,1-.228-.532,1.25,1.25,0,0,1,.8-1.254q.8-.342.8-.57a.412.412,0,0,0-.19-.3q-.19-.152.038-.152.38,0,.3-.38a.576.576,0,0,1,.076-.532q0-.076.266-.114a3.252,3.252,0,0,1,.342-.038v-.3l-.456-.3q0-.152.494-.38a2.489,2.489,0,0,0,.646-.38q0,.228.38.228l.3-.38a.687.687,0,0,0,.38.608,1.363,1.363,0,0,0,.684.228q.228,0,.38-.532v.38h.76q.3,0,.3-.608h-.532q0-.228.38-.418a1.472,1.472,0,0,1,.608-.19v.456l.532-.228q-.152.456.038.608a2.306,2.306,0,0,0,.57.3.2.2,0,0,1,.228-.228.18.18,0,0,1,.19.152.227.227,0,0,1-.038.228,3.524,3.524,0,0,1,1.6-.38,5.348,5.348,0,0,0-.836.646,1.424,1.424,0,0,0-.456,1.1q.152-.152.494-.57a.952.952,0,0,1,.722-.418q0,.152.038.532a1.326,1.326,0,0,0,.19.608l.532-.38a.89.89,0,0,0,.038.76,1.063,1.063,0,0,0,.57.532q0,.152.38-.076l-.152.3h.912a1.9,1.9,0,0,1-.266.874,3.13,3.13,0,0,1-.418.646q0,.076.228.076.532,0,.38-.76.456.152.266.646t.418.494q.456,0,.608-.608a.481.481,0,0,1,.228.266.934.934,0,0,1,.076.342q0,.076-.076.532t-.228.532v.532q.152-.076.342-.19a.681.681,0,0,1,.342-.114q.076,0,.228.19a.954.954,0,0,0,.3.266h-.912a.219.219,0,0,1-.076.152.44.44,0,0,1-.3.076.544.544,0,0,1-.532-.3,1.349,1.349,0,0,1-.152-.608,1.213,1.213,0,0,1-.684.532,1.245,1.245,0,0,1,.152.19q.076.114,0,.19,0,.076-.266.19a1.232,1.232,0,0,0-.342.19.583.583,0,0,0,.076.228.583.583,0,0,1,.076.228.622.622,0,0,0,.342-.076.81.81,0,0,1,.418-.076.425.425,0,0,1,.418.228.5.5,0,0,0,.494.228q.76,0,.76-.912.076,0,.152.19a.871.871,0,0,1,.076.266.219.219,0,0,0-.152.076.44.44,0,0,0-.076.3q0,.532.456.532a4.27,4.27,0,0,0,.836-.076q-.152.532-.266.57a2.085,2.085,0,0,0-.266.114.316.316,0,0,0,.114-.3.18.18,0,0,0-.19-.152q-.152,0-.152.19a.371.371,0,0,0,.076.266.219.219,0,0,1-.152.076q-.076,0-.228.152a1.082,1.082,0,0,0,.19.646.582.582,0,0,0,.494.266q.38,0,.456-.494a.755.755,0,0,1,.456-.646v.38l.38-.228a.342.342,0,0,1-.114.3q-.114.076-.114.38l.228.456a.369.369,0,0,1-.076.19,2.486,2.486,0,0,0-.152.266,1.026,1.026,0,0,0-.456-.684l-.228.456.228.228a3.208,3.208,0,0,0-.836.608l.228.228h-.608v-.76H85.5l-.228-.076-.076.076a.134.134,0,0,0,.152.152q0,.608-.152.684t-.3.608a1.439,1.439,0,0,1,.57-.076,2.762,2.762,0,0,0,.8-.114,1.34,1.34,0,0,0,.57-.3q.19-.19-.038-.57a2.489,2.489,0,0,0,1.254.152q.722-.076.722.836,0,.152-.684.608a2.139,2.139,0,0,0-.836.836.767.767,0,0,0,.342.684,5.385,5.385,0,0,0,.76.418q.418.19.76.38t.342.418l-.38.38a1.127,1.127,0,0,0-.3.532,4.945,4.945,0,0,1,.532-.19,1.6,1.6,0,0,1,.38-.038.646.646,0,0,1,.684.456,1.6,1.6,0,0,0-.266.038q-.19.038-.19.114V-19q0,.076.3.342t.38.342a.583.583,0,0,1-.076.228q-.076.152-.152.152l-.3-.152q-.076,0-.152.152a.323.323,0,0,0,0,.3,1.062,1.062,0,0,0,.456.722.991.991,0,0,1,.38.874q0,.228-.19.228t-.19.38q0,.3.19.38t.19.456a.583.583,0,0,1-.076.228.583.583,0,0,0-.076.228l.38.228a.3.3,0,0,1,.228.3.365.365,0,0,1-.114.266.736.736,0,0,0-.114.494.31.31,0,0,0,.076.228l.152.152-.38.532a.516.516,0,0,1,.38.152.822.822,0,0,1-.228.608h.608a2.315,2.315,0,0,0,.19,1.216,1.893,1.893,0,0,1,.19,1.064.44.44,0,0,1-.3-.076.219.219,0,0,1-.152-.076h-.152q0-.076-.152-.076-.076,0-.228.152a.306.306,0,0,1,.152.3q0,.228-.152.228-.38,0-.152-.38l-.456.456a1.191,1.191,0,0,1-.3.228h.684a5.363,5.363,0,0,1-.532.38l-.456.3a.219.219,0,0,0-.076.152v.152a2.222,2.222,0,0,1,.19.228.329.329,0,0,0,.266.152A1.534,1.534,0,0,0,89.6-5.4l-.076.076a.219.219,0,0,0-.076.152,1.456,1.456,0,0,1,.456.114q.3.114.152.266l-.076.152-.076.076v-.3a2.518,2.518,0,0,1-.532-.038Q89.224-4.94,89-5.4a.825.825,0,0,0-.152.3,1.244,1.244,0,0,0-.076.3q0,.152.3.3a.954.954,0,0,0,.38.228,2.461,2.461,0,0,1-1.9.836A2.022,2.022,0,0,1,85.69-4.75a15.235,15.235,0,0,1-1.064-3.04q-.418-1.71-.722-3.382a6.677,6.677,0,0,0-.76-2.356L81.624-18.7a2.855,2.855,0,0,0-.874-1.292A3.571,3.571,0,0,1,79.8-21.2a2.061,2.061,0,0,1-.19-1.292,2.061,2.061,0,0,0-.19-1.292q-.3-.456-.836-1.444t-1.14-.988a1.273,1.273,0,0,1-.456.266q-.3.114-.456.19l-.228-.152a.4.4,0,0,0,.456-.456l-.228-.912q-.152.076-.532.3a.687.687,0,0,0-.38.608.918.918,0,0,0,.114.3,1.278,1.278,0,0,0,.19.3q-.608-.228-.76.114a1.95,1.95,0,0,0-.152.8l.608-.456-.152.228a.653.653,0,0,0,.684.38.738.738,0,0,0-.456.3,3.063,3.063,0,0,0-.266.494,1.438,1.438,0,0,1-.3.456.668.668,0,0,1-.494.19q0,.152-.038.722t-.038.722q0,.076.152.228l.152.152q0,.228-.3.228a6.34,6.34,0,0,0-.836-.456,5.506,5.506,0,0,0-.836-.38.871.871,0,0,0-.266.076.481.481,0,0,0-.266.228q.076.456.722.722t.646.722a2.45,2.45,0,0,1-.532.95,3.4,3.4,0,0,1-.836.8q.3,0,.3.228a1.178,1.178,0,0,1-.418.8q-.418.418-.266.722-.608-.3-.608-.228t-.532.076q0,.38-.684.608a2.135,2.135,0,0,0,.038.418,1.761,1.761,0,0,1,.038.342Q70.224-15.732,70.452-15.732ZM31.008-29.564q.076,0,.418.608a4.287,4.287,0,0,0,.494.76,1.173,1.173,0,0,0,.342-.3,2.125,2.125,0,0,0,.266-.38q-.152-.228-.19-.19a.3.3,0,0,1-.19.038v-.456l-.228-.152q0-.076-.228-.266a1.423,1.423,0,0,0-.456-.266.31.31,0,0,1-.076.228A1.333,1.333,0,0,0,31.008-29.564Zm56.544,7.372q0-.608.418-.722a1.814,1.814,0,0,0,.8-.494l-.38.912a.953.953,0,0,1,.266-.3A.574.574,0,0,1,89-22.952v1.216a.8.8,0,0,1-.646-.228A1.033,1.033,0,0,0,87.552-22.192ZM44-20.064a.325.325,0,0,1,.418,0,.549.549,0,0,1,.19.456q.076,0,.266-.19t.19-.266a.923.923,0,0,0-.228-.456,1.112,1.112,0,0,1-.228-.38v-.3l-.228-.228-.228.228a3.888,3.888,0,0,1-.076.57A3.888,3.888,0,0,0,44-20.064ZM32.528-27.512q.152-.608.57-.684t.418-.76a.818.818,0,0,0-.722.418,1.381,1.381,0,0,1-.646.57Zm6.384,3.04a3.3,3.3,0,0,0,.342.266.935.935,0,0,0,.342.19h.228a.31.31,0,0,1,.076-.228l.076-.228V-24.7l-.456-.228-.152.076h-.076q-.076,0-.228.152T38.912-24.472Zm33.212,4.408q0,.456.532.456.456,0,.608-.684h-.836Q72.124-20.292,72.124-20.064ZM58.976-25.308q0,.228.038.608a1.342,1.342,0,0,0,.266.684,1.108,1.108,0,0,0,.152-.456A3.2,3.2,0,0,0,59.508-25q0-.152-.19-.228A.934.934,0,0,0,58.976-25.308Zm11.172,7.676a.876.876,0,0,0,.3.608.953.953,0,0,0,.3-.266.574.574,0,0,0,.152-.342h-.456q.076,0,.228-.456Q70.148-18.164,70.148-17.632Zm19.3,2.584q.152-.152.456-.494a.967.967,0,0,0,.3-.57l-.076-.152-.076-.076-.76.912Zm-.684-.152q-.228.076-.266.494t-.038.494a.418.418,0,0,0,.418-.3A1.549,1.549,0,0,0,89-15.048Q89-15.2,88.768-15.2ZM49.552-25.612q0,.076.038.456t.266.456a.351.351,0,0,0,.228-.38A.47.47,0,0,0,49.552-25.612ZM32-38.3a.479.479,0,0,0-.494.266,1.432,1.432,0,0,0-.114.57.471.471,0,0,0,.494-.3A1.549,1.549,0,0,0,32-38.3Zm36.86,23.256a1.225,1.225,0,0,0-.456.988.417.417,0,0,0,.418-.266,1.261,1.261,0,0,0,.114-.494l-.076-.152ZM46.968-22.876a.691.691,0,0,1,.3.836q.076,0,.228-.19a.583.583,0,0,0,.152-.266q.076-.456-.38-.456l-.152.076Zm24.776,3.5a2.324,2.324,0,0,1-.3.418q-.228.266-.38.418l.076.076h.152q.38,0,.418-.3a.608.608,0,0,1,.266-.456ZM58.6-22.724q.076,0,.152-.342a2.6,2.6,0,0,0,.076-.494q0-.3-.38-.456ZM47.88-23.56l.076.076a.219.219,0,0,0,.152.076.468.468,0,0,0,.266-.076.369.369,0,0,1,.19-.076.592.592,0,0,1-.228-.532.365.365,0,0,0-.342.228A.917.917,0,0,0,47.88-23.56Zm1.292,1.292a.461.461,0,0,1,.114-.228,2.222,2.222,0,0,1,.19-.228v.912Q49.172-21.812,49.172-22.268Zm33.592-5.548a.31.31,0,0,0-.228.076H82.46a.272.272,0,0,1,.152.266q0,.19-.152.19t-.152-.228a.44.44,0,0,0-.076.3v.3A.892.892,0,0,0,82.764-27.816ZM50.92-36.024l.228.228q.152,0,.152.19t-.152.19q-.152,0-.228-.228-.152,0-.152-.19T50.92-36.024Zm37.468,15.5a1.682,1.682,0,0,1-.532.684h.3a.461.461,0,0,0,.228-.114.461.461,0,0,1,.228-.114ZM59.052-29.64q0-.3.228-.3a.461.461,0,0,1,.228.114,2.223,2.223,0,0,1,.228.19.583.583,0,0,0-.228.076.583.583,0,0,1-.228.076q-.152,0-.152-.076Zm-15.732,13q-.152,0-.152.266t.152.266a.134.134,0,0,0,.152.152q.152,0,.152-.19t-.228-.19Q43.4-16.644,43.32-16.644Zm40.888-7.372q-.152,0-.152.228a.2.2,0,0,0,.228.228.134.134,0,0,0,.152.152q.152,0,.114-.19t-.19-.19Q84.36-24.016,84.208-24.016ZM90.06-5.7q.228,0,.228.266t-.228.266q-.152,0-.152-.266T90.06-5.7ZM66.88-10.26q-.152,0-.152.266t.152.266q.228,0,.228-.266T66.88-10.26Zm-17.4-26.3q.152,0,.152.266t-.152.266q-.228,0-.228-.266T49.476-36.556ZM84.892-24.7q-.228,0-.228.266t.228.266q.152,0,.152-.266T84.892-24.7Zm-42.56-2.356a.9.9,0,0,0,.38-.114.365.365,0,0,0,.228-.342l-.076-.228ZM66.88-8.284a.2.2,0,0,1,.228.228.2.2,0,0,1-.228.228q-.152,0-.152-.228T66.88-8.284ZM87.856-25.308a.2.2,0,0,1,.228.228.2.2,0,0,1-.228.228q-.152,0-.152-.228T87.856-25.308ZM61.18-2.128q-.152,0-.152.228t.152.228a.2.2,0,0,0,.228-.228A.2.2,0,0,0,61.18-2.128Zm10.336-23.56a1.25,1.25,0,0,0,.076.38.351.351,0,0,0,.38.228Q71.82-25.688,71.516-25.688Zm16.34,4.94q-.152,0-.152.228t.152.228a.2.2,0,0,0,.228-.228A.2.2,0,0,0,87.856-20.748ZM70.148-14.592a.2.2,0,0,1,.228.228.2.2,0,0,1-.228.228q-.152,0-.152-.228T70.148-14.592Zm-10.032-9.88q-.152,0-.152.228t.152.228a.2.2,0,0,0,.228-.228A.2.2,0,0,0,60.116-24.472ZM39.6-23.56a.2.2,0,0,0-.228.228.2.2,0,0,0,.228.228q.152,0,.152-.228T39.6-23.56Zm47.5-4.18q.152,0,.152.228t-.152.228a.2.2,0,0,1-.228-.228A.2.2,0,0,1,87.1-27.74ZM61.484-25.992q.152,0,.152.228t-.152.228a.2.2,0,0,1-.228-.228A.2.2,0,0,1,61.484-25.992ZM47.272-19q.152,0,.152.228t-.152.228a.2.2,0,0,1-.228-.228A.2.2,0,0,1,47.272-19ZM38.3.076q.152,0,.152.228T38.3.532A.2.2,0,0,1,38.076.3.2.2,0,0,1,38.3.076Zm37.62-31.768a.2.2,0,0,0-.228.228.2.2,0,0,0,.228.228q.152,0,.152-.228T75.924-31.692ZM87.248-19.076q0,.456.228.532L87.7-18.7Q87.476-19.076,87.248-19.076Zm-4.1-11.476q-.228.076-.228.608a.461.461,0,0,0,.228-.114.329.329,0,0,0,.152-.266l-.076-.152ZM32.908-13.072a.447.447,0,0,0-.38.228.739.739,0,0,0-.152.38,1.072,1.072,0,0,1,.342-.342.4.4,0,0,1,.494-.038Q33.212-12.92,32.908-13.072ZM46.36-23.788a.351.351,0,0,0,.38.228v-.456A.351.351,0,0,0,46.36-23.788ZM42.864-3.5q.152,0,.152.266t-.152.266q-.152,0-.152-.266T42.864-3.5ZM88.388-15.732q-.152,0-.152.266t.152.266q.152,0,.152-.266T88.388-15.732Zm3.04,0q.152,0,.152.266t-.152.266q-.152,0-.152-.266T91.428-15.732Zm-59.964-3.5q.152,0,.152.266t-.152.266q-.152,0-.152-.266T31.464-19.228Zm12.92-9.652q-.152,0-.152.266t.152.266q.152,0,.152-.266T44.384-28.88Zm41.8,0q.152,0,.152.266t-.152.266q-.152,0-.152-.266T86.184-28.88Zm2.2,24.092q-.152,0-.152.266t.152.266q.152,0,.152-.266T88.388-4.788ZM42.864-32.376q.152,0,.152.266t-.152.266q-.152,0-.152-.266T42.864-32.376Zm47.728,18.62q-.152,0-.152.266t.152.266q.152,0,.152-.266T90.592-13.756Zm-59.128-20.6q-.152,0-.152.266t.152.266q.152,0,.152-.266T31.464-34.352Zm42.028,12.92q.152,0,.152.266t-.152.266q-.152,0-.152-.266T73.492-21.432Zm3.724-14.212q-.152,0-.152.266t.152.266q.152,0,.152-.266T77.216-35.644Zm-1.976,0q-.152,0-.152.266t.152.266q.152,0,.152-.266T75.24-35.644ZM43.472-6.992q.152,0,.152.266t-.152.266q-.152,0-.152-.266T43.472-6.992ZM29.944-39.52a.583.583,0,0,1-.076.228l.152-.152a.447.447,0,0,0,.228-.38h-.532Q29.944-39.6,29.944-39.52ZM43.7-8.436q-.152,0-.152.19t.152.19q.228,0,.228-.19T43.7-8.436ZM74.556-26.372q-.152,0-.152.19t.152.19q.228,0,.228-.19T74.556-26.372ZM66.88-12.616q-.152,0-.152.19t.152.19q.228,0,.228-.19T66.88-12.616Zm-14.44-22.5q-.152,0-.152.19t.152.19q.228,0,.228-.19T52.44-35.112ZM90.06-9.348q-.152,0-.152.19t.152.19q.228,0,.228-.19T90.06-9.348Zm-59.736-22.5q-.152,0-.152.19t.152.19q.228,0,.228-.19T30.324-31.844ZM87.856-19.38q-.152,0-.152.19t.152.19q.228,0,.228-.19T87.856-19.38ZM43.7-15.2q-.152,0-.152.19t.152.19q.228,0,.228-.19T43.7-15.2ZM37.392-.152q.152,0,.152.228T37.392.3Q37.24.3,37.24.076T37.392-.152Zm24.32-1.976q-.152,0-.152.228t.152.228q.152,0,.152-.228T61.712-2.128ZM69.54-17.252q-.152,0-.152.228t.152.228q.152,0,.152-.228T69.54-17.252ZM32.376-9.576q-.152,0-.152.228t.152.228q.152,0,.152-.228T32.376-9.576ZM90.972-7.6q.152,0,.152.228t-.152.228q-.152,0-.152-.228T90.972-7.6ZM30.856-25.992q-.152,0-.152.228t.152.228q.152,0,.152-.228T30.856-25.992Zm54.416-.228q-.152,0-.152.228t.152.228q.152,0,.152-.228T85.272-26.22ZM46.132-15.048q.152,0,.152.228t-.152.228q-.152,0-.152-.228T46.132-15.048Zm-2.66,3.724q-.152,0-.152.228t.152.228q.152,0,.152-.228T43.472-11.324ZM72.124-34.5q.152,0,.152.228t-.152.228q-.152,0-.152-.228T72.124-34.5ZM50.92-37.62q.152,0,.152.228t-.152.228q-.152,0-.152-.228T50.92-37.62Zm3.5,4.408q-.152,0-.152.228t.152.228q.152,0,.152-.228T54.416-33.212Zm-22.952,9.2q-.152,0-.152.228t.152.228q.152,0,.152-.228T31.464-24.016Zm55.1,1.292q-.152,0-.152.228t.152.228q.152,0,.152-.228T86.564-22.724ZM52.212-36.252q-.152,0-.152.228t.152.228q.152,0,.152-.228T52.212-36.252ZM36.48-.836q-.152,0-.152.228t.152.228q.152,0,.152-.228T36.48-.836Zm25.384-.456q.152,0,.152.228t-.152.228q-.152,0-.152-.228T61.864-1.292Zm9.424-15.5q.152,0,.152.228t-.152.228q-.152,0-.152-.228T71.288-16.8Zm-3.5-8.512q-.152,0-.152.228t.152.228q.152,0,.152-.228T67.792-25.308Zm-36.328-.456q-.152,0-.152.228t.152.228q.152,0,.152-.228T31.464-25.764Zm-.228-.456q-.152,0-.152.228t.152.228q.152,0,.152-.228T31.236-26.22Zm.912,7.676q-.152,0-.152.228t.152.228q.152,0,.152-.228T32.148-18.544Zm8.512-8.132q-.152,0-.152.228t.152.228q.152,0,.152-.228T40.66-26.676ZM62.092-2.584q-.152,0-.152.228t.152.228q.152,0,.152-.228T62.092-2.584ZM89.68-18.544q-.152,0-.152.228t.152.228q.152,0,.152-.228T89.68-18.544ZM42.864-29.488q-.152,0-.152.228t.152.228q.152,0,.152-.228T42.864-29.488ZM31.692-30.78q-.152,0-.152.228t.152.228q.152,0,.152-.228T31.692-30.78ZM45.9-20.748q-.152,0-.152.228t.152.228q.152,0,.152-.228T45.9-20.748ZM82-31.692q-.152,0-.152.228t.152.228q.152,0,.152-.228T82-31.692ZM48.564-20.748q-.152,0-.152.228t.152.228q.152,0,.152-.228T48.564-20.748Zm17.024,0q-.152,0-.152.228t.152.228q.152,0,.152-.228T65.588-20.748Zm-34.352-11.4q-.152,0-.152.228t.152.228q.152,0,.152-.228T31.236-32.148Zm51.68-.836q-.152,0-.152.228t.152.228q.152,0,.152-.228T82.916-32.984Zm-26.068-.228q-.152,0-.152.228t.152.228q.152,0,.152-.228T56.848-33.212Zm-5.472-.456q-.152,0-.152.228t.152.228q.152,0,.152-.228T51.376-33.668ZM73.264-34.5q-.152,0-.152.228t.152.228q.152,0,.152-.228T73.264-34.5ZM47.88-22.268q-.152,0-.152.228t.152.228q.152,0,.152-.228T47.88-22.268Zm.456-.456q-.152,0-.152.228t.152.228q.152,0,.152-.228T48.336-22.724Zm1.52-13.528q.152,0,.152.228t-.152.228q-.152,0-.152-.228T49.856-36.252Zm24.092,0q-.152,0-.152.228t.152.228q.152,0,.152-.228T73.948-36.252ZM65.208-20.52q-.152,0-.152.228t.152.228q.152,0,.152-.228T65.208-20.52Zm20.6-8.74q.152,0,.152.19t-.152.19q-.228,0-.228-.19T85.8-29.26ZM32.528-10.64q-.076-.152-.076.3t.076.3a.306.306,0,0,0,.152-.3A.306.306,0,0,0,32.528-10.64ZM87.1-24.168q-.228,0-.228.19t.228.19q.152,0,.152-.19T87.1-24.168ZM41.8-1.672q.152,0,.152.19t-.152.19q-.228,0-.228-.19T41.8-1.672Zm47.5-2.2q.152,0,.152.19T89.3-3.5q-.228,0-.228-.19T89.3-3.876Zm-1.14-2.2q-.228,0-.228.19t.228.19q.152,0,.152-.19T88.16-6.08Zm2.2-8.74q-.228,0-.228.19t.228.19q.152,0,.152-.19T90.364-14.82ZM75.924-23.1q.152,0,.152.19t-.152.19q-.228,0-.228-.19T75.924-23.1Zm-45.3-7.22q-.228,0-.228.19t.228.19q.152,0,.152-.19T30.628-30.324Zm2.2-1.52q-.228,0-.228.19t.228.19q.152,0,.152-.19T32.832-31.844Zm14.44,10.412h.456a.447.447,0,0,0-.228-.38ZM60.42-27.968h-.38q0-.228.38-.38ZM32.832-29.26l.228-.228-.228-.152-.3.152ZM83.98-26.372q-.152,0-.152.19t.152.19q.152,0,.152-.19T83.98-26.372ZM50.084-35.8q.152,0,.152.19t-.152.19q-.152,0-.152-.19T50.084-35.8Zm22.952,1.748q-.152,0-.152.19t.152.19q.152,0,.152-.19T73.036-34.048ZM49.628-36.936q.152,0,.152.19t-.152.19q-.152,0-.152-.19T49.628-36.936ZM63.384-20.9q.152,0,.152.19t-.152.19q-.152,0-.152-.19T63.384-20.9ZM52.212-37.316q.152,0,.152.19t-.152.19q-.152,0-.152-.19T52.212-37.316ZM72.124-25.08q-.152,0-.152.19t.152.19q.152,0,.152-.19T72.124-25.08Zm-17.708,3.5q-.152,0-.152.19t.152.19q.152,0,.152-.19T54.416-21.584Zm-8.968.684q-.152,0-.152.19t.152.19q.152,0,.152-.19T45.448-20.9ZM33.212-19.608q-.152,0-.152.19t.152.19q.152,0,.152-.19T33.212-19.608ZM41.116-1.9q-.152,0-.152.19t.152.19q.152,0,.152-.19T41.116-1.9ZM82.232-30.552q-.152,0-.152.19t.152.19q.152,0,.152-.19T82.232-30.552Zm-25.156-.912q.152,0,.152.19t-.152.19q-.152,0-.152-.19T57.076-31.464ZM47.5-19.608q.152,0,.152.19t-.152.19q-.152,0-.152-.19T47.5-19.608ZM31.236-38.228q-.152,0-.152.19t.152.19q.152,0,.152-.19T31.236-38.228Zm-.38,9.652q-.152,0-.152.19t.152.19q.152,0,.152-.19T30.856-28.576Zm43.092-6.156q-.152,0-.152.19t.152.19q.152,0,.152-.19T73.948-34.732Zm-42.712-4.56q-.152,0-.152.19t.152.19q.152,0,.152-.19T31.236-39.292ZM88.388-2.964q.152,0,.152.19t-.152.19q-.152,0-.152-.19T88.388-2.964Zm-47.956-21.2q-.152,0-.152.19t.152.19q.152,0,.152-.19T40.432-24.168Zm7.448-.912q-.152,0-.152.19t.152.19q.152,0,.152-.19T47.88-25.08ZM31.692-26.372q-.152,0-.152.19t.152.19q.152,0,.152-.19T31.692-26.372Zm20.14-7.676q-.152,0-.152.19t.152.19q.152,0,.152-.19T51.832-34.048ZM91.2-9.728q-.152,0-.152.19t.152.19q.152,0,.152-.19T91.2-9.728ZM35.416-.988q.152,0,.152.19t-.152.19q-.152,0-.152-.19T35.416-.988Zm56.24-8.74q-.152,0-.152.19t.152.19q.152,0,.152-.19T91.656-9.728ZM44.384-17.4q-.152,0-.152.19t.152.19q.152,0,.152-.19T44.384-17.4Zm45.3-2.2q-.152,0-.152.19t.152.19q.152,0,.152-.19T89.68-19.608ZM53.352-34.732q-.152,0-.152.19t.152.19q.152,0,.152-.19T53.352-34.732ZM82.46-31.464q-.152,0-.152.19t.152.19q.152,0,.152-.19T82.46-31.464ZM68.476-12.844q.152,0,.152.19t-.152.19q-.152,0-.152-.19T68.476-12.844ZM53.352-36.024q.152,0,.152.19t-.152.19q-.152,0-.152-.19T53.352-36.024ZM91.2-15.2q.152,0,.152.19t-.152.19q-.152,0-.152-.19T91.2-15.2ZM56.24-30.552q-.152,0-.152.19t.152.19q.152,0,.152-.19T56.24-30.552ZM32.376-13.908q-.152,0-.152.19t.152.19q.152,0,.152-.19T32.376-13.908Zm14.212-1.52q.152,0,.152.19t-.152.19q-.152,0-.152-.19T46.588-15.428ZM61.712-25.08q.152,0,.152.19t-.152.19q-.152,0-.152-.19T61.712-25.08ZM33.06-8.436q-.152,0-.152.19t.152.19q.152,0,.152-.19T33.06-8.436ZM84.892-27.284q-.152-.076-.152.19t.152.19a.134.134,0,0,0,.152-.152A.243.243,0,0,0,84.892-27.284ZM86.792-19q-.152-.076-.152.114t.152.19Q87.248-19,86.792-19Zm-26.9-10.032q.152,0,.152.19a.272.272,0,0,1-.152.266q-.076.076-.076-.228T59.888-29.032Zm-3.268.152.456-.38H56.62ZM63-1.672a.622.622,0,0,1-.228.38V-1.9ZM32.148-14.592q.152.3.38.3v-.3ZM42.864-4.56q.076.076,0,.19a.256.256,0,0,1-.228.114q-.152-.076,0-.266T42.864-4.56ZM86.412-19.836q-.076-.152-.228,0t0,.228q.152.076.228,0T86.412-19.836Zm4.332,1.748a.134.134,0,0,1,.152.152.438.438,0,0,1-.152.3q-.076.076-.076-.228T90.744-18.088ZM43.472-29.26q-.076-.076-.076.19t.076.19Q43.852-29.032,43.472-29.26Zm-11.1-.684.152-.38h-.38ZM73.72-22.876q-.076-.076-.076.19t.076.19a.243.243,0,0,0,.152-.228A.134.134,0,0,0,73.72-22.876Zm-4.256,8.208a.219.219,0,0,0,.076-.152q.228-.228-.152-.228v.456ZM41.5-28.576q.152-.152-.038-.152t-.19.152q.076.152.152.152T41.5-28.576ZM74.86-24.168a.369.369,0,0,0,.076.19.369.369,0,0,1,.076.19v-.684a.219.219,0,0,0-.076.152A.219.219,0,0,0,74.86-24.168Zm13,.38q0-.152-.152,0t0,.228a.625.625,0,0,0,.19-.038Q88.008-23.636,87.856-23.788ZM45.068-17.632h.38l-.38-.3Zm16.644-6.156q0,.152-.076.152t-.152-.152q0-.152.114-.152T61.712-23.788Zm-28.88-7.3q0-.076-.152-.076t-.152.076q.076.152.19.152T32.832-31.084Zm58.824,18.24q.152,0,.152.076t-.152.152a.134.134,0,0,1-.152-.152Q91.5-12.92,91.656-12.844Zm-41.8-21.2q-.152-.076-.152.076a.134.134,0,0,0,.152.152q.152-.076.152-.152T49.856-34.048ZM31.692-31.692q-.152,0-.152.114t.152.114q.152,0,.152-.076T31.692-31.692Zm52.744.608a.134.134,0,0,0-.152.152.134.134,0,0,0,.152.152l.076-.076A.31.31,0,0,0,84.436-31.084Zm.684,7.98q0-.152-.114-.152t-.114.152q0,.152.076.152T85.12-23.1ZM87.1-19.836q-.152,0-.152.114t.152.114Q87.324-19.836,87.1-19.836ZM89.3-6.992q-.152,0-.152.114t.152.114Q89.528-6.764,89.3-6.992ZM47.88-18.316q.228,0,0,.228a.134.134,0,0,1-.152-.152Q47.728-18.392,47.88-18.316ZM63-17.252q-.152,0-.152.114t.152.114Q63.232-17.024,63-17.252ZM36.936.3q0,.228-.228,0,0-.152.114-.152T36.936.3ZM46.588-22.04q-.152,0-.152.114t.152.114Q46.816-21.812,46.588-22.04ZM45.448-23.1q0-.152-.152,0t0,.228Q45.524-22.876,45.448-23.1Zm26.3-.912q-.152,0-.152.114t.152.114Q71.972-23.864,71.744-24.016ZM89.3-11.932v-.3H89Zm-39.064-25q0,.152-.076.152t-.076-.152q-.076-.152.076-.152T50.236-36.936ZM48.792-20.9q0-.152-.114-.152t-.114.152Q48.564-20.672,48.792-20.9ZM91.2-10.032q0-.152-.114-.152t-.114.152Q91.048-9.8,91.2-10.032ZM42.864-2.356l-.152.076-.076-.076q-.076-.152.114-.152T42.864-2.356ZM35.036-1.9q.228.3.38,0Zm9.12-15.732q-.076-.152-.076.038t.076.19q.152-.076.152-.152T44.156-17.632Zm-1.292-12.54-.152-.076-.076.076q0,.152.114.152T42.864-30.172Zm24.7,5.472-.076-.076q-.152,0-.152.076.076.152.152.152T67.564-24.7ZM50.084-36.556q-.152.38-.228,0l.076-.076ZM42.864-7.828l-.076.152.076.076q.152,0,.152-.114T42.864-7.828ZM57.076-24.852Q57.152-25,57-25a.134.134,0,0,0-.152.152l.076.076Zm1.14-6.384a.219.219,0,0,0-.152.076q-.152.152-.228.152l.076-.228ZM48.64-35.72a.219.219,0,0,1,.076.152.219.219,0,0,0,.076.152q-.228,0-.228-.38Zm9.12,9.728-.152-.076-.076.076q0,.152.076.152T57.76-25.992ZM74.176-21.2q-.076.152-.152.152t-.076-.152l.076-.076ZM50.54-34.732a.468.468,0,0,1,.266.076q.114.076-.038.152ZM31.008-30.78l-.076.152.076.076q.152-.076.152-.152T31.008-30.78Zm54.264,3.5-.076.152.076.076q.152-.076.152-.152T85.272-27.284ZM33.9-8.968q.228,0,.228-.38ZM52.44-24.7l-.076.152.076.076Q52.744-24.548,52.44-24.7Zm3.952-6.992q.152.076.152.152t-.152.076l-.076-.076ZM30.324-32.984l-.076.152.076.076q.152,0,.152-.076T30.324-32.984Zm12.54,20.52-.076.152.076.076q.152,0,.152-.076T42.864-12.464Zm7.9-13.3q-.076,0-.152.152a.675.675,0,0,0-.076.3Zm40.66,12.54q.152,0,.152.076t-.152.076l-.076-.076Q91.352-13.376,91.428-13.224ZM33.212-9.576l-.076-.076-.076.076q0,.152.076.152T33.212-9.576ZM89.68-13.224l-.076.076.076.076q.152,0,.152-.076T89.68-13.224ZM60.572-26.372,60.5-26.3l.076.076q.152,0,.152-.076T60.572-26.372ZM72.352-35.8q.152,0,.152.076t-.152.076l-.076-.076ZM62.092-23.56q.152,0,.152.076t-.152.076l-.076-.076Zm22.268-.228a.31.31,0,0,0-.076.228Q84.36-23.56,84.36-23.788ZM43.4-16.34l-.076.228Q43.4-16.112,43.4-16.34ZM39.824-.608,39.9-.684l.076-.152Z" transform="translate(67.683 69)" fill="#14cb00"/>
            <path id="Path_547" data-name="Path 547" d="M32.452-14.06a.846.846,0,0,1,.076-.38l-.988.456v.3l.228.228a2.637,2.637,0,0,0-.342.456,4.305,4.305,0,0,0-.342.684q.152-.152.228-.152.152,0,.152.228t-.152.228q-.3,0-.3-.152-.152.228-.228.228,0-.228-.076-.912a.865.865,0,0,0-.608-.836.871.871,0,0,0-.266.076q-.19.076-.19.152a2.356,2.356,0,0,1-.152-.532,3.522,3.522,0,0,1-.076-.684l.228-.456a2.356,2.356,0,0,0,.152-.532,3.792,3.792,0,0,0,.076-.456.461.461,0,0,0-.114-.228.461.461,0,0,1-.114-.228l-.076-.152V-16.8h.608a1.244,1.244,0,0,0-.076-.3v-.228a1.669,1.669,0,0,0,.3-.494q.152-.342,0-.494a1.47,1.47,0,0,1-.266.19.661.661,0,0,1-.266.114,1.517,1.517,0,0,0,.342-1.1,1.067,1.067,0,0,1,.646-1.026,2.092,2.092,0,0,1-.988-.76q.38-.152.266-.228a.342.342,0,0,1-.114-.3q-.152,0-.19.076t-.19-.3a2.3,2.3,0,0,0,.266-.494,7.917,7.917,0,0,1,.418-.8q.228-.38.418-.722t.266-.342a1.365,1.365,0,0,1-.228-.836,3.607,3.607,0,0,1,.076-.836,2.222,2.222,0,0,0-.228-.19.754.754,0,0,1-.228-.266l.912-1.216v-.076l.076-.152q0-.3-.19-.38t-.19-.38q.3,0,.3-.228a.583.583,0,0,0-.076-.228,1.759,1.759,0,0,0-.228-.38.687.687,0,0,1,.38-.608,1.466,1.466,0,0,1,.76-.228h.3q.228,0,.3.3-.076.076-.266.3a.66.66,0,0,0-.19.38.681.681,0,0,0,.114.342.321.321,0,0,0,.266.19q.228,0,.418-.57a4.482,4.482,0,0,0,.19-.646,1.237,1.237,0,0,0-.114-.342,1.153,1.153,0,0,1-.114-.418L32.3-30.7l.988-.532q.152.38.19.3t.19-.076q0-.228.114-.266t-.266-.19a4.621,4.621,0,0,1,.8-.76,2.816,2.816,0,0,1,.874-.608.6.6,0,0,1,.456.038,1.628,1.628,0,0,0,.38.114,2.751,2.751,0,0,1,.19-1.064q.19-.456.95-.456v-.608a1.594,1.594,0,0,1,.152-.646q.152-.342.228-.342a1.455,1.455,0,0,0,.912-.532,3.771,3.771,0,0,0,.684-.836q.38.3.418.228t.418-.076q0-.152-.076-.19t.3-.266v.76q.152-.076.494-.266a1.23,1.23,0,0,1,.494-.19q.456,0,.342.494t.494.494a.2.2,0,0,0,.228-.228.7.7,0,0,0-.456-.76.827.827,0,0,1,.646-.456q.342,0,.342-.608v-.38q0-.228-.3-.3l.76-.228a5.836,5.836,0,0,1,.3-1.064.886.886,0,0,1,.912-.608.622.622,0,0,0-.228.38q0,.152.3.38a.923.923,0,0,0,.456.228.619.619,0,0,0,.456-.152q-.152.3.228.456l.152-.152a.219.219,0,0,0,.076-.152,2.155,2.155,0,0,1,.912-.684q.456-.152.608-.988h1.444a.306.306,0,0,1-.152-.3.2.2,0,0,1,.228-.228q.152,0,.152.228a.306.306,0,0,1-.152.3h.38a1.825,1.825,0,0,1,.646-.494,1.9,1.9,0,0,1,.874-.266l.228.228a1.091,1.091,0,0,1,.76-.456.729.729,0,0,0,.532.228,1.273,1.273,0,0,1-.874.95,1.3,1.3,0,0,0-.874,1.026q.38.228.38.19t.38-.038a1.4,1.4,0,0,1,.152-.8,1.122,1.122,0,0,1,.38-.3q.228-.114.418-.228a.8.8,0,0,0,.266-.57,1.727,1.727,0,0,1,.19-.684.652.652,0,0,1,.19-.19.6.6,0,0,0,.152-.114.935.935,0,0,0,.152-.38l.228.684q.076,0,.418-.038a3.088,3.088,0,0,1,.684,0,1.558,1.558,0,0,1,.608.19.561.561,0,0,1,.266.532.729.729,0,0,0-.228.532h.456q.076,0,.342-.266t.342-.266a1.225,1.225,0,0,1,.532.266,1.575,1.575,0,0,0,.456.266h.456q.3,0,.38-.114t.456-.114q.38.152.646.228t.494.152a1.919,1.919,0,0,1,.456.228,2.233,2.233,0,0,1,.532.608,2.082,2.082,0,0,0,.8.418,8.531,8.531,0,0,0,1.216.3q.646.114,1.14.228t.494.342a.256.256,0,0,1-.114.228.342.342,0,0,0-.114.3q0,.608.532.608h.988v.456q.456,0,.38.228t.38.456a2.975,2.975,0,0,1,.418.076,2.324,2.324,0,0,1,.494.152,2.634,2.634,0,0,1,.8.95,9.229,9.229,0,0,1,.722,1.6,16.014,16.014,0,0,1,.494,1.71,6.226,6.226,0,0,1,.19,1.216q0,.608-.076,1.6a2.153,2.153,0,0,1-.38,1.292l-.532.456a1,1,0,0,0-1.026-.76,4,4,0,0,0-1.406.076,1.955,1.955,0,0,1-.874-1.558,3.541,3.541,0,0,0-.57-1.786,3.941,3.941,0,0,0-.988-.95q-.76-.57-.988-.722l.152-.152A.219.219,0,0,0,63-33.9a.817.817,0,0,1-.456-.152q-.228-.152-.228.456l-.532-1.216q-.912-.608-1.558-1.026a2.953,2.953,0,0,0-1.634-.418.529.529,0,0,0-.228.038.529.529,0,0,1-.228.038h-.228a1.021,1.021,0,0,0-.342.418,1.23,1.23,0,0,0-.19.494.1.1,0,0,1-.152,0h-.076a.219.219,0,0,0-.076-.152l-.152-.152a.524.524,0,0,1-.19.342.524.524,0,0,1-.342.19.6.6,0,0,1-.38.076.31.31,0,0,0-.228.076v-1.14a4.57,4.57,0,0,1-.76-.152,4.962,4.962,0,0,1-.76-.228q0-.076-.152-.228a.219.219,0,0,0-.152-.076.487.487,0,0,0-.456.3H49.856a5.379,5.379,0,0,1-.95.418q-.722.266-1.52.57t-1.406.57q-.608.266-.684.494a1.035,1.035,0,0,0-.038.722q.114.266-.494.57a.539.539,0,0,0-.532-.38l-.152.076H44a18.876,18.876,0,0,0-3.572,4.37,10.19,10.19,0,0,0-1.6,5.358v.608a.818.818,0,0,0-.418.456,2.057,2.057,0,0,0-.114.722,6.924,6.924,0,0,0,.038.76q.038.342.038.494,0,.684.076,1.824a11.214,11.214,0,0,0,.38,2.242,6.461,6.461,0,0,0,.874,1.938,2.049,2.049,0,0,0,1.634.912.822.822,0,0,0-.228.608,2.179,2.179,0,0,0,.456,1.406,4.494,4.494,0,0,0,1.216,1.026l-.3.532a6.459,6.459,0,0,1,1.672.836q.76.532,1.558,1.026a14.51,14.51,0,0,0,1.634.874,4.544,4.544,0,0,0,1.9.38q.076,0,.874-.114t1.71-.266q.912-.152,1.71-.3a5.543,5.543,0,0,0,.95-.228q.076-.076.456-.418t.532-.342a2.889,2.889,0,0,1,.95-.038q.8.038.95.038a4.163,4.163,0,0,0,1.254-.38,3.091,3.091,0,0,1,1.33-.3.9.9,0,0,1,.57.114.59.59,0,0,0,.418.114,3.413,3.413,0,0,0,1.216-.266q.684-.266,1.406-.608T64.98-10.6a3.413,3.413,0,0,1,1.216-.266q0,.076.228.152a1.244,1.244,0,0,0,.3.076,1.237,1.237,0,0,0,.342-.114,1.237,1.237,0,0,1,.342-.114,4.443,4.443,0,0,1,.38.456q.228.3.3.3a.323.323,0,0,0,.3,0,.884.884,0,0,0,.228-.152v.912q0,.076-.266.342t-.266.342q0,.076.228.266t.3.266q-.912.152-.76.912l-.228-.456a.727.727,0,0,0-.57.38,5.081,5.081,0,0,0-.494.912,10.306,10.306,0,0,0-.38,1.026q-.152.494-.228.8l-.228-.228a3.114,3.114,0,0,1-.494.8,1.009,1.009,0,0,1-.8.418.581.581,0,0,1-.418-.19,1.692,1.692,0,0,0-.57-.342v.532a1.867,1.867,0,0,1-.684-.152l-.684-.38h-.3q.532.3.532.684a.592.592,0,0,1-.228.532,4.934,4.934,0,0,0-.456-.418,2.221,2.221,0,0,1-.228-.19l-.076-.076a.3.3,0,0,1-.228.3q-.228.076-.532.19a2.467,2.467,0,0,0-.57.3.878.878,0,0,0-.342.57.66.66,0,0,1-.38-.19.543.543,0,0,1-.228-.418A1.643,1.643,0,0,0,58.6-1.6a1.246,1.246,0,0,1-.57-.19q-.342-.19-.342-.114,0,.38-.228.418a2.389,2.389,0,0,1-.38.038H56.62l.3-.228h-.3a2.009,2.009,0,0,0-1.292.608A2.514,2.514,0,0,0,54.492.152a2.221,2.221,0,0,1-.228.19.505.505,0,0,1-.3.114q-.228,0-.228-.3a4.6,4.6,0,0,1-.38.3A.923.923,0,0,1,52.9.684a1.764,1.764,0,0,1-.57-.19q-.418-.19-.266-.57A4.142,4.142,0,0,1,49.248.988a1.549,1.549,0,0,0-.114-.532.471.471,0,0,0-.494-.3,1.411,1.411,0,0,0-.38.342,2.324,2.324,0,0,0-.3.418l.228.228-.228.3L47.2.912a1.47,1.47,0,0,1-.266.19.669.669,0,0,0-.266.266,4.443,4.443,0,0,0-.456-.38,1.977,1.977,0,0,0-.532-.3A2.649,2.649,0,0,0,45.22.8a2.65,2.65,0,0,1-.456.114A2.93,2.93,0,0,1,44.118.76q-.494-.152-.57-.3l-.532.456a.991.991,0,0,0-.76-.456,5.51,5.51,0,0,1,.95-.266q.57-.114.57-.57,0-.38-.532-.38a.376.376,0,0,0-.418.38q-.038.38-.57.38-.076,0-.342-.418a1.341,1.341,0,0,0-.8-.57l-.228-.456V-1.52a.31.31,0,0,1,.076-.228.884.884,0,0,1,.152-.228.483.483,0,0,0-.3-.38,1.435,1.435,0,0,0-.456-.076.342.342,0,0,0-.3.114.342.342,0,0,1-.3.114q-.3,0-.38-.38a1.7,1.7,0,0,0-.228-.608.505.505,0,0,0-.3.114.726.726,0,0,0-.228.418l.228.228q0,.152-.228.3a.783.783,0,0,1-.3.152,1.333,1.333,0,0,1-.874-.532A7.762,7.762,0,0,1,36.48-3.8a10.634,10.634,0,0,1-.76-1.52,3.454,3.454,0,0,1-.3-1.14,1.32,1.32,0,0,0-.266.418.569.569,0,0,1-.342.342,2,2,0,0,0-.38-1.254,5.053,5.053,0,0,0-.8-.836,4.361,4.361,0,0,0-.8-.532q-.38-.19-.38-.342h.532q0-.456-.684-.684l.228-.3a2.948,2.948,0,0,1-.152-.38l-.3-.608a1.01,1.01,0,0,0-.646-.266q-.418-.038-.418-.57a1.049,1.049,0,0,1,.76.228h.3a2.029,2.029,0,0,0,.342-1.216q-.038-.608-.114-1.216-.152,0-.152-.266t.152-.266ZM29.64-18.7h-.456a.88.88,0,0,1,.266-.646,1.235,1.235,0,0,1,.646-.342ZM53.276-42.028a2.222,2.222,0,0,0,.228.19.461.461,0,0,0,.228.114q.152,0,.266-.228a.9.9,0,0,0,.114-.38,3.508,3.508,0,0,0-.494.038A.385.385,0,0,0,53.276-42.028ZM42.028-39.444q0-.076.152-.228a.219.219,0,0,0,.076-.152.4.4,0,0,1,.342.342,3.143,3.143,0,0,1,.038.418Q42.028-39.064,42.028-39.444ZM47.2-.456q-.228,0-.228.152a.243.243,0,0,0,.152.228.306.306,0,0,0-.152.3A.2.2,0,0,0,47.2.456q.152,0,.19-.228t-.114-.3A.185.185,0,0,0,47.386-.3.18.18,0,0,0,47.2-.456ZM64.448-5.548q-.152,0-.152.266t.152.266q.228,0,.228-.266T64.448-5.548ZM29.108-18.316q.228,0,.228.266t-.228.266q-.152,0-.152-.266T29.108-18.316Zm2.66-9.576q-.152,0-.152.266t.152.266q.228,0,.228-.266T31.768-27.892ZM55.024-42.028q-.228,0-.228.266t.228.266q.152,0,.152-.266T55.024-42.028ZM29.412-22.8q.152,0,.152.266t-.152.266q-.228,0-.228-.266T29.412-22.8Zm0-.988q.152,0,.152.266t-.152.266q-.228,0-.228-.266T29.412-23.788ZM59.432-2.2q.152,0,.152.266t-.152.266q-.228,0-.228-.266T59.432-2.2ZM40.888-37.924q.152,0,.152.266t-.152.266q-.228,0-.228-.266T40.888-37.924Zm-6.156,4.332q.152,0,.152.266t-.152.266q-.228,0-.228-.266T34.732-33.592ZM51.6-42.256q-.228,0-.228.266t.228.266q.152,0,.152-.266T51.6-42.256Zm-15.884,7.9q.152,0,.152.266t-.152.266q-.228,0-.228-.266T35.72-34.352Zm13.224,35.8a.512.512,0,0,1,.228.456q-.456,0-.532-.228ZM41.8-38.38a.657.657,0,0,1,.228.456l-.456.228ZM31.008-22.268q-.152,0-.152.228t.152.228a.2.2,0,0,0,.228-.228A.2.2,0,0,0,31.008-22.268ZM48.64.456a.2.2,0,0,1,.228.228.2.2,0,0,1-.228.228q-.152,0-.152-.228T48.64.456Zm4.332-42.94q-.152,0-.152.228t.152.228a.2.2,0,0,0,.228-.228A.2.2,0,0,0,52.972-42.484Zm-6.08,41.04q-.152,0-.152.228t.152.228a.2.2,0,0,0,.228-.228A.2.2,0,0,0,46.892-1.444Zm11.476,0a.2.2,0,0,1,.228.228.2.2,0,0,1-.228.228q-.152,0-.152-.228T58.368-1.444ZM37.164-4.1q-.152,0-.152.228t.152.228a.2.2,0,0,0,.228-.228A.2.2,0,0,0,37.164-4.1Zm-5.4-24.928q-.152,0-.152.228t.152.228A.2.2,0,0,0,32-28.8.2.2,0,0,0,31.768-29.032ZM34.732-30.7a.2.2,0,0,0-.228.228.2.2,0,0,0,.228.228q.152,0,.152-.228T34.732-30.7ZM63.992-5.776a.2.2,0,0,0-.228.228.2.2,0,0,0,.228.228q.152,0,.152-.228T63.992-5.776ZM35.72-7.22a.2.2,0,0,0-.228.228.2.2,0,0,0,.228.228q.152,0,.152-.228T35.72-7.22Zm21.2-35.264q.152,0,.152.228t-.152.228a.2.2,0,0,1-.228-.228A.2.2,0,0,1,56.924-42.484ZM30.4-16.568a.2.2,0,0,0-.228.228.2.2,0,0,0,.228.228q.152,0,.152-.228T30.4-16.568ZM47.956-.3a.2.2,0,0,0-.228.228.2.2,0,0,0,.228.228q.152,0,.152-.228T47.956-.3ZM33.82-29.716a.2.2,0,0,0-.228.228.2.2,0,0,0,.228.228q.152,0,.152-.228T33.82-29.716Zm22.192-13q.152,0,.152.228t-.152.228a.2.2,0,0,1-.228-.228A.2.2,0,0,1,56.012-42.712Zm6.536,7.676q-.152,0-.152.228a.2.2,0,0,0,.228.228q0,.228.152.228V-34.5a.31.31,0,0,1-.076-.228Q62.7-35.036,62.548-35.036ZM48.412-42.712a1.918,1.918,0,0,1-.228.456q-.152.228-.228.228h-.3Zm-3.648,1.9q.152,0,.152.266t-.152.266q-.152,0-.152-.266T44.764-40.812Zm13.148-1.444q.152,0,.152.266t-.152.266q-.152,0-.152-.266T57.912-42.256ZM43.776.912q.152,0,.152.266t-.152.266q-.152,0-.152-.266T43.776.912ZM44-.076q-.152,0-.152.266T44,.456q.152,0,.152-.266T44-.076ZM40.356-36.708q-.152,0-.152.266t.152.266q.152,0,.152-.266T40.356-36.708ZM43.244-.456q.228,0,.228.19t-.228.19q-.152,0-.152-.19T43.244-.456Zm24.4-8.436q-.152,0-.152.228t.152.228q.152,0,.152-.228T67.64-8.892ZM56.164-1.444q.152,0,.152.228t-.152.228q-.152,0-.152-.228T56.164-1.444ZM34.276-6q.152,0,.152.228t-.152.228q-.152,0-.152-.228T34.276-6ZM63.46-33.82q-.152,0-.152.228t.152.228q.152,0,.152-.228T63.46-33.82ZM45.448-41.268q.152,0,.152.228t-.152.228q-.152,0-.152-.228T45.448-41.268Zm18.012,1.9q-.152,0-.152.228t.152.228q.152,0,.152-.228T63.46-39.368ZM51.832.456q.152,0,.152.228t-.152.228q-.152,0-.152-.228T51.832.456ZM64.98-39.14q.152,0,.152.228t-.152.228q-.152,0-.152-.228T64.98-39.14ZM37.7-3.876q-.152,0-.152.228t.152.228q.152,0,.152-.228T37.7-3.876ZM52.516-.3q0,.38.228.456V.076l.076-.152Q52.82-.38,52.516-.3ZM67.868-11.476q.152,0,.152.19t-.152.19q-.152,0-.152-.19T67.868-11.476ZM56.924-.988v.3h-.3v-.3ZM50.616-.3a.657.657,0,0,0,.228.456l.228-.228Zm12.16-40.2q.076.152-.038.228t-.19,0q-.152-.076,0-.228T62.776-40.508ZM30.7-22.344q-.3.152-.3.3v.228l.3-.456Zm.836-.228h.532l-.3-.228Zm-1.14,7.22q-.3,0-.3.228v.228Zm1.368.228q-.076-.152-.19,0t-.038.228a.31.31,0,0,0,.228-.076A.1.1,0,0,0,31.768-15.124Zm8.588-22.8q0,.152-.076.152t-.152-.152q0-.152.114-.152T40.356-37.924Zm25.08.76q-.152-.076-.152.076a.134.134,0,0,0,.152.152q.152-.076.152-.152T65.436-37.164ZM32.528-28.12q-.152,0-.152.114t.152.114q.152,0,.152-.076T32.528-28.12Zm23.18-8.588q-.152-.076-.152.114t.152.19Q55.86-36.708,55.708-36.708ZM53.276-.076a.134.134,0,0,0-.152.152q0,.152.152.076.152,0,.152-.076T53.276-.076Zm2.736-.608q.228,0,0,.228a.134.134,0,0,1-.152-.152Q55.86-.76,56.012-.684ZM34.048-27.36q-.152-.076-.152.076a.134.134,0,0,0,.152.152Q34.276-27.36,34.048-27.36ZM66.956-5.776q.228,0,0,.228A.134.134,0,0,1,66.8-5.7Q66.8-5.852,66.956-5.776Zm-11.7,5.7Q55.4,0,55.4.076t-.152.076Q55.1.228,55.1.076A.134.134,0,0,1,55.252-.076ZM46.436-.684q.076-.152-.076-.152a.134.134,0,0,0-.152.152Q46.436-.456,46.436-.684Zm-3.952,0a.544.544,0,0,0,.3-.532Zm3.192.608v-.38L45.448-.3Zm-12.16-28.5-.152-.076-.076.076q0,.152.076.152T33.516-28.576Zm-1.748,1.444q.3,0,.3-.228Z" transform="translate(137.683 75)" fill="red"/>
            <path id="Path_548" data-name="Path 548" d="M10.918-1.219q.159,0,.159.212T10.918-.8q-.053,0-.053-.212a1.227,1.227,0,0,1-.371.583.953.953,0,0,1-.742.371L9.328-.371A2.176,2.176,0,0,1,8.9-.8a.258.258,0,0,1,.053-.132,1.026,1.026,0,0,0,.106-.292.153.153,0,0,1-.106-.053A.617.617,0,0,0,8.8-1.378l-.265.742Q8.374-.742,8.374-.8A.773.773,0,0,0,8.056-.9a2.645,2.645,0,0,0-.318-.053v-.265q0-.053-.345-.318t-.5-.371a.546.546,0,0,0-.212-.106q0-.424-.318-.424v.689l-.318-.159a.122.122,0,0,0-.133.079q-.027.08-.186.08a.464.464,0,0,1-.45-.265,1.176,1.176,0,0,1-.133-.53.17.17,0,0,0-.159.106q-.053.106-.106-.371l-.318.318q-.159-.424-.371-.424a.788.788,0,0,1-.4-.106.934.934,0,0,1-.318-.556,7.939,7.939,0,0,1-.133-1.829q0-.159.027-.583t.026-.53q.159-.053.318-.451A7.251,7.251,0,0,0,4-7.9q.132-.53.265-1.033A3.051,3.051,0,0,1,4.558-9.7.652.652,0,0,0,4.8-9.832q.185-.132.186-.185a1.137,1.137,0,0,0,.026-.477q-.027-.371-.026-.477a3.136,3.136,0,0,0,.239-.636,4.294,4.294,0,0,1,.344-.848,2.7,2.7,0,0,1,.4-.715,2.462,2.462,0,0,0,.4-.769v-.742a.72.72,0,0,1,.212-.451.688.688,0,0,1,.291-.159.833.833,0,0,0,.265-.106q.133-.079.133-.345a4.489,4.489,0,0,0,.053-.875,3.62,3.62,0,0,0-.053-.822,2.515,2.515,0,0,0,.609-.954A7.337,7.337,0,0,0,8.162-19.5q.106-.583.186-1.192a5.6,5.6,0,0,1,.291-1.193q.265-.265.265-.371a6.845,6.845,0,0,0,.769-2.332,13.492,13.492,0,0,1,.609-2.491q.212-.424.424-.45t.424-.45a.91.91,0,0,1-.265-.265.775.775,0,0,1-.159-.265.47.47,0,0,1-.053-.212h.477q-.212-.159-.45-.344a.749.749,0,0,0-.451-.186q-.053,0-.265.239t-.5.53q-.291.292-.53.583t-.292.345a1.7,1.7,0,0,0-.265.742q-.053.424-.424.424a.235.235,0,0,1-.106-.027.235.235,0,0,0-.106-.026.364.364,0,0,0,.079-.185.361.361,0,0,0-.027-.239q0-.106-.318-.292t-.689-.424q-.371-.238-.742-.451a2.637,2.637,0,0,1-.477-.318q-.159-.106-.344-.238a.652.652,0,0,0-.239-.133.508.508,0,0,0-.212.133.818.818,0,0,0-.212.238l-1.166-1.59a1.323,1.323,0,0,0-.345-.822,1.055,1.055,0,0,0-.663-.186l-.265.212q-.053,0-.079-.106t.026-.106q.212,0,.212-.424t-.159-.5a1.881,1.881,0,0,0-.53-.132v-.212a.322.322,0,0,1,.079-.159.352.352,0,0,0,.079-.212l.106.212q.159,0,.159-.212a.216.216,0,0,0-.053-.159q-.106-.106-.106-.159v-.371a.153.153,0,0,1,.106.053.617.617,0,0,0,.159.106,1.222,1.222,0,0,1,0-.53,1.024,1.024,0,0,1,.159-.53q0-.106.265-.238t.265-.186v-.371a.141.141,0,0,1,.159-.159.391.391,0,0,1,.185.371q-.026.212.239.318l.265-.53L3.5-35.139v-.212a2.233,2.233,0,0,1,.053-.371,1.643,1.643,0,0,1,.106-.371q.212.159.132.186a.122.122,0,0,0-.08.132,1.4,1.4,0,0,0,.716-.318.874.874,0,0,0,.451-.689.232.232,0,0,1,.106.344.232.232,0,0,0,.106.345,3.387,3.387,0,0,1,.186-.53q.079-.159.4-.159h.212A1.016,1.016,0,0,1,6.2-36.7a1.135,1.135,0,0,0,.265.08,1.218,1.218,0,0,0,.689-.212,1.218,1.218,0,0,1,.689-.212,4.328,4.328,0,0,1,.875.106q.5.106.5.742v.318q0,.106-.159.159v-.265a.153.153,0,0,1-.106-.053.606.606,0,0,0-.106.238,1.137,1.137,0,0,0-.053.292q0,.159.106.159.636-.477.875-.689a2.827,2.827,0,0,1,1.033-.424,1.819,1.819,0,0,0-.106.742,1.007,1.007,0,0,0,.212-.583h.689v.583a.946.946,0,0,1,.265-.265.546.546,0,0,1,.212-.106.311.311,0,0,1,.265.159,2.963,2.963,0,0,1,.185.318,1.745,1.745,0,0,0,.159.265q.079.106.133,0a.352.352,0,0,0,.212-.079.322.322,0,0,1,.159-.08q.212,0,.4.318a.54.54,0,0,1,.026.583l.9.583q-.159,0-.159.212l.053.159q.053.106.106.106l.212-.477a.858.858,0,0,0,.477.636q-.159.265.106.265.053,0,.159-.159v1.06q-.159,0-.159.212a.867.867,0,0,0,.053.212q.053.159.106.159a.153.153,0,0,0,.053-.106l.106-.159a.347.347,0,0,1,.159-.159,1.1,1.1,0,0,0,.292.848,1.174,1.174,0,0,1,.292.9h.265a1.438,1.438,0,0,0,.424,1.06l.424-.689v.318a.475.475,0,0,1,.239.08q.132.079.027.291a.153.153,0,0,1-.053.106,1.3,1.3,0,0,1,.477,1.166l-.106.212a1.316,1.316,0,0,0-.053.477v.424l-.159-.212q-.212.265-.291.371a1.392,1.392,0,0,0-.132.212,1.037,1.037,0,0,0,.079.768,4.5,4.5,0,0,0,.344.557q-.212,0-.265.424l.265.636q-.106.265-.185.238a.587.587,0,0,0-.186-.027,1.922,1.922,0,0,0,.186.822,1.922,1.922,0,0,1,.185.822,2.28,2.28,0,0,1-.053.424,2.644,2.644,0,0,0-.053.318q0,.053-.132.185t-.133.186a3.568,3.568,0,0,0,.053.583,3.252,3.252,0,0,1,.053.424.357.357,0,0,1-.159.318.6.6,0,0,0-.212.212v-.212a.477.477,0,0,1,.159-.424q-.106-.212-.212-.159a.47.47,0,0,1-.212.053v1.431q.106,0,.106.212a.513.513,0,0,1-.08.345.254.254,0,0,1-.186.079.587.587,0,0,1-.185-.026q-.08-.027-.132.132v-.212a2.191,2.191,0,0,1,.026-.292.268.268,0,0,1,.186-.239l-.212-.053a.376.376,0,0,0-.4.318,2.836,2.836,0,0,0-.08.689h.265l-.583.53.318.159q0,.106-.212.185a1.015,1.015,0,0,1-.318.08q-.212-.106-.477-.212t-.265-.212v-.371q-.106.159-.212.159l-.159-.159-.159.053v.9l.159-.159q.106-.106.159,0,.053,0,.132.106a.352.352,0,0,1,.08.212.553.553,0,0,1,0,.344q-.053.239-.106.239h-.8l.106.371h.689q.106-.053.106-.106.106-.106.159-.106a.651.651,0,0,1,.239.053.335.335,0,0,1,.185.159q.212-.265.318-.424a2.594,2.594,0,0,0,.159-.265q.053.159.186.477a1.529,1.529,0,0,1,.133.583.628.628,0,0,1-.106.4.56.56,0,0,1-.265.185,1.338,1.338,0,0,0-.318.159.775.775,0,0,0-.265.371.141.141,0,0,1,.159.159.872.872,0,0,1-.053.265,2.056,2.056,0,0,1-.106.265q-.053.159-.132.477a4.529,4.529,0,0,1-.186.583q-.106.265-.159.424t-.053,0a4.179,4.179,0,0,0-.08-.821,2.85,2.85,0,0,1-.026-.875q-.318.265-.451.186a.929.929,0,0,0-.451-.08q0,.106-.026.345t-.053.5a2.4,2.4,0,0,0,0,.5,1.965,1.965,0,0,0,.079.4q.212-.053.238-.345t.08-.186q.106,0,.212.186a.652.652,0,0,1,.106.292.334.334,0,0,0-.344.186,1.067,1.067,0,0,0-.08.424q0,.239.026.5t.027.424a.344.344,0,0,0,.318-.186.344.344,0,0,1,.318-.185.732.732,0,0,1-.132.477,1.157,1.157,0,0,1-.318.265,2.385,2.385,0,0,0-.345.238,2.037,2.037,0,0,0-.318.345.258.258,0,0,1,.132.053.178.178,0,0,1,.079.159.094.094,0,0,1,.106.106,1.882,1.882,0,0,0-.689.106,1.418,1.418,0,0,1-.53.106v.371H12.19l-.159-.159-.106,1.113a.178.178,0,0,0,.08.159.327.327,0,0,0,.186.053q.106,0,.106-.212a.871.871,0,0,0-.026-.212.3.3,0,0,1,.026-.212l.424.636h.636a2.979,2.979,0,0,0,.769-.106,2.979,2.979,0,0,1,.768-.106h.265a2.7,2.7,0,0,1,.53.053q.265.053.477.106t.212.159a.816.816,0,0,1,.318-.132,1.666,1.666,0,0,1,.265-.026,1.593,1.593,0,0,0,.265.053h.265l.265.106A.245.245,0,0,0,18.02-7.5q.053-.185.318-.185.106,0,.159.132a.206.206,0,0,0,.212.133.25.25,0,0,0,.265-.212h2.332a.4.4,0,0,1,.451-.239q.344.027.5.027a2.61,2.61,0,0,1,1.007.159,2.362,2.362,0,0,0,1.166.053.857.857,0,0,0,.133.345q.132.239.132.08,0-.212.265-.212a.19.19,0,0,0-.106.186q0,.132.106.132t.132-.132a.152.152,0,0,0-.079-.186q.318,0,.477.477a.357.357,0,0,1,.318-.159q.106,0,.106.424l-.265.318h.424a5.8,5.8,0,0,0-.5.291.7.7,0,0,0-.344.451h.212a.358.358,0,0,0-.159.239,1.137,1.137,0,0,0-.053.292l.424.424-.053.159a.407.407,0,0,0-.053.159h.53v-.477l-.265.159q.159-.477.53-.477a7.514,7.514,0,0,1-.106,1.06q-.106.689-.583.689a.67.67,0,0,1-.318-.371l.106-.159q-.477,0-.477.689a3.59,3.59,0,0,0-.265-.53l-.159.371a.245.245,0,0,0-.265-.159.573.573,0,0,0-.424.159q.106-.212.239-.53a1,1,0,0,0,.08-.583q.318.106.371.583a.573.573,0,0,0,.159-.424.436.436,0,0,0-.027-.133.436.436,0,0,1-.026-.132.993.993,0,0,1-.318-.186q-.159-.132-.159-.027l-.318.636q0,.053-.106.053a.216.216,0,0,1-.159-.053l-.159.265q.159.053.159.371a.357.357,0,0,1-.159.318l-.106-.318a2.056,2.056,0,0,0-.106.265.665.665,0,0,1-.159.265.647.647,0,0,0-.159-.4.641.641,0,0,0-.371-.079q0,.053.08.106t.026.159a.83.83,0,0,1-.159.212l-.212.212V-3.6a.634.634,0,0,1-.53-.291.682.682,0,0,0-.583-.292,3.993,3.993,0,0,0,.159.689q.106.106.159.026t.106-.079L21.73-3.6a1.609,1.609,0,0,1-.159.583q.159,0,0,.212-.106,0-.106-.159-.371.742-.636.742a.83.83,0,0,1-.636-.292.83.83,0,0,0-.636-.292q-.106,0-.159.159a.245.245,0,0,1-.265.159.738.738,0,0,1-.318-.053A.59.59,0,0,0,18.55-2.6a1.766,1.766,0,0,1-.053.636.153.153,0,0,1-.106.053q0-.106-.132-.106a.19.19,0,0,1-.185-.106.868.868,0,0,0-.106.133q-.053.08-.106.079a1.693,1.693,0,0,1-.4.106,2.711,2.711,0,0,1-.4.053v-.265a.565.565,0,0,1-.292-.053q-.079-.053-.238.159a.406.406,0,0,0,.08-.344q-.027-.238-.132-.239t-.106-.159q0-.159.106-.159l.159.159a.216.216,0,0,1,.053-.159l-.212-.424L16.112-2.12q0-.106-.292-.238a1.557,1.557,0,0,0-.344-.133q-.212,0-.265.345a4.7,4.7,0,0,0-.053.716,1.427,1.427,0,0,1-.451-.08.568.568,0,0,1-.344-.4.447.447,0,0,0,.185-.344.645.645,0,0,1,.186-.4l.159-.159v-.212a3.659,3.659,0,0,1-.768.424.891.891,0,0,0-.5.742,1.892,1.892,0,0,0-.159-.477q-.106-.318-.318-.318-.053,0-.212.159l-.159.159a.2.2,0,0,0,.026-.185q-.027-.132-.08-.132-.106,0-.079.186t.132.185l-.159.159q-.106,0-.106-.159H11.13l.265.371a.434.434,0,0,1-.265.159.322.322,0,0,1-.159-.08.322.322,0,0,0-.159-.079q-.106,0-.106.159a.237.237,0,0,1,.132.159.871.871,0,0,1,.027.212ZM7.526-2.6a1.454,1.454,0,0,0,.133.424,1.454,1.454,0,0,1,.132.424A1.137,1.137,0,0,1,8-2.12a.517.517,0,0,0,.106-.371V-2.7q0-.106-.159-.106l-.212.159Zm6.413-11.766a.477.477,0,0,0,.159.424q.106,0,.159-.265a1.083,1.083,0,0,0,0-.477A.281.281,0,0,0,13.939-14.363ZM8.9-7.632a.565.565,0,0,0-.053-.292A.156.156,0,0,0,8.719-8a.779.779,0,0,1-.186-.026.237.237,0,0,1-.159-.133v.53ZM10.123-19.61a1.519,1.519,0,0,0,.159.689.447.447,0,0,0,.186-.344q.026-.239.026-.344ZM8.9-2.279q-.106,0-.265.291a1.093,1.093,0,0,0-.159.5.376.376,0,0,0,.371-.265A.916.916,0,0,0,8.9-2.279ZM9.116-30.21q-.212,0-.265.265a2.7,2.7,0,0,0-.053.53q.212,0,.265-.265A2.7,2.7,0,0,0,9.116-30.21ZM14.628-11.5a1.814,1.814,0,0,1-.132.371.3.3,0,0,1-.292.159q-.106,0-.106-.212ZM9.858-34.132q0,.318.265.318l-.106-.8A.648.648,0,0,0,9.858-34.132Zm-.742,16.7q-.371,0-.371.477a.311.311,0,0,0,.265-.159A.57.57,0,0,0,9.116-17.437Zm1.325-2.968q-.159,0-.159.212t.159.212q.106,0,.106-.212T10.441-20.405Zm0,17.172q-.159,0-.159.212t.159.212q.106,0,.106-.212T10.441-3.233ZM7.95-8.056a1.33,1.33,0,0,1,.318-.53L7.95-8.745ZM23.426-3.021q.159,0,.159.185t-.159.186q-.106,0-.106-.186T23.426-3.021Zm-7.42-28.09q-.159,0-.159.185t.159.185q.106,0,.106-.185T16.006-31.111ZM8.268-1.749q-.159,0-.159.185t.159.186q.106,0,.106-.186T8.268-1.749ZM8.8-9.487q-.106,0-.106.186t.106.186q-.159.159,0,.159a.1.1,0,0,0,.053-.159A.526.526,0,0,0,8.9-9.355Q8.9-9.487,8.8-9.487Zm3.5,6.254q-.053,0-.053.212t.053.212q.159,0,.159-.212T12.3-3.233Zm12.667-3.71q-.106,0-.106.212t.106.212q.106,0,.106-.212T24.963-6.943Zm.689,0q-.106,0-.106.212t.106.212q.106,0,.106-.212T25.652-6.943ZM14.1-11.713q.106,0,.106.212t-.106.212q-.106,0-.106-.212T14.1-11.713Zm-4.77-.212q-.106,0-.106.212t.106.212q.106,0,.106-.212T9.328-11.925ZM14.363-9.7q.106,0,.106.212t-.106.212q-.106,0-.106-.212T14.363-9.7ZM22.1-3.233q.106,0,.106.212t-.106.212Q22-2.809,22-3.021T22.1-3.233ZM8.533-4.187q-.106,0-.106.212t.106.212q.106,0,.106-.212T8.533-4.187ZM8.109-1.378Q8-1.378,8-1.166t.106.212q.106,0,.106-.212T8.109-1.378Zm1.219-15.9q-.106,0-.106.212t.106.212q.106,0,.106-.212T9.328-17.278ZM11.236-23q-.106,0-.106.212t.106.212q.106,0,.106-.212T11.236-23Zm5.035,0q-.106,0-.106.212t.106.212q.106,0,.106-.212T16.271-23ZM7.155-1.219q.106,0,.106.212T7.155-.8q-.106,0-.106-.212T7.155-1.219Zm8.851-1.8h.265a.47.47,0,0,0-.053-.212.341.341,0,0,0-.212-.159Zm8.8-1.8q-.106,0-.106.159t.106.159a.141.141,0,0,0,.159-.159A.141.141,0,0,0,24.8-4.823ZM9.646-17.013a.141.141,0,0,0-.159.159.141.141,0,0,0,.159.159q.106,0,.106-.159T9.646-17.013Zm-1.378.159a.141.141,0,0,0-.159.159.141.141,0,0,0,.159.159q.106,0,.106-.159T8.268-16.854ZM5.247-10.971a.427.427,0,0,0-.212.424h.212ZM5.353-35.51q-.053,0-.053.186t.053.185q.159,0,.159-.185T5.353-35.51Zm7.155,20.087q-.159,0-.159.185t.159.186q.053,0,.053-.186T12.508-15.423ZM16.7-19.451q-.159,0-.159.185t.159.186q.053,0,.053-.186T16.7-19.451ZM7.579-15.423q-.106,0-.106.185t.106.186q.106,0,.106-.186T7.579-15.423Zm7.738.371q-.106,0-.106.185t.106.186q.106,0,.106-.186T15.317-15.052ZM9.328-9.487q-.106,0-.106.186t.106.186q.106,0,.106-.186T9.328-9.487Zm.8-12.031q-.106,0-.106.185t.106.186q.106,0,.106-.186T10.123-21.518ZM8.8-3.021q-.106,0-.106.185T8.8-2.65q.106,0,.106-.186T8.8-3.021Zm5.83-19.769q-.106,0-.106.185t.106.186q.106,0,.106-.186T14.628-22.79ZM23.214-3.922q-.106,0-.106.185t.106.185q.106,0,.106-.185T23.214-3.922ZM10.123-2.12q-.106,0-.106.185t.106.186q.106,0,.106-.186T10.123-2.12Zm2.862-9.063q-.106,0-.106.186t.106.186q.106,0,.106-.186T12.985-11.183Zm.159,9.063q.106,0,.106.185t-.106.186q-.106,0-.106-.186T13.144-2.12ZM24.963-5.777q-.106,0-.106.186t.106.186q.106,0,.106-.186T24.963-5.777Zm0-.583q-.106,0-.106.185t.106.186q.106,0,.106-.186T24.963-6.36Zm.848,1.113q.053,0,.053.212t-.053.212q-.106,0-.106-.212T25.811-5.247ZM10.017-29.839q-.106,0-.106.212t.106.212q.053,0,.053-.212T10.017-29.839Zm-.53,28.3q-.106,0-.106.159t.106.159q.106,0,.106-.159T9.487-1.537ZM25.334-6.678q-.106,0-.106.159t.106.159q.106,0,.106-.159T25.334-6.678Zm1.113,2.014q.106,0,.106.159t-.106.159q-.106,0-.106-.159T26.447-4.664ZM10.282-18.709q-.106,0-.106.159t.106.159q.106,0,.106-.159T10.282-18.709ZM8.639-30.581q-.053,0-.053.212t.053.212q.106,0,.106-.212T8.639-30.581ZM5.671-36.305q-.053,0-.053.212t.053.212q.106,0,.106-.212T5.671-36.305Zm7.738,25.334q-.053,0-.053.212t.053.212q.106,0,.106-.212T13.409-10.971Zm1.325-2.6q-.053,0-.053.212t.053.212q.106,0,.106-.212T14.734-13.568Zm7.738,9.222q-.053,0-.053.212t.053.212q.106,0,.106-.212T22.472-4.346ZM7.42-15.582l.318-.371-.159-.159ZM18.073-23.9a.327.327,0,0,1-.053.186q-.053.08-.159.026t.027-.185Q18.02-24.009,18.073-23.9Zm-.583,1.855q-.106,0-.106.185t.106.186q.053,0,.053-.186T17.49-22.048ZM10.6-35.51q-.106,0-.106.186t.106.185q.053,0,.053-.185T10.6-35.51Zm2.7.689q-.106,0-.106.185t.106.186q.053,0,.053-.186T13.3-34.821Zm-1.113-1.06q-.106,0-.106.186t.106.186q.053,0,.053-.186T12.19-35.881ZM13.3-2.491q.053,0,.053.186T13.3-2.12q-.106,0-.106-.185T13.3-2.491Zm6.36.371q.053,0,.053.185t-.053.186q-.106,0-.106-.186T19.663-2.12ZM9.222-1.749q-.106,0-.106.185t.106.186q.053,0,.053-.186T9.222-1.749Zm14.1-5.565q-.106,0-.106.186t.106.185q.053,0,.053-.185T23.32-7.314Zm-13.3,3.922q-.106,0-.106.185t.106.186q.053,0,.053-.186T10.017-3.392ZM13.3-8.957q.053,0,.053.186t-.053.186q-.106,0-.106-.186T13.3-8.957Zm-4.4.583h.318q-.159-.159-.159-.212-.053-.053-.159,0Zm5.3-14.045q-.053,0-.053.185t.053.186q.106,0,.106-.186T14.2-22.419ZM5.883-36.464q-.053,0-.053.185t.053.186q.106,0,.106-.186T5.883-36.464ZM21.677-2.65q.106,0,.106.186t-.106.185q-.053,0-.053-.185T21.677-2.65Zm-7.738.53q.106,0,.106.185t-.106.186q-.053,0-.053-.186T13.939-2.12ZM12.826-12.455q-.053,0-.053.186t.053.186q.106,0,.106-.186T12.826-12.455ZM7.261-2.279q-.053,0-.053.185t.053.186q.106,0,.106-.186T7.261-2.279Zm1.378-15.37q-.053,0-.053.185t.053.186q.106,0,.106-.186T8.639-17.649ZM8.374-3.392q-.053,0-.053.185t.053.186q.106,0,.106-.186T8.374-3.392Zm6.36-12.031q-.053,0-.053.185t.053.186q.106,0,.106-.186T14.734-15.423ZM4.293-8.745q-.053,0-.053.185t.053.186q.106,0,.106-.186T4.293-8.745Zm1.59,5.353q-.053,0-.053.185t.053.186q.106,0,.106-.186T5.883-3.392Zm-.212.742q-.053,0-.053.186t.053.185q.106,0,.106-.185T5.671-2.65Zm9.063-17.331q-.053,0-.053.185t.053.186q.106,0,.106-.186T14.734-19.981ZM12.72-9.911q.053,0,.08-.106a.871.871,0,0,0,.027-.212,1.117,1.117,0,0,0-.027-.186q-.027-.132-.08-.133ZM9.222-.954q-.106,0-.106.159t.106.159q.053,0,.053-.159T9.222-.954ZM2.279-32.913q-.106,0-.106.159t.106.159q.053,0,.053-.159T2.279-32.913ZM11.66-8.374q-.106,0-.106.159t.106.159q.053,0,.053-.159T11.66-8.374ZM13.409-14.1q-.053,0-.053.159t.053.159q.106,0,.106-.159T13.409-14.1Zm1.325,2.809q.106,0,.106.159t-.106.159q-.053,0-.053-.159T14.734-11.289ZM4.558-3.551q-.053,0-.053.159t.053.159q.106,0,.106-.159T4.558-3.551ZM8.374-9.275q-.053,0-.053.159t.053.159q.106,0,.106-.159T8.374-9.275Zm5.565-7.579q-.053,0-.053.159t.053.159q.106,0,.106-.159T13.939-16.854ZM6.466-4.505q-.053,0-.053.159t.053.159q.106,0,.106-.159T6.466-4.505ZM13.2-8.374q0,.212-.371.318a1.99,1.99,0,0,0,.185-.212A.229.229,0,0,1,13.2-8.374ZM2.385-33.549q-.106,0-.106.132t.106.132Q2.6-33.39,2.385-33.549ZM15-16.7a.19.19,0,0,1,.106.186q0,.132-.106.132-.053.053-.053-.159T15-16.7Zm2.756-11.289q-.159.159-.159.212v.212q.159-.159.159-.212ZM5.3-3.233l-.106.212a.173.173,0,0,0,.053.212,1.036,1.036,0,0,0,.079-.212A.3.3,0,0,0,5.3-3.233ZM25.334-4.505q.053-.106-.08-.08t-.132.08Q25.228-4.24,25.334-4.505ZM15.317-33.549q.106,0,.106.159h-.212Q15.211-33.549,15.317-33.549Zm2.067,14.257q-.106.265-.159,0,0-.106.08-.106T17.384-19.292ZM15.158-2.65q.053-.106-.053-.106A.094.094,0,0,0,15-2.65q.053.106.106.106T15.158-2.65Zm.689-18.232q0-.106-.08-.106t-.08.106q.053.106.106.106T15.847-20.882ZM7.155-2.65Q7.049-2.7,7.049-2.6a.094.094,0,0,0,.106.106q.106-.053.106-.106T7.155-2.65Zm5.83-32.33q-.106-.053-.106.053a.094.094,0,0,0,.106.106q.106-.053.106-.106T12.985-34.98Zm-2.862-.9q-.106-.053-.106.053a.094.094,0,0,0,.106.106q.106-.053.106-.106T10.123-35.881Zm2.067,22.1q-.106,0-.106.132t.106.08Q12.243-13.727,12.19-13.78ZM8.268-27.56q-.106-.053-.106.08t.106.132Q8.374-27.56,8.268-27.56Zm6.254,4.081q0-.106-.08-.106t-.079.106Q14.469-23.267,14.522-23.479Zm1.06,9.381a.216.216,0,0,1-.053.159q-.159,0-.08-.132T15.582-14.1Zm-.265-6.625q0-.106-.079-.106t-.08.106Q15.264-20.564,15.317-20.723Zm-.159,1.643q.053-.106-.053-.106A.094.094,0,0,0,15-19.08Q15.158-18.921,15.158-19.08Zm-.53-6.307q-.053.212,0,.212.106-.053.106-.132T14.628-25.387Zm3.233-2.968q.053-.106-.026-.106t-.08.106q0,.106.053.106T17.861-28.355ZM9.328-10.388q.053-.106-.027-.106t-.08.106q0,.106.053.106T9.328-10.388Zm8.268-16.7q.053-.106-.026-.106t-.08.106q0,.106.053.106T17.6-27.083ZM18.709-3.021q0-.106-.08-.106t-.079.106Q18.6-2.915,18.709-3.021ZM11.766-13.144q-.053-.106-.053.026t.053.133q.106-.053.106-.106T11.766-13.144ZM19.239-2.809q-.053-.106-.053.027t.053.132q.106-.053.106-.106T19.239-2.809ZM12.826-9.7a1.677,1.677,0,0,0-.159.371.248.248,0,0,0,.132-.186A1.117,1.117,0,0,0,12.826-9.7ZM8.109-1.908Q8-1.961,8-1.855a.094.094,0,0,0,.106.106Q8.162-1.8,8.109-1.908ZM3.18-34.026q.053-.106-.026-.106t-.079.106q.053.106.079.106T3.18-34.026ZM24.963-2.809q.159,0,0,.159-.053,0-.053-.132T24.963-2.809ZM5.83-10.017l-.159.106V-9.7Zm9.858-9.805a.413.413,0,0,0-.159.371ZM14.2-13.356q-.053.265-.106.265Q14.1-13.356,14.2-13.356Zm1.272-17.861q-.106-.106-.106,0a.094.094,0,0,0,.106.106Q15.582-31.217,15.476-31.217Zm-7.1,14.681q-.053,0-.053.106.159.053.159,0T8.374-16.536ZM5.353-36.464q-.053,0-.053.106Q5.565-36.305,5.353-36.464ZM15.688-16.7q0,.159-.212.159Zm.159-2.226q-.053.212,0,.212Q15.9-18.762,15.847-18.921ZM4.717-10.229q.053.159,0,.212Q4.664-10.017,4.717-10.229Zm12.508-11.66q-.106.106-.053.106T17.225-21.889Zm-1.378,6.466q-.106.106-.053.106T15.847-15.423ZM4.293-3.233q-.106.106-.053.106T4.293-3.233Z" transform="translate(213.231 51.521)" fill="#727272"/>
          </g>
        </g>
      </g>
      <g id="Group_431" data-name="Group 431" transform="translate(153.663 1621.999)">
        <g id="Group_400" data-name="Group 400" transform="translate(255.338 72.001)" clip-path="url(#clip-path)">
          <path id="Path_505" data-name="Path 505" d="M94.372,134.043a10.361,10.361,0,0,1,2.479-5.757,14.245,14.245,0,0,1,6.825-4.593c3.118-.95,6.243-1.877,9.357-2.841a17.982,17.982,0,0,0,7.521-4.2,9.44,9.44,0,0,0,2.833-5.212,3.514,3.514,0,0,0-2.446-4.21,8.038,8.038,0,0,0-2.188-.342c-2.917-.136-5.844-.138-8.751-.374a12.837,12.837,0,0,1-4.505-.991,9.229,9.229,0,0,1-3.953-3.963,15.042,15.042,0,0,1,1.723.333,87.242,87.242,0,0,0,12.744,1.353,19.089,19.089,0,0,1,4.757.635,7.619,7.619,0,0,1,3.835,2.055,5.471,5.471,0,0,1,1.694,4.538c-.305,4.514-2.6,7.951-6.351,10.537a42.158,42.158,0,0,1-10.363,4.8c-2.374.821-4.744,1.665-7.06,2.623a20.1,20.1,0,0,0-6.742,4.506,16.562,16.562,0,0,1-1.406,1.108" transform="translate(-56.072 -68.51)"/>
        </g>
        <g id="Group_401" data-name="Group 401" transform="translate(255.338 72.001)" clip-path="url(#clip-path)">
          <path id="Path_506" data-name="Path 506" d="M59.721,35.514c.634-.147,1.131.566,1.337,1a21.86,21.86,0,0,0,4.055,5.948,23.284,23.284,0,0,0,14.7,6.893c3.13.35,6.286.474,9.431.693A36.849,36.849,0,0,1,101,52.36a8.407,8.407,0,0,1,5.369,6.074,12.885,12.885,0,0,1,.176,3.926,8.706,8.706,0,0,1-.709-1.379c-2.489-4.72-6.827-6.248-11.925-6.576-4.691-.3-9.4-.555-14.059-1.1A22.355,22.355,0,0,1,65.96,46.617,25.149,25.149,0,0,1,60.6,37.972c-.3-.8-.576-1.6-.882-2.458" transform="translate(-34.188 -25.98)"/>
        </g>
        <g id="Group_402" data-name="Group 402" transform="translate(255.338 72.001)" opacity="0.44" clip-path="url(#clip-path)">
          <path id="Path_507" data-name="Path 507" d="M123.276,93.968c-.263-.477-.538-.949-.789-1.432a7.917,7.917,0,0,0-5.3-3.807,20.065,20.065,0,0,0-3.557-.571c-3.316-.2-6.64-.288-9.958-.475a31.386,31.386,0,0,1-8.739-1.671A15.7,15.7,0,0,1,87.573,80.1a8.658,8.658,0,0,1,1.4.647,22.691,22.691,0,0,0,9.281,2.624c4,.321,8.009.456,12.007.754,3.64.271,7.166.933,10.1,3.3a8.035,8.035,0,0,1,2.994,4.724,3.83,3.83,0,0,1-.077,1.826" transform="translate(-51.778 -54.694)"/>
        </g>
        <g id="Group_403" data-name="Group 403" transform="translate(255.338 72.001)" opacity="0.44" clip-path="url(#clip-path)">
          <path id="Path_508" data-name="Path 508" d="M126.038,135.586a4.889,4.889,0,0,1-.8,1.836c-1.18,1.705-3.508,2.665-5.63,3.385-1.509.512-3.09.823-4.621,1.281q-3.443,1.031-6.858,2.148a13.614,13.614,0,0,0-4.69,2.706c-.332.289-.694.544-1.246.973a4.79,4.79,0,0,1,.493-1.789c1.2-2.519,2.319-4.031,4.98-5.284a25.631,25.631,0,0,1,6.687-2.05,44.271,44.271,0,0,0,8.844-1.99c.93-.363,1.836-.784,2.838-1.215" transform="translate(-61.011 -90.416)"/>
        </g>
        <g id="Group_404" data-name="Group 404" transform="translate(255.338 72.001)" opacity="0.44" clip-path="url(#clip-path)">
          <path id="Path_509" data-name="Path 509" d="M131.686,127.571a3.519,3.519,0,0,1-2.018,2.259,14.318,14.318,0,0,1-5.382,1.617c-1.812.263-3.641.432-5.444.745a19.172,19.172,0,0,0-7.614,2.907,9.962,9.962,0,0,0-1.146.868c-.075-1.323,1.038-2.852,1.791-3.654a10.766,10.766,0,0,1,6.214-2.956,36.48,36.48,0,0,1,4.266-.421c3.032-.185,5.309.365,8.411-.968.075-.032.69-.333.921-.4" transform="translate(-65.991 -85.256)"/>
        </g>
        <g id="Group_405" data-name="Group 405" transform="translate(255.338 72.001)" clip-path="url(#clip-path)">
          <path id="Path_510" data-name="Path 510" d="M179.288,54.226a13.441,13.441,0,0,0-7.5-6.259,20.594,20.594,0,0,0-2.068-.666,10.042,10.042,0,0,1,2.607,1.661,18.166,18.166,0,0,0-5.808.148c1.35.305,2.792.189,4.349,1.037-2.755.732-3.873,2.573-4.542,4.83l.425.925-.991,1.965c3.039,1.013,5.642,2.323,7.628,4.972.463-2.525-.757-4.682-.087-6.8,2.163-.525,3.844.939,5.733.978a1.981,1.981,0,0,0,.254-2.787m-1.846-.748c-.115.1-.548-.188-.969-.641s-.669-.9-.554-1,.548.188.969.642.668.9.554,1" transform="translate(-101.156 -33.58)"/>
        </g>
      </g>
      <path id="Path_545" data-name="Path 545" d="M152.865,0V-74.175c0-20.425-10.535-42.785-39.13-42.785-18.06,0-28.165,8.6-32.9,14.835C74.605-110.94,64.5-116.96,49.665-116.96,21.5-116.96,12.9-95.89,12.9-95.89V0H24.725V-92.88s5.16-12.685,24.94-12.685c19.35,0,26.875,15.91,27.305,30.315V0H88.8V-74.175a56.376,56.376,0,0,0-2.15-15.695c1.72-5.375,9.675-15.695,27.09-15.695,20,0,27.305,16.555,27.305,31.39V0Z" transform="translate(1573 1885)"/>
      <g id="smile" transform="translate(1380.81 1661.005)">
        <g id="Group_45" data-name="Group 45" transform="translate(32.288 151.99)">
          <g id="Group_44" data-name="Group 44">
            <path id="Path_105" data-name="Path 105" d="M98.6,289.648a4.515,4.515,0,1,0,1.322,3.189A4.538,4.538,0,0,0,98.6,289.648Z" transform="translate(-90.895 -288.326)" fill="#007ab9"/>
          </g>
        </g>
        <g id="Group_47" data-name="Group 47" transform="translate(65.802 151.99)">
          <g id="Group_46" data-name="Group 46">
            <path id="Path_106" data-name="Path 106" d="M192.942,289.648a4.515,4.515,0,1,0,1.322,3.189A4.545,4.545,0,0,0,192.942,289.648Z" transform="translate(-185.24 -288.326)" fill="#007ab9"/>
          </g>
        </g>
        <g id="Group_49" data-name="Group 49" transform="translate(35.639 177.934)">
          <g id="Group_48" data-name="Group 48">
            <path id="Path_107" data-name="Path 107" d="M140.478,346.006a4.511,4.511,0,0,0-5.524,3.194,11.035,11.035,0,0,1-21.328,0,4.512,4.512,0,0,0-8.718,2.329,20.059,20.059,0,0,0,38.765,0A4.513,4.513,0,0,0,140.478,346.006Z" transform="translate(-104.754 -345.851)" fill="#007ab9"/>
          </g>
        </g>
        <g id="Group_59" data-name="Group 59" transform="translate(0 101.231)">
          <g id="Group_58" data-name="Group 58">
            <path id="Path_112" data-name="Path 112" d="M181.973,225.278c-7.586-35.568-36.789-56.751-65.1-47.22-9.716,3.271-18.3,9.775-25.005,18.781-10.032-13.423-23.915-21.026-38.717-21.026C23.844,175.813,0,205.771,0,242.593s23.844,66.779,53.153,66.779c14.816,0,28.721-7.626,38.756-21.082,9.937,13.237,23.951,21.059,38.735,21.059a42.964,42.964,0,0,0,13.745-2.283C172.7,297.536,189.559,260.845,181.973,225.278ZM53.153,300.348c-25.348,0-45.97-25.909-45.97-57.755s20.622-57.755,45.97-57.755c13.122,0,25.412,6.909,34.133,19.069q-1.429,2.54-2.687,5.266a81.421,81.421,0,0,0-5.31,50.674,75.1,75.1,0,0,0,8.016,21.408C78.583,293.429,66.279,300.348,53.153,300.348Zm89.377-2c-24.484,8.24-49.741-10.078-56.3-40.839a70.42,70.42,0,0,1,4.592-43.826,61.248,61.248,0,0,1,3.773-6.994c.06-.086.115-.175.169-.266,6.077-9.562,14.388-16.423,23.972-19.649a37.149,37.149,0,0,1,11.888-1.974c20.294,0,38.917,17.041,44.414,42.813C181.6,258.375,167.013,290.107,142.53,298.35Z" transform="translate(0 -175.775)" stroke="#000" stroke-width="3"/>
          </g>
        </g>
        <g id="Group_61" data-name="Group 61" transform="translate(102.334 151.916)">
          <g id="Group_60" data-name="Group 60">
            <path id="Path_113" data-name="Path 113" d="M311.183,295.417a9.786,9.786,0,1,0-18.906,5.066,4.512,4.512,0,1,0,8.716-2.335.764.764,0,0,1,.539-.934.763.763,0,0,1,.934.539,4.512,4.512,0,0,0,8.717-2.335Z" transform="translate(-291.942 -288.161)" fill="#ef0078"/>
          </g>
        </g>
        <g id="Group_63" data-name="Group 63" transform="translate(134.076 140.969)">
          <g id="Group_62" data-name="Group 62">
            <path id="Path_114" data-name="Path 114" d="M401.743,271.147a9.787,9.787,0,1,0-18.906,5.066,4.512,4.512,0,0,0,8.717-2.336.762.762,0,0,1,1.472-.394,4.512,4.512,0,0,0,8.717-2.336Z" transform="translate(-382.499 -263.889)" fill="#ef0078"/>
          </g>
        </g>
        <g id="Group_65" data-name="Group 65" transform="translate(112.728 173.194)">
          <g id="Group_64" data-name="Group 64">
            <path id="Path_115" data-name="Path 115" d="M369.693,338.687a4.512,4.512,0,1,0-8.717,2.335,10.758,10.758,0,1,1-20.783,5.569,4.512,4.512,0,0,0-8.717,2.336A19.808,19.808,0,0,0,350.553,363.6a19.812,19.812,0,0,0,19.14-24.911Z" transform="translate(-331.322 -335.341)" fill="#ef0078"/>
          </g>
        </g>
      </g>
      <path id="Path_542" data-name="Path 542" d="M313.945,1595.841h0s-1.836-7.165,1.069-8.783c1.609-.986,3.962-.561,10.4.165,25.588,1.288,30.574-2.08,32.706-2.771-.878,3.068.179,4.785-1.088,11.026,1.894,0,2.191.033,4.352,0,1.669-8.222,2.329-15.221-5.44-15.015-7,1.607-36.7-.788-39.026,1.031a9,9,0,0,0-3.772.275c-.218.145-3.593-.35-3.085,4,.338,8.24.9,9.853,1.189,10.07A11.1,11.1,0,0,0,313.945,1595.841Z" transform="translate(331 302)"/>
    </g>
  </g>
</svg>
