<svg xmlns="http://www.w3.org/2000/svg" xmlns:xlink="http://www.w3.org/1999/xlink" width="44" height="13" viewBox="0 0 44 13">
  <defs>
    <clipPath id="clip-new-tag">
      <rect width="44" height="13"/>
    </clipPath>
  </defs>
  <g id="new-tag" clip-path="url(#clip-new-tag)">
    <g id="Group_1" data-name="Group 1" transform="translate(-563 -208)">
      <path id="Path_1" data-name="Path 1" d="M10,0H54L48,6.719,54,13H10Z" transform="translate(553 208)" fill="#1fce56"/>
      <path id="NEW" d="M5.166-6.3h1.17V0H5.193L1.953-4.338V0H.774V-6.3H1.917L5.166-1.953Zm3.078,0h4.617v1.053H9.45V-3.69h3.06v1.053H9.45v1.584h3.519V0H8.244Zm13.95,0h1.251L21.312,0H20.061l-1.44-4.779L17.154,0H15.921L13.8-6.3h1.3l1.485,5,1.476-5h1.188l1.485,5.013Z" transform="translate(570 218)" fill="#fff"/>
    </g>
  </g>
</svg>
