<svg xmlns="http://www.w3.org/2000/svg" width="19.866" height="19.866" viewBox="0 0 19.866 19.866">
  <g id="attachment-clip" transform="translate(30.874 -0.486) rotate(135)">
    <path id="Path_177" data-name="Path 177" d="M18.948,14.881l-.141,0a3.476,3.476,0,0,1-2.3-.994,3.221,3.221,0,0,1,0-4.55l6.24-6.239a2.043,2.043,0,1,1,2.888,2.89L19.924,11.7,18.87,10.642,24.583,4.93a.552.552,0,1,0-.78-.781l-6.24,6.239a1.728,1.728,0,0,0,0,2.442,1.965,1.965,0,0,0,1.3.559,1.638,1.638,0,0,0,1.244-.453l6.253-6.253A3.235,3.235,0,0,0,27.29,4.5a2.881,2.881,0,0,0-.821-2.141,3.257,3.257,0,0,0-4.428,0L17.734,6.666,16.68,5.612l4.307-4.307a4.744,4.744,0,0,1,6.536,0,4.354,4.354,0,0,1,1.257,3.236,4.74,4.74,0,0,1-1.362,3.2l-6.253,6.253A3.1,3.1,0,0,1,18.948,14.881Z" transform="translate(0 0)"/>
  </g>
</svg>
