<svg xmlns="http://www.w3.org/2000/svg" width="21" height="20" viewBox="0 0 21 20">
  <defs>
    <style>
      .cls-1 {
        fill: #4b316c;
      }
    </style>
  </defs>
  <path id="Forma_1" data-name="Forma 1" class="cls-1" d="M5.25,20a.733.733,0,0,1-.75-.714V15.714H.75A.733.733,0,0,1,0,15V5.714A.733.733,0,0,1,.75,5H4.5V.714A.733.733,0,0,1,5.25,0h10.5a.733.733,0,0,1,.75.714V5h3.75a.733.733,0,0,1,.75.714V15a.733.733,0,0,1-.75.714H16.5v3.571a.733.733,0,0,1-.75.714ZM6,18.571h9V12.143H6ZM1.5,14.286h3V12.143H3.75a.715.715,0,1,1,0-1.429h13.5a.715.715,0,1,1,0,1.429H16.5v2.143h3V6.429H1.5ZM6,5h9V1.429H6ZM8.25,17.143a.715.715,0,1,1,0-1.429h4.5a.715.715,0,1,1,0,1.429ZM8.25,15a.715.715,0,1,1,0-1.429h4.5a.715.715,0,1,1,0,1.429Zm9-5.714a.715.715,0,1,1,0-1.429H18a.715.715,0,1,1,0,1.429Z"/>
</svg>
