<svg xmlns="http://www.w3.org/2000/svg" width="16.265" height="17.121" viewBox="0 0 16.265 17.121">
  <defs>
    <style>
      .cls-1 {
        fill: #4b366b;
      }
    </style>
  </defs>
  <path id="Path_8784" data-name="Path 8784" class="cls-1" d="M19.265,14.985V13.273l-6.849-4.28V4.284a1.284,1.284,0,1,0-2.568,0V8.992L3,13.273v1.712l6.849-2.14v4.708L8.136,18.837v1.284l3-.856,3,.856V18.837l-1.712-1.284V12.845Z" transform="translate(-3 -3)"/>
</svg>
