<svg xmlns="http://www.w3.org/2000/svg" width="12" height="12" viewBox="0 0 12 12">
  <defs>
    <style>
      .cls-1 {
        fill: #fff;
        stroke: #b8b0c4;
      }

      .cls-2 {
        fill: #5d3195;
      }
    </style>
  </defs>
  <g id="square" transform="translate(-153.131 -1009.5)">
    <rect id="bg" class="cls-1" width="11" height="11" rx="1" transform="translate(153.631 1010)"/>
    <rect id="in" class="cls-2" width="7" height="1" transform="translate(155.631 1015)"/>
  </g>
</svg>
