<svg id="Page-1" xmlns="http://www.w3.org/2000/svg" width="48.184" height="48" viewBox="0 0 48.184 48">
  <path id="Combined-Shape-Copy" d="M8.567,42.734c3.69,0,6.581,1.691,6.581,3.85h0v.625a.79.79,0,0,1-.79.79H2.773a.79.79,0,0,1-.79-.79h0v-.625C1.984,44.425,4.875,42.734,8.567,42.734Zm15.919,0c3.691,0,6.582,1.691,6.582,3.85h0v.625a.791.791,0,0,1-.79.79H18.693a.79.79,0,0,1-.79-.79h0v-.625C17.9,44.425,20.795,42.734,24.486,42.734Zm15.921,0c3.691,0,6.583,1.691,6.583,3.85h0v.625a.791.791,0,0,1-.79.79H34.615a.79.79,0,0,1-.79-.79h0v-.625C33.825,44.425,36.715,42.734,40.407,42.734ZM8.566,44.313c-2.718,0-4.784,1.08-4.987,2.107h9.972C13.349,45.394,11.284,44.313,8.566,44.313Zm15.92,0c-2.718,0-4.783,1.08-4.986,2.107h9.972C29.269,45.394,27.2,44.313,24.486,44.313Zm15.92,0c-2.717,0-4.783,1.08-4.986,2.107h9.972C45.19,45.394,43.124,44.313,40.406,44.313ZM8.566,34.66A3.687,3.687,0,1,1,4.88,38.347,3.691,3.691,0,0,1,8.566,34.66Zm15.92,0A3.686,3.686,0,1,1,20.8,38.347,3.69,3.69,0,0,1,24.486,34.661Zm15.92,0a3.686,3.686,0,1,1-3.687,3.687A3.69,3.69,0,0,1,40.406,34.661ZM8.566,36.24a2.107,2.107,0,1,0,2.106,2.107A2.11,2.11,0,0,0,8.566,36.24Zm15.92,0a2.106,2.106,0,1,0,2.106,2.107A2.109,2.109,0,0,0,24.486,36.241Zm15.92,0a2.106,2.106,0,1,0,2.106,2.107A2.109,2.109,0,0,0,40.406,36.241ZM11.86,14.882c4.571,0,8.152,2.056,8.152,4.68h0v.251h2.5a1.207,1.207,0,0,1,1.206,1.206h0v5.664a1.208,1.208,0,0,1-1.206,1.206H20.6v4.067a1.208,1.208,0,0,1-1.206,1.206H4.328a1.208,1.208,0,0,1-1.206-1.206h0V27.889H1.206A1.208,1.208,0,0,1,0,26.683H0V21.019a1.208,1.208,0,0,1,1.206-1.207h2.5v-.251C3.708,16.937,7.288,14.882,11.86,14.882Zm10.282,6.511H1.58V26.31H3.912a.789.789,0,0,1,.79.79h0v4.483H19.02V27.1a.79.79,0,0,1,.79-.79h2.332ZM47.35,0a.834.834,0,0,1,.833.833h0V23.886a.834.834,0,0,1-.833.833H27.111V23.053H46.516V1.666H15.4V0ZM11.861,16.462c-3.873,0-6.572,1.634-6.572,3.1h0v.251H18.433v-.251C18.433,18.095,15.733,16.462,11.861,16.462Zm28.713-1.243a.833.833,0,0,1,0,1.667H33.01a.833.833,0,1,1,0-1.667h7.564ZM11.861,5.688A4.213,4.213,0,1,1,7.648,9.9,4.218,4.218,0,0,1,11.861,5.688Zm0,1.58A2.633,2.633,0,1,0,14.493,9.9,2.636,2.636,0,0,0,11.861,7.268Zm28.713,3.258a.833.833,0,0,1,0,1.667H26.038a.833.833,0,0,1,0-1.667H40.574Zm0-4.693a.833.833,0,0,1,0,1.667H26.038a.833.833,0,0,1,0-1.667H40.574Z" fill="#fff"/>
</svg>
