<svg xmlns="http://www.w3.org/2000/svg" id="prefix__block-24px" width="24" height="24" viewBox="0 0 24 24">
    <path id="prefix__Path_8551" d="M0 0h24v24H0z" data-name="Path 8551" style="fill:none"/>
    <path id="prefix__Path_8552" d="M12 2a10 10 0 1 0 10 10A10 10 0 0 0 12 2zM4 12a8 8 0 0 1 8-8 7.9 7.9 0 0 1 4.9 1.69L5.69 16.9A7.9 7.9 0 0 1 4 12zm8 8a7.9 7.9 0 0 1-4.9-1.69L18.31 7.1A7.9 7.9 0 0 1 20 12a8 8 0 0 1-8 8z" data-name="Path 8552"/>
</svg>
