<svg xmlns="http://www.w3.org/2000/svg" xmlns:xlink="http://www.w3.org/1999/xlink" width="1126" height="171" viewBox="0 0 1126 171">
  <defs>
    <radialGradient id="radial-gradient" cx="0.565" cy="0.251" r="3.882" gradientTransform="matrix(0.227, -0.01, 0.001, 0.422, 0.436, 0.151)" gradientUnits="objectBoundingBox">
      <stop offset="0" stop-color="#60bc77"/>
      <stop offset="0.515" stop-color="#207465"/>
      <stop offset="1" stop-color="#064553"/>
    </radialGradient>
    <radialGradient id="radial-gradient-2" cx="0.433" cy="0.095" r="0.191" gradientTransform="matrix(12.163, -0.015, 0.403, 2.156, -4.871, -0.104)" xlink:href="#radial-gradient"/>
    <radialGradient id="radial-gradient-4" cx="0.438" cy="-0.185" r="2.551" gradientTransform="matrix(0.823, -0.015, 0.008, 0.639, 0.079, -0.06)" xlink:href="#radial-gradient"/>
    <radialGradient id="radial-gradient-5" cx="0.562" cy="-0.186" r="2.551" gradientTransform="matrix(-0.824, 0, 0, 1, 1.025, 0)" xlink:href="#radial-gradient"/>
    <radialGradient id="radial-gradient-6" cx="0.562" cy="-0.185" r="2.551" gradientTransform="matrix(-0.823, -0.015, -0.008, 0.639, 1.023, -0.058)" xlink:href="#radial-gradient"/>
    <radialGradient id="radial-gradient-7" cx="0.567" cy="0.095" r="2.406" gradientTransform="matrix(-0.965, 0, 0, 1, 1.114, 0)" xlink:href="#radial-gradient"/>
    <radialGradient id="radial-gradient-8" cx="0.567" cy="0.095" r="2.53" gradientTransform="matrix(-0.333, 0, 0, 1, 0.756, 0)" xlink:href="#radial-gradient"/>
    <radialGradient id="radial-gradient-9" cx="0.433" cy="0.095" r="2.406" gradientTransform="matrix(0.965, -0.018, 0.003, 0.171, 0.015, 0.086)" xlink:href="#radial-gradient"/>
    <radialGradient id="radial-gradient-10" cx="0.432" cy="0.095" r="2.53" gradientTransform="matrix(0.333, -0.015, 0.002, 0.41, 0.288, 0.063)" xlink:href="#radial-gradient"/>
    <clipPath id="clip-path">
      <rect id="Rectangle_324" data-name="Rectangle 324" width="1126" height="256.034" fill="url(#radial-gradient)"/>
    </clipPath>
    <clipPath id="clip-path-2">
      <rect id="Rectangle_312" data-name="Rectangle 312" width="117.118" height="505.759" fill="none"/>
    </clipPath>
    <clipPath id="clip-path-3">
      <path id="Path_959" data-name="Path 959" d="M207.823,25.638s5.025,28.2,17,47.55c6.652,10.747,18.284,24.58,27.714,35.127.253-35.823,2.849-98.094,2.3-118.657L266.694-13.1C267.36,11.923,267.7,83.46,267.8,129.6c12.58-13.453,24.661-32.068,33.5-46.336,15.014-24.259,21.313-59.6,21.313-59.6l1.3,5.73c.179-.679-6.842,35.769-19.565,59.506-3.791,7.072-8.294,12.057-13.129,18.668q-11.326,15.482-23.392,30.575c.052,35.091-.028,73.444-.208,111.524,11.574-10.73,19.326-20.4,27.963-33.362,14.42-21.648,20.464-53.187,20.464-53.187l1.244,5.113c-3.825,13.5-6.883,27.023-12.459,40.184-8.222,19.39-22.8,35.824-37.271,52.225-.591,112.469-2.032,219.545-3.461,229.455l-23.564,2.575c2.081-14.43,10.809-232.1,11.961-375.184-5.805-7.33-14.132-17.408-19.614-24.906-3.859-5.275-7.451-9.251-10.474-14.894-10.155-18.936-15.757-48.015-15.614-47.472Z" transform="translate(-206.787 13.095)" fill="none"/>
    </clipPath>
    <linearGradient id="linear-gradient" x1="-2.348" y1="1.163" x2="-2.336" y2="1.163" gradientUnits="objectBoundingBox">
      <stop offset="0" stop-color="#0a3b44"/>
      <stop offset="0.151" stop-color="#0e4949"/>
      <stop offset="0.719" stop-color="#1c7a5d"/>
      <stop offset="1" stop-color="#228d65"/>
    </linearGradient>
    <clipPath id="clip-path-6">
      <rect id="Rectangle_312-3" data-name="Rectangle 312" width="70.09" height="302.677" fill="none"/>
    </clipPath>
    <clipPath id="clip-path-7">
      <path id="Path_959-3" data-name="Path 959" d="M207.407,10.087s3.007,16.874,10.176,28.457c3.982,6.431,10.942,14.711,16.583,21.022.151-21.438,1.705-58.706,1.377-71.01l7.093-1.652c.4,14.972.6,57.785.664,85.4,7.525-8.052,14.758-19.191,20.043-27.731C272.329,30.051,276.1,8.9,276.1,8.9l.776,3.429c.107-.407-4.095,21.407-11.709,35.613-2.268,4.232-4.964,7.216-7.857,11.172q-6.778,9.269-14,18.3c.031,21-.017,43.957-.125,66.742a102.9,102.9,0,0,0,16.734-19.966c8.626-12.956,12.249-31.831,12.249-31.831l.745,3.06c-2.289,8.076-4.117,16.172-7.457,24.048-4.921,11.6-13.643,21.439-22.305,31.255-.353,67.308-1.216,131.389-2.071,137.32l-14.1,1.541c1.245-8.635,6.469-138.905,7.158-224.533-3.474-4.387-8.456-10.418-11.738-14.905-2.31-3.157-4.459-5.536-6.269-8.913-6.075-11.333-9.427-28.735-9.342-28.412Z" transform="translate(-206.785 13.096)" fill="none"/>
    </clipPath>
    <clipPath id="clip-path-8">
      <path id="Path_942" data-name="Path 942" d="M20.319,0C18.163,213.031,13.192,442.253,15.6,661.707c.032,2.86.147,5.948,2.019,8.2,1.766,2.125,4.688,3.028,7.433,3.812l46.381,13.312Q67.3,391.493,59.13,96.017C58.876,86.761,57.228,44,55.5,0Z" transform="translate(-14.957)" stroke="rgba(0,0,0,0)" stroke-width="1" fill="url(#radial-gradient-2)"/>
    </clipPath>
    <radialGradient id="radial-gradient-12" cx="0.433" cy="0.095" r="2.716" gradientTransform="matrix(0.855, -0.015, 0.002, 0.151, 0.063, 0.087)" xlink:href="#radial-gradient"/>
    <clipPath id="clip-path-9">
      <path id="Path_943" data-name="Path 943" d="M18.921,542.689c16.561,2.667,33.409,4.357,50.372,5.565-.063-3.694-.127-7.364-.194-11.057-16.5,2.6-33.282,4.434-50.178,5.493m-3.962-17.362q19.926-1.272,39.627-3.671-19.93-1.944-39.616-4.8-.008,4.234-.012,8.474m.084-39.1q-.013,3.528-.023,7.06,26.548,2.508,53.358,3.554-.134-7.393-.275-14.8l-53.061,4.185m.1-23.637c-.006,1.036-.008,2.088-.015,3.12a476.4,476.4,0,0,0,52.723,2.845c-.092-4.641-.176-9.261-.268-13.9a346.413,346.413,0,0,1-52.44,7.94m.113-20.534q17.069-1.78,33.9-4.418-16.987-.429-33.863-1.86c-.012,2.1-.026,4.183-.038,6.277m.219-32.027c-.012,1.512-.023,3-.035,4.513a479.956,479.956,0,0,0,51.341-.561c-.066-3.294-.133-6.572-.2-9.867-16.816,2.64-33.919,4.432-51.1,5.913m13.289-23.752c12.323,2.257,24.877,3.972,37.553,5.139-.084-4-.171-8.024-.254-12.028l-37.3,6.889M15.948,355.833a244.9,244.9,0,0,0,35.463-6.424l-35.362-3.438c-.035,3.278-.069,6.584-.1,9.863m12.415-73.661a252.449,252.449,0,0,0,35.581,1.8q-.092-3.946-.184-7.9-17.511,3.492-35.4,6.1m-11.278-25.9q5.445-.079,10.892-.154c9.354-.133,19.406-.416,26.842-4.117q-18.835-.336-37.674-.675c-.02,1.652-.04,3.294-.061,4.946m43.147-31.905-42.821,6.449q-.039,2.976-.078,5.952,22.7,1.292,45.517,1.285-.173-7.016-.346-14.027-1.134.169-2.274.342M17.7,208.663c14.894-.778,29.707-2.187,44.324-4.216-.061-2.345-.118-4.68-.179-7.022l-43.984-.786c-.052,4.009-.106,8.01-.159,12.022m.716-53.886c-.032,2.409-.063,4.825-.092,7.236,14.389-.049,28.8-.572,42.535-2.926-.015-.6-.028-1.177-.046-1.779a305.618,305.618,0,0,1-41.586-2.937Zm.332-24.917q13.568-2.4,27.093-4.906a135.824,135.824,0,0,1-26.993-2.914c-.032,2.61-.066,5.209-.1,7.823m23.309-60.8Zm-8.443-9.177ZM34.9,31.23c7.25.744,14.585,1.166,21.923,1.256q-.129-3.425-.268-6.931-11,2.553-21.657,5.676M20.2,10.188A112.5,112.5,0,0,0,49.993,4.731C40.049,3.881,29.966,3,20.291,1.346c-.032,2.937-.061,5.9-.092,8.842" transform="translate(-14.958 -1.346)" fill="#48a170"/>
    </clipPath>
    <radialGradient id="radial-gradient-13" cx="0.433" cy="0.095" r="3.787" gradientTransform="matrix(0.855, -0.011, 0.001, 0.109, 0.063, 0.089)" xlink:href="#radial-gradient"/>
    <clipPath id="clip-path-12">
      <path id="Path_944" data-name="Path 944" d="M0,0V136.735c9.819-2.163,18.461-9.4,23.868-18.1,6.583-10.587,9.205-23.1,11.388-35.381a41.466,41.466,0,0,0,12.8,7.617,37.4,37.4,0,0,0-7.079-20.464,60.039,60.039,0,0,0,38.17-11.54,42.6,42.6,0,0,0-26.3-9.828A49.617,49.617,0,0,0,90.472,29.957,72.816,72.816,0,0,0,121.8,50.406a41.257,41.257,0,0,0-7.525-24.8,45.405,45.405,0,0,0,13.16,5.267,13.383,13.383,0,0,0,6.062.294C139.2,29.8,141.405,23,142.631,17.259q10.156,10.409,20.315,20.825c5.308-9.647,2.971-21.7-1.149-31.916-.842-2.083-1.758-4.151-2.777-6.163Z" stroke="rgba(0,0,0,0)" stroke-width="1" fill="url(#radial-gradient-4)"/>
    </clipPath>
    <radialGradient id="radial-gradient-14" cx="0.439" cy="-0.186" r="2.586" gradientTransform="matrix(0.813, -0.016, 0.008, 0.63, 0.084, -0.062)" xlink:href="#radial-gradient"/>
    <clipPath id="clip-path-13">
      <path id="Path_944-2" data-name="Path 944" d="M287.236,0V236.564c-16.994-3.742-31.935-16.267-41.3-31.314-11.39-18.316-15.926-39.973-19.7-61.21a71.737,71.737,0,0,1-22.144,13.172,64.71,64.71,0,0,1,12.247-35.4A103.873,103.873,0,0,1,150.3,101.846a73.7,73.7,0,0,1,45.5-17,85.841,85.841,0,0,1-65.1-33.012A125.979,125.979,0,0,1,76.513,87.208,71.378,71.378,0,0,1,89.529,44.3a78.554,78.554,0,0,1-22.759,9.111c-3.444.786-7.052,1.333-10.487.508C46.407,51.555,42.592,39.795,40.47,29.861L5.323,65.881C-3.859,49.188.183,28.33,7.313,10.664c1.455-3.6,3.042-7.182,4.8-10.664Z" transform="translate(0.001)" stroke="rgba(0,0,0,0)" stroke-width="1" fill="url(#radial-gradient-5)"/>
    </clipPath>
    <radialGradient id="radial-gradient-15" cx="0.561" cy="-0.186" r="2.586" gradientTransform="matrix(-0.813, 0, 0, 1, 1.017, 0)" xlink:href="#radial-gradient"/>
    <clipPath id="clip-path-14">
      <path id="Path_944-3" data-name="Path 944" d="M169.886,0V139.916C159.835,137.7,151,130.295,145.462,121.4c-6.737-10.829-9.419-23.642-11.655-36.2a42.43,42.43,0,0,1-13.1,7.791,38.272,38.272,0,0,1,7.243-20.937A61.435,61.435,0,0,1,88.9,60.236a43.59,43.59,0,0,1,26.916-10.057A50.771,50.771,0,0,1,77.306,30.651,74.51,74.51,0,0,1,45.254,51.574,42.214,42.214,0,0,1,52.95,26.2,46.462,46.462,0,0,1,39.49,31.589a13.694,13.694,0,0,1-6.2.3c-5.841-1.4-8.1-8.351-9.351-14.229L3.15,38.965C-2.282,29.091.109,16.756,4.325,6.307,5.187,4.175,6.125,2.059,7.167,0Z" transform="translate(0)" stroke="rgba(0,0,0,0)" stroke-width="1" fill="url(#radial-gradient-6)"/>
    </clipPath>
    <radialGradient id="radial-gradient-16" cx="0.562" cy="-0.186" r="2.586" gradientTransform="matrix(-0.813, -0.015, -0.008, 0.63, 1.016, -0.06)" xlink:href="#radial-gradient"/>
    <clipPath id="clip-path-15">
      <path id="Path_945" data-name="Path 945" d="M298.713,311.6c7.5,1.744,10.558,10.745,11.153,18.422a77.59,77.59,0,0,1-7.471,39.586c1.947-4.021,15.55-9.482,19.752-9.484,10.417-.007,4.614,17.382,2.948,23.579.391-.253.765-.525,1.156-.773,7.453-4.75,15.583-9.042,24.4-9.582,5.2-.319,11.544,1.689,12.588,6.791.767,3.75-1.744,7.352-4.436,10.077-11.542,11.707-27.9,16.686-44.288,19.638,2.4,13.175,13.957,32.16,4.754,35.809l-54.641-9.286V334.744q.281.5.527,1.009c2.527,5.207,2.946,11.151,3.232,16.93a63.848,63.848,0,0,1,13.421-32.436c3.645-4.579,8.864-8.924,14.475-8.926a10.718,10.718,0,0,1,2.428.275" transform="translate(-264.631 -311.322)" fill="none" stroke="rgba(0,0,0,0)" stroke-miterlimit="10" stroke-width="1"/>
    </clipPath>
    <linearGradient id="linear-gradient-4" x1="-2.99" y1="-0.38" x2="-2.978" y2="-0.38" gradientUnits="objectBoundingBox">
      <stop offset="0" stop-color="#003c4f"/>
      <stop offset="0.016" stop-color="#003c4f"/>
      <stop offset="0.607" stop-color="#052f38"/>
      <stop offset="1" stop-color="#082a30"/>
    </linearGradient>
    <clipPath id="clip-path-16">
      <rect id="Rectangle_300" data-name="Rectangle 300" width="584.411" height="784.908" fill="none" stroke="rgba(0,0,0,0)" stroke-miterlimit="10" stroke-width="1"/>
    </clipPath>
    <clipPath id="clip-path-17">
      <path id="Path_949" data-name="Path 949" d="M220.548,466.954c1.36-12.848,5.887-20.758,11.69-32.578,8.361-17.033,21.736-34.836,37.657-46.85,7.6-5.736,14.511-12.6,23.008-17.327-.367,1.955-19.976,25.174-25.225,31.146-7.2,8.189-14.44,19.776-20.648,28.59a236.008,236.008,0,0,0-20.08,33.451c-.459.96-.918,1.927-1.345,2.9,0,0,11.318-11.947,19.112-18.509l55.322-46.558c-9.159,19.389-24.432,36.451-43.612,48.713-9.02,5.77-19.609,11.314-22.867,20.775,15.756-10.213,31.889-20.323,50.065-26.576s38.839-8.367,57.114-2.349c-18.549,1.219-37.217,2.456-55.22,6.617s-35.5,11.455-48.538,23.276a225.874,225.874,0,0,1,66.834-8.987c9.187.147,18.888,1.017,26.321,5.83-59.252-2.773-85.177,8.645-85.177,8.645s29.929-4.3,44.324-.879c5.42,1.285,11.555,4.671,10.975,9.644a223.9,223.9,0,0,0-94.414,2.04l-10.059-37.635c5.512,9.416,12.022,13.3,13.4,23.148-5.934-53.909-35.346-86.495-30.1-140.9,12.848,52.492,22.2,82.89,37.389,133.546-12.511-46.294-2.1-98.167,32.131-134.726a339.207,339.207,0,0,0-28.055,135.552" transform="translate(-178.46 -331.403)" stroke="rgba(0,0,0,0)" stroke-width="1" fill="url(#radial-gradient-7)"/>
    </clipPath>
    <radialGradient id="radial-gradient-17" cx="0.567" cy="0.095" r="2.475" gradientTransform="matrix(-0.938, 0, 0, 1, 1.099, 0)" xlink:href="#radial-gradient"/>
    <clipPath id="clip-path-18">
      <path id="Path_950" data-name="Path 950" d="M281.992,423.262c.026.031.051.064.075.092a.862.862,0,0,0-.075-.092m29.922-77.754c2.268,3.206,3.287,7.119,3.986,10.982,3.054,16.919.734,34.291-1.589,51.326a63.173,63.173,0,0,1,12.127-20.556c2.188-2.478,5.873-4.9,8.478-2.876,2.012,1.566,1.714,4.645,1.143,7.128a120.794,120.794,0,0,1-5.68,18.087,70.049,70.049,0,0,1,36.241-26.363c5.409-1.665,12.447-3.278,17.145.96,4.845,4.368,3.425,11.813.393,16.774-4.836,7.913-12.946,13.28-19.96,19.064a110.618,110.618,0,0,1-24.737,15.748c12.318-5.585,22.034-12.389,35.514-13.474,3.357-.27,7.416.127,9,3.1,1.167,2.2.382,5.023-1.244,6.906a17.707,17.707,0,0,1-6.182,4.067c-10.278,4.772-32.327,10.235-32.327,10.235s20.1-3.568,19.864,1.58c-.3,6.617-32.945,7.093-32.945,7.093l-45.572-3.438a48.105,48.105,0,0,1-31.189-10.117c-1.226-.962-2.494-2.691-1.5-3.887a2.983,2.983,0,0,1,2.276-.756,50.94,50.94,0,0,1,10.795.809c-6.141-3.159-12.291-6.323-18.105-10.048-4.313-2.762-8.638-6.214-11.419-10.407V404.077a11.408,11.408,0,0,1,2.893-.422,52.757,52.757,0,0,1,31.424,9.2C260.65,403.506,248.6,391,255.457,387.27c10.553-5.733,29.052,20.04,32.853,24.363a51.023,51.023,0,0,1,4.221-66.023c2.588-2.674,5.741-5.179,9.452-5.435.2-.015.4-.022.6-.022,3.695,0,7.174,2.316,9.323,5.356" transform="translate(-236.428 -340.153)" fill="none" stroke="rgba(0,0,0,0)" stroke-miterlimit="10" stroke-width="1"/>
    </clipPath>
    <linearGradient id="linear-gradient-5" x1="3.84" y1="1.395" x2="3.828" y2="1.395" gradientUnits="objectBoundingBox">
      <stop offset="0" stop-color="#0f494c"/>
      <stop offset="0.077" stop-color="#104f4d"/>
      <stop offset="0.69" stop-color="#1f7b5c"/>
      <stop offset="1" stop-color="#258d62"/>
    </linearGradient>
    <clipPath id="clip-path-19">
      <path id="Path_951" data-name="Path 951" d="M301.895,370.653c-11.705,5.245-22.076,12.823-31.349,21.634-9.085,8.631-16.717,18.44-25.126,27.683-.3.325-.888-.114-.62-.477,14.683-19.945,33.717-39.644,56.881-49.349a.221.221,0,0,1,.092-.018c.24,0,.384.415.127.529" transform="translate(-244.731 -370.124)" fill="none" stroke="rgba(0,0,0,0)" stroke-miterlimit="10" stroke-width="1"/>
    </clipPath>
    <linearGradient id="linear-gradient-6" x1="8.793" y1="2.106" x2="8.761" y2="2.106" xlink:href="#linear-gradient-5"/>
    <clipPath id="clip-path-20">
      <path id="Path_952" data-name="Path 952" d="M293.963,391.632a206.135,206.135,0,0,0-22.738,7.212c-7.939,3.052-15.385,7-23.172,10.356a.315.315,0,0,1-.317-.543c13.614-8.693,30.467-13.931,46.018-17.77a.4.4,0,0,1,.1-.013.388.388,0,0,1,.106.758" transform="translate(-247.588 -390.874)" fill="none" stroke="rgba(0,0,0,0)" stroke-miterlimit="10" stroke-width="1"/>
    </clipPath>
    <linearGradient id="linear-gradient-7" x1="10.657" y1="3.658" x2="10.618" y2="3.658" xlink:href="#linear-gradient-5"/>
    <clipPath id="clip-path-21">
      <path id="Path_953" data-name="Path 953" d="M291.358,371.474C281.038,387.9,274.4,405.4,268.415,423.739a.295.295,0,0,1-.567-.158c3.726-18.651,12.518-36.651,22.693-52.583a.449.449,0,0,1,.389-.22.459.459,0,0,1,.429.7" transform="translate(-267.84 -370.776)" fill="none" stroke="rgba(0,0,0,0)" stroke-miterlimit="10" stroke-width="1"/>
    </clipPath>
    <linearGradient id="linear-gradient-8" x1="21.635" y1="1.959" x2="21.558" y2="1.959" xlink:href="#linear-gradient-5"/>
    <clipPath id="clip-path-22">
      <path id="Path_954" data-name="Path 954" d="M283.8,349.462c-4.515,28.771.543,56.725,3.049,85.349a.475.475,0,0,1-.931.125c-5.165-27.9-7.592-57.61-3-85.718a.367.367,0,0,1,.378-.332.507.507,0,0,1,.508.576" transform="translate(-280.488 -348.886)" fill="none" stroke="rgba(0,0,0,0)" stroke-miterlimit="10" stroke-width="1"/>
    </clipPath>
    <linearGradient id="linear-gradient-9" x1="61.07" y1="1.67" x2="60.856" y2="1.67" gradientUnits="objectBoundingBox">
      <stop offset="0" stop-color="#0f494c"/>
      <stop offset="0.048" stop-color="#104f4d"/>
      <stop offset="0.431" stop-color="#1f7b5c"/>
      <stop offset="0.624" stop-color="#258d62"/>
      <stop offset="1" stop-color="#258d62"/>
    </linearGradient>
    <clipPath id="clip-path-23">
      <path id="Path_955" data-name="Path 955" d="M196.757,373.862c4.864,1.437,9.96,3.7,12.491,8.323,1.476,2.694,1.889,5.873,2.792,8.835,3.359,11.024,14.431,18.813,25.35,17.843,8.167-.734,16.989-5.6,23.968-1.065,5.965,3.88,7,12.586,11.424,18.323,7.383,9.58,21.158,8.286,32.8,9.431,17.3,1.7,33.66,10.639,51.031,10.411,7.118-.092,14.183-1.744,21.3-1.505,7.6.25,14.985,2.63,22.258,4.992l60.344,19.594c-13.531,2.146-27.066,4.289-40.649,6.017H148.338V376.5a75.049,75.049,0,0,1,28.2-5.53,71.389,71.389,0,0,1,20.222,2.892" transform="translate(-148.338 -370.971)" stroke="rgba(0,0,0,0)" stroke-width="1" fill="url(#radial-gradient-8)"/>
    </clipPath>
    <radialGradient id="radial-gradient-18" cx="0.567" cy="0.095" r="2.53" gradientTransform="matrix(-0.333, 0, 0, 1, 0.756, 0)" xlink:href="#radial-gradient"/>
    <clipPath id="clip-path-24">
      <path id="Path_956" data-name="Path 956" d="M302.407,396.812a29.046,29.046,0,0,1-13.774,18.981c-5.551,3.274-12.856,6.018-19.363,4.012a30.035,30.035,0,0,1,13.572-19.354c3.908-2.423,9.154-4.8,14.115-4.8a12.546,12.546,0,0,1,5.455,1.165" transform="translate(-269.27 -395.649)" fill="none" stroke="rgba(0,0,0,0)" stroke-miterlimit="10" stroke-width="1"/>
    </clipPath>
    <linearGradient id="linear-gradient-10" x1="-11.669" y1="-0.652" x2="-11.625" y2="-0.652" gradientUnits="objectBoundingBox">
      <stop offset="0" stop-color="#627f31"/>
      <stop offset="0.497" stop-color="#769b4d"/>
      <stop offset="1" stop-color="#88b567"/>
    </linearGradient>
    <clipPath id="clip-path-25">
      <path id="Path_957" data-name="Path 957" d="M297.616,400.531c-1.916,4.13-5.06,8.642-9.648,10.081a21.2,21.2,0,0,1,.143-16.677c1.795-4.1,5.107-9.177,9.911-9.941a20.5,20.5,0,0,1-.409,16.538" transform="translate(-286.33 -383.993)" fill="none" stroke="rgba(0,0,0,0)" stroke-miterlimit="10" stroke-width="1"/>
    </clipPath>
    <linearGradient id="linear-gradient-11" x1="-18.952" y1="-3.393" x2="-18.885" y2="-3.393" xlink:href="#linear-gradient-10"/>
    <clipPath id="clip-path-26">
      <path id="Path_958" data-name="Path 958" d="M296.579,368.424a3.016,3.016,0,1,1-.884-2.135,3.017,3.017,0,0,1,.884,2.135" transform="translate(-290.544 -365.407)" fill="none" stroke="rgba(0,0,0,0)" stroke-miterlimit="10" stroke-width="1"/>
    </clipPath>
    <linearGradient id="linear-gradient-12" x1="-62.377" y1="-12.502" x2="-62.162" y2="-12.502" gradientUnits="objectBoundingBox">
      <stop offset="0" stop-color="#adce72"/>
      <stop offset="0.036" stop-color="#a9cb71"/>
      <stop offset="0.683" stop-color="#76a766"/>
      <stop offset="1" stop-color="#639a62"/>
    </linearGradient>
    <clipPath id="clip-path-27">
      <path id="Path_945-2" data-name="Path 945" d="M309.869,311.513c-5.246,1.221-7.386,7.517-7.8,12.887a54.277,54.277,0,0,0,5.231,27.691c-1.362-2.813-10.877-6.633-13.818-6.635-7.286-.006-3.228,12.158-2.062,16.494-.275-.177-.535-.367-.808-.541-5.213-3.322-10.9-6.326-17.069-6.7-3.639-.223-8.076,1.181-8.81,4.753-.537,2.623,1.222,5.139,3.1,7.05,8.076,8.189,19.514,11.672,30.98,13.737-1.677,9.216-9.763,22.5-3.325,25.053l38.223-6.5v-71.1q-.2.347-.367.7c-1.767,3.642-2.06,7.8-2.261,11.843a44.664,44.664,0,0,0-9.388-22.69c-2.549-3.2-6.2-6.24-10.125-6.24a7.5,7.5,0,0,0-1.7.2" transform="translate(-264.634 -311.322)" fill="none" stroke="rgba(0,0,0,0)" stroke-miterlimit="10" stroke-width="1"/>
    </clipPath>
    <linearGradient id="linear-gradient-13" x1="-2.99" y1="1.38" x2="-2.978" y2="1.38" xlink:href="#linear-gradient-4"/>
    <clipPath id="clip-path-28">
      <rect id="Rectangle_300-2" data-name="Rectangle 300" width="408.81" height="549.062" fill="none" stroke="rgba(0,0,0,0)" stroke-miterlimit="10" stroke-width="1"/>
    </clipPath>
    <clipPath id="clip-path-29">
      <path id="Path_949-2" data-name="Path 949" d="M262.538,426.224c-.952-8.985-4.119-14.521-8.177-22.787-5.849-11.915-15.205-24.369-26.338-32.772-5.323-4.013-10.151-8.816-16.1-12.12.258,1.367,13.974,17.609,17.645,21.788,5.036,5.728,10.1,13.834,14.444,20a165.094,165.094,0,0,1,14.041,23.4c.324.672.642,1.346.941,2.028,0,0-7.917-8.357-13.37-12.947l-38.7-32.569a83.156,83.156,0,0,0,30.508,34.076c6.31,4.038,13.718,7.915,16,14.532-11.021-7.144-22.307-14.217-35.022-18.59s-27.169-5.853-39.953-1.644c12.975.853,26.034,1.718,38.628,4.628s24.833,8.013,33.954,16.283a158,158,0,0,0-46.751-6.287c-6.424.1-13.215.711-18.412,4.078,41.448-1.94,59.583,6.048,59.583,6.048s-20.936-3.005-31-.615c-3.791.9-8.083,3.267-7.677,6.746a156.626,156.626,0,0,1,66.045,1.426l7.038-26.328c-3.854,6.587-8.406,9.3-9.373,16.193,4.151-37.71,24.726-60.5,21.056-98.559-8.987,36.721-15.526,57.984-26.154,93.42,8.752-32.383,1.468-68.67-22.477-94.246a237.283,237.283,0,0,1,19.624,94.82" transform="translate(-178.46 -331.404)" stroke="rgba(0,0,0,0)" stroke-width="1" fill="url(#radial-gradient-9)"/>
    </clipPath>
    <radialGradient id="radial-gradient-19" cx="0.433" cy="0.095" r="2.475" gradientTransform="matrix(0.938, -0.013, 0.002, 0.166, 0.027, 0.085)" xlink:href="#radial-gradient"/>
    <clipPath id="clip-path-30">
      <path id="Path_950-2" data-name="Path 950" d="M309.841,398.29l-.052.067c.016-.022.033-.044.052-.067M288.911,343.9a18.956,18.956,0,0,0-2.789,7.682c-2.136,11.838-.514,23.987,1.112,35.9a44.191,44.191,0,0,0-8.483-14.378c-1.531-1.731-4.107-3.43-5.931-2.012-1.407,1.095-1.2,3.25-.8,4.987a84.508,84.508,0,0,0,3.974,12.652,49,49,0,0,0-25.355-18.446c-3.784-1.165-8.707-2.294-11.993.672-3.389,3.055-2.4,8.264-.275,11.734,3.383,5.535,9.056,9.29,13.963,13.336a77.381,77.381,0,0,0,17.3,11.012c-8.617-3.907-15.417-8.665-24.844-9.426-2.348-.189-5.188.092-6.294,2.168a4.461,4.461,0,0,0,.87,4.831,12.361,12.361,0,0,0,4.325,2.845c7.192,3.34,22.614,7.158,22.614,7.158s-14.059-2.5-13.9,1.1c.21,4.63,23.045,4.962,23.045,4.962l31.883-2.391a33.65,33.65,0,0,0,21.818-7.077c.857-.673,1.744-1.882,1.048-2.719a2.087,2.087,0,0,0-1.592-.529,35.636,35.636,0,0,0-7.552.566c4.3-2.21,8.6-4.422,12.664-7.029a26.931,26.931,0,0,0,7.984-7.28V384.87a7.983,7.983,0,0,0-2.019-.3,36.9,36.9,0,0,0-21.981,6.439c7.058-6.542,15.494-15.29,10.694-17.9-7.382-4.01-20.322,14.02-22.983,17.042a35.7,35.7,0,0,0-2.953-46.184c-1.811-1.87-4.016-3.623-6.607-3.8-.141-.01-.281-.016-.421-.016a8.362,8.362,0,0,0-6.522,3.746" transform="translate(-236.433 -340.154)" fill="none" stroke="rgba(0,0,0,0)" stroke-miterlimit="10" stroke-width="1"/>
    </clipPath>
    <linearGradient id="linear-gradient-14" x1="-2.84" y1="1.395" x2="-2.828" y2="1.395" xlink:href="#linear-gradient-5"/>
    <clipPath id="clip-path-31">
      <path id="Path_951-2" data-name="Path 951" d="M244.827,370.49a78.946,78.946,0,0,1,21.933,15.134c6.355,6.037,11.694,12.9,17.576,19.363.206.228.621-.08.434-.334-10.269-13.949-23.585-27.73-39.79-34.522a.156.156,0,0,0-.062-.013c-.168,0-.268.29-.092.367" transform="translate(-244.734 -370.118)" fill="none" stroke="rgba(0,0,0,0)" stroke-miterlimit="10" stroke-width="1"/>
    </clipPath>
    <linearGradient id="linear-gradient-15" x1="-7.793" y1="2.106" x2="-7.761" y2="2.106" xlink:href="#linear-gradient-5"/>
    <clipPath id="clip-path-32">
      <path id="Path_952-2" data-name="Path 952" d="M247.771,391.409a144.187,144.187,0,0,1,15.906,5.047c5.554,2.135,10.762,4.894,16.209,7.244a.22.22,0,0,0,.222-.38c-9.523-6.082-21.31-9.745-32.191-12.431a.282.282,0,0,0-.072-.009.275.275,0,0,0-.074.53" transform="translate(-247.596 -390.88)" fill="none" stroke="rgba(0,0,0,0)" stroke-miterlimit="10" stroke-width="1"/>
    </clipPath>
    <linearGradient id="linear-gradient-16" x1="-9.657" y1="3.658" x2="-9.618" y2="3.658" xlink:href="#linear-gradient-5"/>
    <clipPath id="clip-path-33">
      <path id="Path_953-2" data-name="Path 953" d="M267.9,371.264c7.219,11.488,11.859,23.729,16.05,36.562a.206.206,0,0,0,.4-.11c-2.606-13.047-8.757-25.638-15.876-36.785a.314.314,0,0,0-.275-.154.323.323,0,0,0-.3.488" transform="translate(-267.845 -370.776)" fill="none" stroke="rgba(0,0,0,0)" stroke-miterlimit="10" stroke-width="1"/>
    </clipPath>
    <linearGradient id="linear-gradient-17" x1="-20.635" y1="1.959" x2="-20.558" y2="1.959" xlink:href="#linear-gradient-5"/>
    <clipPath id="clip-path-34">
      <path id="Path_954-2" data-name="Path 954" d="M282.619,349.289c3.158,20.126-.38,39.681-2.133,59.7a.333.333,0,0,0,.651.092c3.613-19.514,5.311-40.3,2.1-59.962a.258.258,0,0,0-.264-.232.354.354,0,0,0-.356.4" transform="translate(-280.486 -348.891)" fill="none" stroke="rgba(0,0,0,0)" stroke-miterlimit="10" stroke-width="1"/>
    </clipPath>
    <linearGradient id="linear-gradient-18" x1="-60.07" y1="1.67" x2="-59.856" y2="1.67" xlink:href="#linear-gradient-9"/>
    <clipPath id="clip-path-35">
      <path id="Path_955-2" data-name="Path 955" d="M332.841,372.993c-3.4,1.009-6.967,2.59-8.737,5.822-1.032,1.885-1.321,4.107-1.953,6.181-2.349,7.709-10.095,13.162-17.733,12.481-5.711-.511-11.884-3.917-16.766-.744-4.173,2.714-4.9,8.8-7.991,12.817-5.165,6.7-14.8,5.8-22.942,6.6-12.1,1.193-23.546,7.442-35.7,7.283-4.979-.065-9.921-1.217-14.9-1.053-5.323.174-10.482,1.835-15.569,3.492l-42.214,13.707c9.465,1.5,18.934,3,28.434,4.209h189.94V374.837a52.5,52.5,0,0,0-19.726-3.868,49.942,49.942,0,0,0-14.146,2.019" transform="translate(-148.338 -370.969)" stroke="rgba(0,0,0,0)" stroke-width="1" fill="url(#radial-gradient-10)"/>
    </clipPath>
    <radialGradient id="radial-gradient-20" cx="0.432" cy="0.095" r="2.53" gradientTransform="matrix(0.333, -0.015, 0.002, 0.41, 0.288, 0.063)" xlink:href="#radial-gradient"/>
    <clipPath id="clip-path-36">
      <path id="Path_956-2" data-name="Path 956" d="M269.266,396.461a20.318,20.318,0,0,0,9.635,13.275c3.884,2.294,8.993,4.209,13.548,2.806A21.015,21.015,0,0,0,282.955,399c-2.733-1.695-6.4-3.359-9.873-3.359a8.776,8.776,0,0,0-3.816.815" transform="translate(-269.266 -395.644)" fill="none" stroke="rgba(0,0,0,0)" stroke-miterlimit="10" stroke-width="1"/>
    </clipPath>
    <linearGradient id="linear-gradient-19" x1="-11.669" y1="1.652" y2="1.652" xlink:href="#linear-gradient-10"/>
    <clipPath id="clip-path-37">
      <path id="Path_957-2" data-name="Path 957" d="M287.69,395.562c1.341,2.886,3.539,6.046,6.749,7.051a14.829,14.829,0,0,0-.1-11.666c-1.255-2.868-3.573-6.419-6.935-6.954a14.338,14.338,0,0,0,.286,11.568" transform="translate(-286.324 -383.994)" fill="none" stroke="rgba(0,0,0,0)" stroke-miterlimit="10" stroke-width="1"/>
    </clipPath>
    <linearGradient id="linear-gradient-20" x1="-18.952" y1="4.393" x2="-18.885" y2="4.393" xlink:href="#linear-gradient-10"/>
    <clipPath id="clip-path-38">
      <path id="Path_958-2" data-name="Path 958" d="M290.544,367.518a2.111,2.111,0,1,0,2.111-2.111,2.111,2.111,0,0,0-2.111,2.111" transform="translate(-290.544 -365.407)" fill="none" stroke="rgba(0,0,0,0)" stroke-miterlimit="10" stroke-width="1"/>
    </clipPath>
    <linearGradient id="linear-gradient-21" x1="-62.377" y1="13.502" x2="-62.162" y2="13.502" xlink:href="#linear-gradient-12"/>
    <linearGradient id="linear-gradient-22" x1="0.5" y1="0.164" x2="0.5" y2="1" gradientUnits="objectBoundingBox">
      <stop offset="0" stop-color="#00806e" stop-opacity="0"/>
      <stop offset="1" stop-color="#082a30"/>
    </linearGradient>
    <clipPath id="clip-Web_1920_1">
      <rect width="1126" height="171"/>
    </clipPath>
  </defs>
  <g id="Web_1920_1" data-name="Web 1920 – 1" clip-path="url(#clip-Web_1920_1)">
    <rect width="1126" height="171" fill="#fff"/>
    <g id="Group_469" data-name="Group 469" transform="translate(-7497 -13568)">
      <rect id="Rectangle_323" data-name="Rectangle 323" width="1126" height="256.034" transform="translate(7497 13500)" fill="url(#radial-gradient)"/>
      <g id="Mask_Group_3" data-name="Mask Group 3" transform="translate(7497 13500)" clip-path="url(#clip-path)">
        <g id="Group_468" data-name="Group 468" transform="translate(0 -525.202)">
          <g id="Group_457" data-name="Group 457" transform="translate(235.845 424.256)" opacity="0.72">
            <g id="Group_435" data-name="Group 435" transform="translate(0 0)">
              <g id="Group_434" data-name="Group 434" clip-path="url(#clip-path-2)">
                <g id="Group_433" data-name="Group 433" transform="translate(0 -0.004)">
                  <g id="Group_432" data-name="Group 432" clip-path="url(#clip-path-3)">
                    <rect id="Rectangle_311" data-name="Rectangle 311" width="117.434" height="505.757" transform="translate(-0.14 0.004)" fill="url(#linear-gradient)"/>
                  </g>
                </g>
              </g>
            </g>
          </g>
          <g id="Group_466" data-name="Group 466" transform="translate(891.073 383.878)" opacity="0.72">
            <g id="Group_435-2" data-name="Group 435" transform="translate(0 0)">
              <g id="Group_434-2" data-name="Group 434" clip-path="url(#clip-path-2)">
                <g id="Group_433-2" data-name="Group 433" transform="translate(0 -0.004)">
                  <g id="Group_432-2" data-name="Group 432" clip-path="url(#clip-path-3)">
                    <rect id="Rectangle_311-2" data-name="Rectangle 311" width="117.434" height="505.757" transform="translate(-0.14 0.004)" fill="url(#linear-gradient)"/>
                  </g>
                </g>
              </g>
            </g>
          </g>
          <g id="Group_465" data-name="Group 465" transform="translate(345.621 525.797)" opacity="0.72">
            <g id="Group_435-3" data-name="Group 435" transform="translate(0 0)">
              <g id="Group_434-3" data-name="Group 434" clip-path="url(#clip-path-6)">
                <g id="Group_433-3" data-name="Group 433" transform="translate(-0.002 -0.005)">
                  <g id="Group_432-3" data-name="Group 432" clip-path="url(#clip-path-7)">
                    <rect id="Rectangle_311-3" data-name="Rectangle 311" width="70.28" height="302.676" transform="translate(-0.083 0.005)" fill="url(#linear-gradient)"/>
                  </g>
                </g>
              </g>
            </g>
          </g>
          <g id="Group_458" data-name="Group 458" transform="translate(15.614 256.63)">
            <g id="Group_400" data-name="Group 400" transform="translate(0)">
              <g id="Group_399" data-name="Group 399" transform="translate(0)" clip-path="url(#clip-path-8)">
                <path id="Path_1135" data-name="Path 1135" d="M0,0,695.981,142.044l87.08,527.224L87.08,527.222Z" transform="translate(-458.208 515.278) rotate(-60)" stroke="rgba(0,0,0,0)" stroke-width="1" fill="url(#radial-gradient-12)"/>
              </g>
            </g>
            <g id="Group_402" data-name="Group 402" transform="translate(0.003 2.531)" opacity="0.34">
              <g id="Group_401" data-name="Group 401" transform="translate(0)" clip-path="url(#clip-path-9)">
                <path id="Path_1136" data-name="Path 1136" d="M0,0,556.969,113.673l70.359,425.99L70.359,425.99Z" transform="translate(-363.345 410.179) rotate(-60)" fill="#48a170"/>
              </g>
            </g>
          </g>
          <g id="Group_463" data-name="Group 463" transform="translate(82.605 441.085)">
            <g id="Group_400-2" data-name="Group 400" transform="translate(0)">
              <g id="Group_399-2" data-name="Group 399" transform="translate(0)" clip-path="url(#clip-path-8)">
                <path id="Path_1135-2" data-name="Path 1135" d="M0,0,695.981,142.044l87.08,527.224L87.08,527.222Z" transform="translate(-458.208 515.278) rotate(-60)" stroke="rgba(0,0,0,0)" stroke-width="1" fill="url(#radial-gradient-13)"/>
              </g>
            </g>
            <g id="Group_402-2" data-name="Group 402" transform="translate(0.003 2.531)" opacity="0.34">
              <g id="Group_401-2" data-name="Group 401" transform="translate(0)" clip-path="url(#clip-path-9)">
                <path id="Path_1136-2" data-name="Path 1136" d="M0,0,556.969,113.673l70.359,425.99L70.359,425.99Z" transform="translate(-363.345 410.179) rotate(-60)" fill="#48a170"/>
              </g>
            </g>
          </g>
          <g id="Group_459" data-name="Group 459" transform="translate(0 526.12)">
            <g id="Group_404" data-name="Group 404" clip-path="url(#clip-path-12)">
              <rect id="Rectangle_298" data-name="Rectangle 298" width="168.254" height="136.735" stroke="rgba(0,0,0,0)" stroke-width="1" fill="url(#radial-gradient-14)"/>
            </g>
          </g>
          <g id="Group_467" data-name="Group 467" transform="translate(840.599 526.12)">
            <g id="Group_404-2" data-name="Group 404" transform="translate(0)" clip-path="url(#clip-path-13)">
              <rect id="Rectangle_298-2" data-name="Rectangle 298" width="291.094" height="236.564" transform="translate(-3.858)" stroke="rgba(0,0,0,0)" stroke-width="1" fill="url(#radial-gradient-15)"/>
            </g>
          </g>
          <g id="Group_460" data-name="Group 460" transform="translate(957.94 528.445)" opacity="0.47">
            <g id="Group_404-3" data-name="Group 404" transform="translate(0)" clip-path="url(#clip-path-14)">
              <rect id="Rectangle_298-3" data-name="Rectangle 298" width="172.168" height="139.916" transform="translate(-2.282)" stroke="rgba(0,0,0,0)" stroke-width="1" fill="url(#radial-gradient-16)"/>
            </g>
          </g>
          <g id="Group_464" data-name="Group 464" transform="translate(2.272)">
            <g id="Group_407" data-name="Group 407" transform="translate(0.005 571.345)">
              <g id="Group_406" data-name="Group 406" transform="translate(0 0)" clip-path="url(#clip-path-15)">
                <rect id="Rectangle_299" data-name="Rectangle 299" width="153.236" height="166.034" transform="translate(74.534 177.372) rotate(-150)" stroke="rgba(0,0,0,0)" stroke-miterlimit="10" stroke-width="1" fill="url(#linear-gradient-4)"/>
              </g>
            </g>
            <g id="Group_409" data-name="Group 409" transform="translate(0.004)">
              <g id="Group_408" data-name="Group 408" clip-path="url(#clip-path-16)">
                <path id="Path_946" data-name="Path 946" d="M324.453,352.709c-19.332,5.323-35.66,14.634-51.737,26.354-.4.286-.881-.351-.521-.675,14.344-13.025,33.416-21.707,52.086-26.3a.322.322,0,0,1,.173.62" transform="translate(-239.58 294.067)" fill="#003c4f" stroke="rgba(0,0,0,0)" stroke-miterlimit="10" stroke-width="1"/>
                <path id="Path_947" data-name="Path 947" d="M321.505,346.181c-12.333,10.47-23.021,21.164-29.326,36.308-.233.551-1.092.362-.929-.255,4.073-15.464,17.865-26.945,29.759-36.549.345-.275.846.2.5.5" transform="translate(-271.691 288.658)" fill="#003c4f" stroke="rgba(0,0,0,0)" stroke-miterlimit="10" stroke-width="1"/>
                <path id="Path_948" data-name="Path 948" d="M326.208,320.925c-20.51,20.74-24.484,49.974-26.222,77.778a.395.395,0,0,1-.789,0c.165-27.995,5.491-58.079,26.473-78.315a.381.381,0,0,1,.538.538" transform="translate(-291.008 267.506)" fill="#003c4f" stroke="rgba(0,0,0,0)" stroke-miterlimit="10" stroke-width="1"/>
              </g>
            </g>
            <g id="Group_411" data-name="Group 411" transform="translate(94.617 608.202)">
              <g id="Group_410" data-name="Group 410" transform="translate(0 0)" clip-path="url(#clip-path-17)">
                <rect id="Rectangle_301" data-name="Rectangle 301" width="166.906" height="156.566" transform="translate(-4.623 -0.001)" stroke="rgba(0,0,0,0)" stroke-width="1" fill="url(#radial-gradient-17)"/>
              </g>
            </g>
            <g id="Group_413" data-name="Group 413" transform="translate(0 624.262)">
              <g id="Group_412" data-name="Group 412" transform="translate(0 0)" clip-path="url(#clip-path-18)">
                <rect id="Rectangle_302" data-name="Rectangle 302" width="152.184" height="115.135" transform="translate(0.004 0.001)" stroke="rgba(0,0,0,0)" stroke-miterlimit="10" stroke-width="1" fill="url(#linear-gradient-5)"/>
              </g>
            </g>
            <g id="Group_415" data-name="Group 415" transform="translate(77.977 679.261)">
              <g id="Group_414" data-name="Group 414" transform="translate(0 0)" clip-path="url(#clip-path-19)">
                <rect id="Rectangle_303" data-name="Rectangle 303" width="57.62" height="50.17" transform="translate(-0.199 -0.005)" stroke="rgba(0,0,0,0)" stroke-miterlimit="10" stroke-width="1" fill="url(#linear-gradient-6)"/>
              </g>
            </g>
            <g id="Group_417" data-name="Group 417" transform="translate(83.401 717.349)">
              <g id="Group_416" data-name="Group 416" transform="translate(0 0)" clip-path="url(#clip-path-20)">
                <rect id="Rectangle_304" data-name="Rectangle 304" width="47.026" height="18.485" transform="translate(-0.205 0.005)" stroke="rgba(0,0,0,0)" stroke-miterlimit="10" stroke-width="1" fill="url(#linear-gradient-7)"/>
              </g>
            </g>
            <g id="Group_419" data-name="Group 419" transform="translate(69.275 680.461)">
              <g id="Group_418" data-name="Group 418" transform="translate(0 0)" clip-path="url(#clip-path-21)">
                <rect id="Rectangle_305" data-name="Rectangle 305" width="23.813" height="53.322" transform="translate(-0.07 0)" stroke="rgba(0,0,0,0)" stroke-miterlimit="10" stroke-width="1" fill="url(#linear-gradient-8)"/>
              </g>
            </g>
            <g id="Group_421" data-name="Group 421" transform="translate(63.298 640.287)">
              <g id="Group_420" data-name="Group 420" transform="translate(0 0)" clip-path="url(#clip-path-22)">
                <rect id="Rectangle_306" data-name="Rectangle 306" width="8.568" height="86.575" transform="translate(-2.163 0)" stroke="rgba(0,0,0,0)" stroke-miterlimit="10" stroke-width="1" fill="url(#linear-gradient-9)"/>
              </g>
            </g>
            <g id="Group_423" data-name="Group 423" transform="translate(0.005 680.817)">
              <g id="Group_422" data-name="Group 422" transform="translate(0 0)" clip-path="url(#clip-path-23)">
                <rect id="Rectangle_307" data-name="Rectangle 307" width="312.176" height="104.092" transform="translate(-0.001 -0.002)" stroke="rgba(0,0,0,0)" stroke-width="1" fill="url(#radial-gradient-18)"/>
              </g>
            </g>
            <g id="Group_425" data-name="Group 425" transform="translate(57.111 726.106)">
              <g id="Group_424" data-name="Group 424" transform="translate(0 0)" clip-path="url(#clip-path-24)">
                <rect id="Rectangle_308" data-name="Rectangle 308" width="41.967" height="39.744" transform="matrix(-0.848, -0.53, 0.53, -0.848, 23.838, 41.048)" stroke="rgba(0,0,0,0)" stroke-miterlimit="10" stroke-width="1" fill="url(#linear-gradient-10)"/>
              </g>
            </g>
            <g id="Group_427" data-name="Group 427" transform="translate(45.701 704.717)">
              <g id="Group_426" data-name="Group 426" transform="translate(0 0)" clip-path="url(#clip-path-25)">
                <rect id="Rectangle_309" data-name="Rectangle 309" width="27.31" height="17.198" transform="translate(-0.579 27.336) rotate(-92.565)" stroke="rgba(0,0,0,0)" stroke-miterlimit="10" stroke-width="1" fill="url(#linear-gradient-11)"/>
              </g>
            </g>
            <g id="Group_429" data-name="Group 429" transform="translate(45.164 670.608)">
              <g id="Group_428" data-name="Group 428" clip-path="url(#clip-path-26)">
                <rect id="Rectangle_310" data-name="Rectangle 310" width="8.534" height="8.534" transform="translate(3.017 9.052) rotate(-135)" stroke="rgba(0,0,0,0)" stroke-miterlimit="10" stroke-width="1" fill="url(#linear-gradient-12)"/>
              </g>
            </g>
          </g>
          <g id="Group_461" data-name="Group 461" transform="translate(718.989 235.845)" opacity="0.49">
            <g id="Group_407-2" data-name="Group 407" transform="translate(339.734 399.67)">
              <g id="Group_406-2" data-name="Group 406" transform="translate(0 0)" clip-path="url(#clip-path-27)">
                <rect id="Rectangle_299-2" data-name="Rectangle 299" width="107.192" height="116.145" transform="translate(-41.135 23.49) rotate(-30)" stroke="rgba(0,0,0,0)" stroke-miterlimit="10" stroke-width="1" fill="url(#linear-gradient-13)"/>
              </g>
            </g>
            <g id="Group_409-2" data-name="Group 409">
              <g id="Group_408-2" data-name="Group 408" clip-path="url(#clip-path-28)">
                <path id="Path_946-2" data-name="Path 946" d="M272.23,352.519c13.523,3.724,24.945,10.237,36.192,18.435.275.2.617-.245.367-.473-10.034-9.111-23.375-15.185-36.432-18.4a.226.226,0,0,0-.12.434" transform="translate(77.209 99.917)" fill="#003c4f" stroke="rgba(0,0,0,0)" stroke-miterlimit="10" stroke-width="1"/>
                <path id="Path_947-2" data-name="Path 947" d="M291.315,346.007c8.626,7.324,16.1,14.805,20.514,25.4.163.386.764.253.65-.178-2.845-10.818-12.5-18.848-20.817-25.567-.241-.2-.592.141-.347.347" transform="translate(82.649 98.079)" fill="#003c4f" stroke="rgba(0,0,0,0)" stroke-miterlimit="10" stroke-width="1"/>
                <path id="Path_948-2" data-name="Path 948" d="M299.277,320.729c14.348,14.507,17.127,34.957,18.343,54.407a.275.275,0,0,0,.551,0c-.116-19.583-3.841-40.628-18.519-54.786a.266.266,0,0,0-.376.376" transform="translate(84.909 90.892)" fill="#003c4f" stroke="rgba(0,0,0,0)" stroke-miterlimit="10" stroke-width="1"/>
              </g>
            </g>
            <g id="Group_411-2" data-name="Group 411" transform="translate(229.105 425.453)">
              <g id="Group_410-2" data-name="Group 410" transform="translate(0 0)" clip-path="url(#clip-path-29)">
                <rect id="Rectangle_301-2" data-name="Rectangle 301" width="116.754" height="109.522" transform="translate(-0.001 -0.002)" stroke="rgba(0,0,0,0)" stroke-width="1" fill="url(#radial-gradient-19)"/>
              </g>
            </g>
            <g id="Group_413-2" data-name="Group 413" transform="translate(303.53 436.687)">
              <g id="Group_412-2" data-name="Group 412" transform="translate(0 0)" clip-path="url(#clip-path-30)">
                <rect id="Rectangle_302-2" data-name="Rectangle 302" width="106.457" height="80.539" transform="translate(-1.178 0)" stroke="rgba(0,0,0,0)" stroke-miterlimit="10" stroke-width="1" fill="url(#linear-gradient-14)"/>
              </g>
            </g>
            <g id="Group_415-2" data-name="Group 415" transform="translate(314.186 475.156)">
              <g id="Group_414-2" data-name="Group 414" transform="translate(0 0)" clip-path="url(#clip-path-31)">
                <rect id="Rectangle_303-2" data-name="Rectangle 303" width="40.307" height="35.095" transform="translate(-0.087 0.001)" stroke="rgba(0,0,0,0)" stroke-miterlimit="10" stroke-width="1" fill="url(#linear-gradient-15)"/>
              </g>
            </g>
            <g id="Group_417-2" data-name="Group 417" transform="translate(317.855 501.808)">
              <g id="Group_416-2" data-name="Group 416" transform="translate(0 0)" clip-path="url(#clip-path-32)">
                <rect id="Rectangle_304-2" data-name="Rectangle 304" width="32.896" height="12.931" transform="translate(-0.136 -0.001)" stroke="rgba(0,0,0,0)" stroke-miterlimit="10" stroke-width="1" fill="url(#linear-gradient-16)"/>
              </g>
            </g>
            <g id="Group_419-2" data-name="Group 419" transform="translate(343.855 475.999)">
              <g id="Group_418-2" data-name="Group 418" transform="translate(0 0)" clip-path="url(#clip-path-33)">
                <rect id="Rectangle_305-2" data-name="Rectangle 305" width="16.658" height="37.3" transform="translate(-0.111 0)" stroke="rgba(0,0,0,0)" stroke-miterlimit="10" stroke-width="1" fill="url(#linear-gradient-17)"/>
              </g>
            </g>
            <g id="Group_421-2" data-name="Group 421" transform="translate(360.085 447.901)">
              <g id="Group_420-2" data-name="Group 420" transform="translate(0 0)" clip-path="url(#clip-path-34)">
                <rect id="Rectangle_306-2" data-name="Rectangle 306" width="5.994" height="60.562" transform="translate(-0.032 -0.004)" stroke="rgba(0,0,0,0)" stroke-miterlimit="10" stroke-width="1" fill="url(#linear-gradient-18)"/>
              </g>
            </g>
            <g id="Group_423-2" data-name="Group 423" transform="translate(190.435 476.247)">
              <g id="Group_422-2" data-name="Group 422" transform="translate(0 0)" clip-path="url(#clip-path-35)">
                <rect id="Rectangle_307-2" data-name="Rectangle 307" width="218.375" height="72.815" transform="translate(0 0)" stroke="rgba(0,0,0,0)" stroke-width="1" fill="url(#radial-gradient-20)"/>
              </g>
            </g>
            <g id="Group_425-2" data-name="Group 425" transform="translate(345.681 507.925)">
              <g id="Group_424-2" data-name="Group 424" transform="translate(0 0)" clip-path="url(#clip-path-36)">
                <rect id="Rectangle_308-2" data-name="Rectangle 308" width="29.357" height="27.802" transform="matrix(0.848, -0.53, 0.53, 0.848, -8.222, 5.137)" stroke="rgba(0,0,0,0)" stroke-miterlimit="10" stroke-width="1" fill="url(#linear-gradient-19)"/>
              </g>
            </g>
            <g id="Group_427-2" data-name="Group 427" transform="translate(367.582 492.968)">
              <g id="Group_426-2" data-name="Group 426" transform="translate(0 0)" clip-path="url(#clip-path-37)">
                <rect id="Rectangle_309-2" data-name="Rectangle 309" width="19.104" height="12.031" transform="translate(-2.352 18.583) rotate(-87.435)" stroke="rgba(0,0,0,0)" stroke-miterlimit="10" stroke-width="1" fill="url(#linear-gradient-20)"/>
              </g>
            </g>
            <g id="Group_429-2" data-name="Group 429" transform="translate(372.998 469.106)">
              <g id="Group_428-2" data-name="Group 428" transform="translate(0 0)" clip-path="url(#clip-path-38)">
                <rect id="Rectangle_310-2" data-name="Rectangle 310" width="5.97" height="5.97" transform="translate(-2.111 2.111) rotate(-45)" stroke="rgba(0,0,0,0)" stroke-miterlimit="10" stroke-width="1" fill="url(#linear-gradient-21)"/>
              </g>
            </g>
          </g>
        </g>
      </g>
      <rect id="Rectangle_325" data-name="Rectangle 325" width="1126" height="156.924" transform="translate(7497 13599.109)" opacity="0.69" fill="url(#linear-gradient-22)"/>
    </g>
  </g>
</svg>
