<svg xmlns="http://www.w3.org/2000/svg" width="33.621" height="39" viewBox="0 0 33.621 39">
  <defs>
    <style>
      .cls-1 {
        fill: #d13330;
      }

      .cls-2 {
        fill: #ff413e;
      }

      .cls-3 {
        fill: #ff8e26;
      }

      .cls-4 {
        fill: #ffd371;
      }

      .cls-5 {
        fill: #c3c6c7;
      }

      .cls-6 {
        fill: #dadcde;
      }
    </style>
  </defs>
  <g id="_2883774" data-name="2883774" transform="translate(-56 -24)">
    <path id="Path_8805" data-name="Path 8805" class="cls-1" d="M56,56H89.621V92.31H58.69A2.69,2.69,0,0,1,56,89.621Z" transform="translate(0 -29.31)"/>
    <path id="Path_8806" data-name="Path 8806" class="cls-2" d="M88,24h28.241V60.31H88Z" transform="translate(-29.31)"/>
    <path id="Path_8807" data-name="Path 8807" class="cls-3" d="M58.69,60.31H56V24h2.69" transform="translate(0)"/>
    <path id="Path_8808" data-name="Path 8808" class="cls-4" d="M196.1,166.207a6.054,6.054,0,1,0-12.1.012,6.246,6.246,0,0,0,2.6,5.087,1.034,1.034,0,0,1,.426.844v1.3h6.052v-1.3a1.036,1.036,0,0,1,.427-.845A6.247,6.247,0,0,0,196.1,166.207Z" transform="translate(-117.241 -124.569)"/>
    <path id="Path_8809" data-name="Path 8809" class="cls-3" d="M266.812,190.9a.672.672,0,0,1-.647-.49,3.04,3.04,0,0,0-1.752-1.986.672.672,0,1,1,.509-1.245,4.395,4.395,0,0,1,2.537,2.866.673.673,0,0,1-.647.855Z" transform="translate(-190.513 -149.422)"/>
    <rect id="Rectangle_2848" data-name="Rectangle 2848" class="cls-5" width="7" height="3" rx="1.5" transform="translate(69.379 49)"/>
    <path id="Path_8810" data-name="Path 8810" class="cls-6" d="M224,352h5.379v1.345a1.345,1.345,0,0,1-1.345,1.345h-2.69A1.345,1.345,0,0,1,224,353.345Z" transform="translate(-153.879 -300.431)"/>
    <g id="Group_3085" data-name="Group 3085" transform="translate(61.379 30.724)">
      <path id="Path_8811" data-name="Path 8811" class="cls-4" d="M248.672,106.69a.672.672,0,0,1-.672-.672v-1.345a.672.672,0,0,1,1.345,0v1.345A.672.672,0,0,1,248.672,106.69Z" transform="translate(-237.241 -104)"/>
      <path id="Path_8812" data-name="Path 8812" class="cls-4" d="M196.454,114.572a.672.672,0,0,1-.615-.4l-.547-1.229a.672.672,0,1,1,1.229-.547l.547,1.229a.673.673,0,0,1-.614.946Z" transform="translate(-188.91 -111.326)"/>
      <path id="Path_8813" data-name="Path 8813" class="cls-4" d="M153.718,145.416a.67.67,0,0,1-.45-.173l-1-.9a.672.672,0,1,1,.9-1l1,.9a.672.672,0,0,1-.45,1.172Z" transform="translate(-149.342 -139.869)"/>
      <path id="Path_8814" data-name="Path 8814" class="cls-4" d="M127.513,191.138a.671.671,0,0,1-.208-.033l-1.279-.416a.672.672,0,0,1,.415-1.279l1.279.416a.672.672,0,0,1-.208,1.312Z" transform="translate(-125.093 -182.201)"/>
      <path id="Path_8815" data-name="Path 8815" class="cls-4" d="M120.664,242.126a.672.672,0,0,1-.069-1.341l1.337-.141a.672.672,0,1,1,.141,1.337l-1.337.141A.7.7,0,0,1,120.664,242.126Z" transform="translate(-119.992 -229.156)"/>
      <path id="Path_8816" data-name="Path 8816" class="cls-4" d="M362.1,242.129a.7.7,0,0,1-.071,0l-1.337-.14a.672.672,0,1,1,.141-1.337l1.337.141a.672.672,0,0,1-.069,1.341Z" transform="translate(-339.907 -229.158)"/>
      <path id="Path_8817" data-name="Path 8817" class="cls-4" d="M355.884,191.138a.672.672,0,0,1-.208-1.312l1.279-.416a.672.672,0,1,1,.415,1.279l-1.279.416A.672.672,0,0,1,355.884,191.138Z" transform="translate(-335.441 -182.201)"/>
      <path id="Path_8818" data-name="Path 8818" class="cls-4" d="M332.607,145.53a.672.672,0,0,1-.45-1.172l1-.9a.672.672,0,1,1,.9,1l-1,.9A.67.67,0,0,1,332.607,145.53Z" transform="translate(-314.12 -139.983)"/>
      <path id="Path_8819" data-name="Path 8819" class="cls-4" d="M294.933,114.572a.673.673,0,0,1-.614-.946l.547-1.229a.672.672,0,0,1,1.229.547l-.547,1.229A.672.672,0,0,1,294.933,114.572Z" transform="translate(-279.613 -111.326)"/>
    </g>
  </g>
</svg>
