<svg xmlns="http://www.w3.org/2000/svg" width="36" height="36.001" viewBox="0 0 36 36.001">
  <g id="radio" transform="translate(0 0.001)">
    <path id="Path_8569" data-name="Path 8569" d="M176,99.5a1.5,1.5,0,1,0,3,0v-18a1.5,1.5,0,1,0-3,0Zm0,0" transform="translate(-159.5 -72.5)" fill="#707070"/>
    <path id="Path_8570" data-name="Path 8570" d="M1.5,96A1.5,1.5,0,0,0,0,97.5v15a1.5,1.5,0,0,0,3,0v-15A1.5,1.5,0,0,0,1.5,96Zm0,0" transform="translate(0 -87)" fill="#707070"/>
    <path id="Path_8571" data-name="Path 8571" d="M123,125.5v-12a1.5,1.5,0,0,0-3,0v12a1.5,1.5,0,1,0,3,0Zm0,0" transform="translate(-108.75 -101.5)" fill="#707070"/>
    <path id="Path_8572" data-name="Path 8572" d="M65.5,153a1.5,1.5,0,0,0,1.5-1.5v-6a1.5,1.5,0,0,0-3,0v6a1.5,1.5,0,0,0,1.5,1.5Zm0,0" transform="translate(-58 -130.5)" fill="#707070"/>
    <path id="Path_8573" data-name="Path 8573" d="M235,125.5v-12a1.5,1.5,0,1,0-3,0v12a1.5,1.5,0,1,0,3,0Zm0,0" transform="translate(-210.25 -101.5)" fill="#707070"/>
    <path id="Path_8574" data-name="Path 8574" d="M353.5,96a1.5,1.5,0,0,0-1.5,1.5v15a1.5,1.5,0,0,0,3,0v-15a1.5,1.5,0,0,0-1.5-1.5Zm0,0" transform="translate(-319 -87)" fill="#707070"/>
    <path id="Path_8575" data-name="Path 8575" d="M289.5,144a1.5,1.5,0,0,0-1.5,1.5v6a1.5,1.5,0,1,0,3,0v-6A1.5,1.5,0,0,0,289.5,144Zm0,0" transform="translate(-261 -130.5)" fill="#707070"/>
    <path id="Path_8576" data-name="Path 8576" d="M176,339a1.5,1.5,0,0,0,3,0v-1.5a1.5,1.5,0,1,0-3,0Zm0,0" transform="translate(-159.5 -304.5)" fill="#707070"/>
    <path id="Path_8577" data-name="Path 8577" d="M177.5,4.5A1.5,1.5,0,0,0,179,3V1.5a1.5,1.5,0,0,0-3,0V3a1.5,1.5,0,0,0,1.5,1.5Zm0,0" transform="translate(-159.5 0)" fill="#707070"/>
  </g>
</svg>
