<svg xmlns="http://www.w3.org/2000/svg" width="36.06" height="36.06" viewBox="0 0 36.06 36.06">
  <path id="Union_37" data-name="Union 37" d="M6.01,36.06V21.035H0V7.512H6.01V0H36.06V27.045L27.045,36.06Zm1.5-1.5h18.03V25.542h9.015V1.5H7.512v6.01h18.03V21.035H7.512Zm19.533-.622,6.89-6.89h-6.89ZM1.5,19.532H24.04V9.015H1.5Zm15.3-2.028V12.132H15.4V11.067h4.111v1.064H18.1V17.5Zm-12.224,0V11.067H6.855a1.882,1.882,0,0,1,.834.167,1.513,1.513,0,0,1,.545.438,1.713,1.713,0,0,1,.3.617,2.865,2.865,0,0,1,.09.708,2.308,2.308,0,0,1-.149.866,1.546,1.546,0,0,1-.414.6,1.71,1.71,0,0,1-.645.352,2.889,2.889,0,0,1-.838.119H5.881V17.5Zm1.3-3.522h.577a.856.856,0,0,0,.627-.235.986.986,0,0,0,.239-.73,1.143,1.143,0,0,0-.207-.74.858.858,0,0,0-.695-.252h-.54ZM10.163,17.5V11.066h2.272a1.881,1.881,0,0,1,.834.168,1.513,1.513,0,0,1,.545.438,1.725,1.725,0,0,1,.3.617A2.894,2.894,0,0,1,14.2,13a2.309,2.309,0,0,1-.149.866,1.554,1.554,0,0,1-.415.6,1.71,1.71,0,0,1-.645.352,2.893,2.893,0,0,1-.839.117h-.693V17.5Zm1.3-3.521h.577a.856.856,0,0,0,.627-.235.986.986,0,0,0,.239-.73,1.144,1.144,0,0,0-.207-.74A.858.858,0,0,0,12,12.025h-.54Z" fill="#707070"/>
</svg>
