<svg xmlns="http://www.w3.org/2000/svg" xmlns:xlink="http://www.w3.org/1999/xlink" width="25.655" height="18.62" viewBox="0 0 25.655 18.62">
  <defs>
    <clipPath id="clip-path">
      <rect id="Rectangle_332" data-name="Rectangle 332" width="7.79" height="5.748" fill="#acafb2"/>
    </clipPath>
  </defs>
  <g id="Group_664" data-name="Group 664" transform="translate(-4.85 -5.453)">
    <g id="Group_1" data-name="Group 1" transform="translate(5.001 5.603)">
      <g id="blackboard_2_" data-name="blackboard (2)" transform="translate(0 0)">
        <path id="Path_491" data-name="Path 491" d="M27.658,32.524a.148.148,0,0,0-.1-.146,1.108,1.108,0,0,0-.738.081c-3.526-.129-19.961-.808-23.893-.855a.149.149,0,0,0,0,.3c7.985.506,16.007.635,24,.947a.164.164,0,0,0,.154-.08,1,1,0,0,0,.185-.009l.064,0c-.077,5.591-.237,11.193-.162,16.784a.181.181,0,0,0-.093-.022c-1.544.045-3.084.014-4.623-.046-.022-.038-.042-.076-.063-.113-.04-.069-.137-.008-.105.061.007.015.015.03.022.045-2.45-.1-4.9-.27-7.352-.323-4.09-.089-8.094.178-12.176-.267.007-.169.011-.34.017-.509q.707-.03,1.412-.1a.069.069,0,0,0,.061-.055,163.689,163.689,0,0,0,22.012.156c.124-.008.126-.2,0-.2l-.166,0a.049.049,0,0,0,.026-.043,101.794,101.794,0,0,1,.317-14.409c.02-.171-.248-.169-.268,0a55.625,55.625,0,0,0-.163,14.425.043.043,0,0,0,.019.029c-.76.015-2.276.038-2.276.038l-3.786.042S9.3,48.236,3.938,48.03c-.071,0-.089.068-.063.117-.36.021-.719.048-1.078.084.008-.208.012-.418.018-.626a2.853,2.853,0,0,0,.825-.1c.071-.02.039-.117-.03-.108a6.115,6.115,0,0,1-.791.055c.01-.338.012-.677.02-1.015a1.1,1.1,0,0,0,.3-.073.057.057,0,0,0-.03-.11c-.091.017-.179.029-.268.039.009-.363.009-.728.016-1.092.136.007.271.012.407.01a.069.069,0,0,0,0-.138c-.135,0-.27,0-.405.01,0-.287,0-.576.009-.864.139-.023.279-.044.418-.072.072-.015.057-.139-.017-.129-.134.017-.266.041-.4.063.006-.445.005-.89.009-1.335.16-.009.321-.021.478-.043.076-.011.058-.137-.018-.134-.152.008-.306.024-.459.045,0-.247,0-.494,0-.741a1.986,1.986,0,0,1,.383-.044.072.072,0,0,0,.019-.141.632.632,0,0,0-.4,0c0-.429-.005-.857-.006-1.286a3.148,3.148,0,0,0,.389-.012.08.08,0,1,0,0-.16,3.161,3.161,0,0,0-.39-.012c0-.319-.005-.638-.007-.957a.935.935,0,0,0,.447-.087c.094-.046.028-.194-.07-.166a1.548,1.548,0,0,1-.378.058c0-.165,0-.329,0-.494a1.388,1.388,0,0,1,.474-.064.068.068,0,0,0,.018-.134.692.692,0,0,0-.493.035c0-.809-.014-1.616-.022-2.424.142,0,.285,0,.426,0a.067.067,0,0,0,0-.134c-.142-.009-.284-.008-.427,0,0-.261-.009-.521-.012-.782a1.821,1.821,0,0,0,.535-.073.068.068,0,0,0-.037-.131,2.526,2.526,0,0,1-.5.051c0-.334-.012-.668-.016-1,.224-.013.447-.014.674-.006.076,0,.1-.123.018-.135a2.546,2.546,0,0,0-.7-.008c-.005-.368-.012-.734-.018-1.1a.071.071,0,0,0,.047.021c.865.028,1.73.022,2.6,0a.081.081,0,0,0,0-.162c-.865-.018-1.731-.024-2.6,0a.072.072,0,0,0-.049.022c0-.261-.007-.522-.012-.782a.091.091,0,1,0-.183,0c-.018.676-.031,1.355-.045,2.033l-.093.016c-.08.016-.045.134.033.121.019,0,.038,0,.057,0-.007.327-.015.653-.022.981a.067.067,0,0,0,0,.119c-.005.28-.013.56-.018.841a.071.071,0,0,0,0,.089q-.039,2.142-.054,4.287a.076.076,0,0,0,0,.137c-.012,1.975-.008,3.951.033,5.92-.024,0-.049,0-.073,0-.07-.009-.087.113-.017.123.03,0,.061.007.092.01.008.345.008.692.017,1.036a.076.076,0,0,0,0,.1c.014.476.026.95.044,1.424a.113.113,0,0,0,.183.088c.008,0,.011.014.021.017a32.52,32.52,0,0,0,4.953.561l1.585-.021s3.535-.153,5.265-.123c2.2.039,6.6.291,6.6.291l1.53.067s2.93.081,4.4.031a.178.178,0,0,0,.156-.1.113.113,0,0,0,.171-.094c.234-5.688.218-11.394.293-17.086A.163.163,0,0,0,27.658,32.524Zm-4.209,15.7-3.267.035Z" transform="translate(-2.34 -31.604)" fill="#acafb2" stroke="#acafb2" stroke-width="0.3"/>
        <path id="Path_492" data-name="Path 492" d="M34.648,28.5c-1.919.542-3.508.063-5.4.073-1.621.009-3.092.072-4.737-.05-3.89-.289-7.8-.482-11.7-.437a.081.081,0,0,0-.078.1.132.132,0,0,0-.143.125,81.492,81.492,0,0,0-.028,14.637.059.059,0,0,0,.118,0c.187-4.875-.1-9.753.172-14.637a.128.128,0,0,0-.008-.054c4.175.092,8.339.2,12.5.555,1.7.144,3.4.008,5.076.159a10.635,10.635,0,0,0,4.3-.207.139.139,0,0,0-.073-.267Z" transform="translate(-11.154 -26.572)" fill="#acafb2" stroke="#acafb2" stroke-width="0.3"/>
        <path id="Path_500" data-name="Path 500" d="M7.587,61.6c-.094-.033-.19-.055-.287-.078a.026.026,0,0,0-.014.051c.1.024.191.051.29.067a.02.02,0,1,0,.011-.039Z" transform="translate(-6.73 -56.361)" fill="#acafb2" stroke="#acafb2" stroke-width="0.3"/>
        <g id="Group_396" data-name="Group 396" transform="translate(3.336 7.742)">
          <g id="Group_68" data-name="Group 68" transform="translate(0 0)">
            <path id="Path_550" data-name="Path 550" d="M3.451-61.333q-.012,0-.009.015t.015.015a.04.04,0,0,1-.055-.006q-.03,0-.027.018t-.039.018V-61.3H3.329a.017.017,0,0,1-.012-.006l-.049.037a.466.466,0,0,1,.006.094.466.466,0,0,1-.006.094.14.14,0,0,1,0,.027.017.017,0,0,0,.009.021q0,.139,0,.275t-.015.269a.166.166,0,0,0-.009.051.166.166,0,0,1-.009.051.017.017,0,0,0-.012.006.017.017,0,0,0-.006.012.211.211,0,0,0,.009.037.179.179,0,0,1,.009.049.454.454,0,0,1-.015.109.436.436,0,0,0-.015.1.321.321,0,0,0,0,.037.024.024,0,0,0,.008.018.024.024,0,0,0,.019.006.151.151,0,0,0,.067-.018.186.186,0,0,0,0,.024.03.03,0,0,0,.015.024.063.063,0,0,0,.061-.037.063.063,0,0,1,.061-.037.061.061,0,0,1,.039.012.061.061,0,0,0,.039.012l.033,0q.021,0,.009-.033h.085q-.006.03.006.033a.1.1,0,0,0,.024,0,.087.087,0,0,0,.064-.027q.027-.027.039-.027l.012.012a.024.024,0,0,0,.018.006s.01,0,.018-.012.012-.014.012-.018l.163.006a.537.537,0,0,1,.07.012.122.122,0,0,0,.088-.006.108.108,0,0,0-.009.027.053.053,0,0,1-.015.027q.049,0,.037.015a.045.045,0,0,0-.012.027.327.327,0,0,0,.1-.024q.067-.024.079-.055.012,0,.021.021a.1.1,0,0,1,.009.027.143.143,0,0,1-.021.073.265.265,0,0,1-.033.049.054.054,0,0,1,.03.037.037.037,0,0,1-.006.037.14.14,0,0,1,.039-.018.091.091,0,0,0,.039-.024v.024l.03-.03a.026.026,0,0,1,.037-.006l.018.012a.067.067,0,0,0-.037.055.05.05,0,0,0,.024.045.076.076,0,0,1,.03.057q.024-.042.037-.033t.042-.021a.13.13,0,0,1-.024.03l-.024.024a.109.109,0,0,1-.037.015q-.03.009-.03.015s0,.006-.012.018a.046.046,0,0,0-.006.018.016.016,0,0,1,0,.014.016.016,0,0,1-.014,0q.012-.042-.012-.055a.108.108,0,0,0-.009.03.046.046,0,0,1-.009.024q0,.03-.024.03a.126.126,0,0,1-.055-.021l-.049-.027v.079l-.006-.006-.018-.006a.318.318,0,0,1-.109-.067l-.1.091a.1.1,0,0,0-.03-.018A.13.13,0,0,0,4-59.573a.08.08,0,0,0-.037.015l-.037.021-.218.012q-.133.006-.236.018s-.017.005-.039,0l-.039,0a.1.1,0,0,0-.03.03q-.018.024-.024.024l-.067.037-.012-.037q0,.03-.012.033a.1.1,0,0,1-.024,0,.1.1,0,0,0-.024,0q-.012,0-.012.027v.188l-.012.018v.218l-.018.037v.2l-.03.037q.024.012.027.024a.127.127,0,0,1,0,.03.755.755,0,0,1-.015.148.817.817,0,0,0-.014.159.046.046,0,0,0,.006.018.046.046,0,0,1,.006.018H3.087q.006.049.037.055t.03.049a.242.242,0,0,1-.009.064.263.263,0,0,0-.009.07v.042a.065.065,0,0,0,.049.018.117.117,0,0,0,.091-.033.153.153,0,0,1,.115-.033v.049a.091.091,0,0,0,.064-.037.183.183,0,0,1,.064-.049l.145-.055.042,0q.03,0,.037,0a.157.157,0,0,0,.076-.027l.057-.033q.212-.061.433-.112t.418-.088q.2-.037.351-.057a1.884,1.884,0,0,1,.239-.021l.085,0,.079,0a.04.04,0,0,1,.018.018.1.1,0,0,0,.018.024.069.069,0,0,0,.021-.006l.027-.012v.042h.024q.012,0,.012.03l-.027,0a.028.028,0,0,0-.021.015.317.317,0,0,1,.049.03.072.072,0,0,0-.049.064.073.073,0,0,1-.037.064v-.042H5.465a.037.037,0,0,0,.009.018.022.022,0,0,1,0,.024.135.135,0,0,0-.033.012q-.027.012-.027.018a.083.083,0,0,0-.018.042q-.006.03-.03.03a.033.033,0,0,1-.033-.021A.038.038,0,0,0,5.3-58.15a.052.052,0,0,1,.018.037.3.3,0,0,1,0,.051q0,.015-.033.015a.2.2,0,0,1-.057-.021q-.045-.021-.045-.033a.1.1,0,0,0-.042-.012.443.443,0,0,0-.055,0,.224.224,0,0,0-.055.015.047.047,0,0,1,0,.039.047.047,0,0,1-.03.024.533.533,0,0,1-.073.021l-.018.018-.018.006a.017.017,0,0,1-.012.006s-.012-.006-.024-.018q-.024.024-.037.024a.262.262,0,0,1-.039-.009.263.263,0,0,0-.039-.009H4.708a.224.224,0,0,0-.106.027.213.213,0,0,1-.1.027l-.037-.024a.039.039,0,0,0-.033.012.106.106,0,0,0-.015.03.076.076,0,0,1-.018.03.049.049,0,0,1-.037.012.019.019,0,0,1-.021-.015q0-.015-.039-.015a.04.04,0,0,1,.024.033.085.085,0,0,1,0,.045q-.061,0-.061-.049l-.03.042-.012-.024-.064.055-.018.012a.017.017,0,0,1-.012.006.026.026,0,0,1-.021-.012.022.022,0,0,1,0-.024.144.144,0,0,1-.079.039.162.162,0,0,0-.079.033H3.922l-.03-.024a.133.133,0,0,1-.085.021q-.049,0-.049.07H3.752a.024.024,0,0,1-.024-.018.069.069,0,0,0-.021.006.074.074,0,0,1-.027.006L3.661-57.7a.129.129,0,0,1-.073.061l-.091.024-.006.006a.017.017,0,0,1-.012.006l-.055.018q-.049.018-.112.037l-.118.033a.554.554,0,0,1-.061.015q.018.006.018.037a.135.135,0,0,1-.049.091L3.085-57.4a.024.024,0,0,0,.018-.024V-57.5l-.049.049a.017.017,0,0,1-.012.006q-.012,0-.015-.015a.017.017,0,0,1,.009-.021H2.987v.055q-.018-.018-.024-.018t-.027.018a.053.053,0,0,0-.015.03q0,.024.018.024h.03a.062.062,0,0,1-.055.037.524.524,0,0,1-.073.006H2.817l-.076-.006-.082-.006q.024-.012.018-.024a.3.3,0,0,0-.018-.03.04.04,0,0,0,0,.021s0,.007-.015.015q-.024-.042-.055-.012a.613.613,0,0,0-.106-.067.2.2,0,0,1-.094-.091.261.261,0,0,1-.012-.057.1.1,0,0,0-.018-.045l.061-.067a.129.129,0,0,1-.012-.067q0-.055.067-.055a.285.285,0,0,0-.055.073l.037-.018A.079.079,0,0,0,2.5-57.8a.116.116,0,0,0,0-.064.015.015,0,0,0,.009-.018.014.014,0,0,0-.015-.012q-.018,0-.018.012v-.03H2.442l.012-.012q.012-.012.012-.018l-.018-.018a.1.1,0,0,0-.024-.018.094.094,0,0,0,.03-.015.415.415,0,0,1,.051-.027.308.308,0,0,0,.045-.024l.024-.018v-.121l-.03-.012a.046.046,0,0,1,.006-.018.046.046,0,0,0,.006-.018.054.054,0,0,1-.006-.024.1.1,0,0,1-.006-.042.131.131,0,0,0,.039-.055q0-.018.006-.03a.075.075,0,0,1,.015-.027.4.4,0,0,1,.061-.051.146.146,0,0,1,.021-.018q.009-.006,0-.037a.225.225,0,0,1-.145.049.075.075,0,0,1-.042-.018.353.353,0,0,1-.037-.03.429.429,0,0,1,.024-.039.3.3,0,0,1,.037-.045l-.018-.015a.049.049,0,0,0-.03-.009.07.07,0,0,0-.018.012.017.017,0,0,1-.012.006l-.006.006q-.012-.024.015-.082t.021-.057-.012-.018q0-.018.012-.018t.012.024l.067-.079-.03-.03a.043.043,0,0,1-.012.037.043.043,0,0,1-.037.012q.012-.03,0-.03t-.015-.024a.24.24,0,0,1,.021-.1.24.24,0,0,0,.021-.1l.024-.018a.017.017,0,0,1-.006-.012.035.035,0,0,1-.006-.024l.012-.018-.012-.037a.078.078,0,0,1,.027-.061.078.078,0,0,0,.027-.061.063.063,0,0,1-.037-.006.063.063,0,0,1-.006-.037l.012.006.006.006.012-.03L2.545-59.4a.041.041,0,0,0,.03.012q.012,0,.03-.033t.037-.076l.033-.079a.166.166,0,0,0,.015-.049.366.366,0,0,0-.082.085q-.039.055-.064.085a.26.26,0,0,1,.006-.049.3.3,0,0,0,.006-.037l.018-.012.012-.024a.046.046,0,0,0,.006-.018L2.582-59.6a.024.024,0,0,1-.006-.018.231.231,0,0,1,.042-.121.231.231,0,0,0,.042-.121.029.029,0,0,0-.006-.015.029.029,0,0,1-.006-.015l-.042.03a.077.077,0,0,1-.03-.049.2.2,0,0,0,.049-.012q.037-.012.037-.037a.073.073,0,0,0-.024.009.071.071,0,0,1-.03.009H2.579q.03-.012.018-.033t.012-.033a.028.028,0,0,1-.018-.03v-.03a.1.1,0,0,1,0-.024.083.083,0,0,0,0-.018q.018,0,.03-.037a.136.136,0,0,0-.006-.027.2.2,0,0,0-.012-.033s.009-.012.027-.024a.088.088,0,0,1,.039-.018.019.019,0,0,1,.018.012.054.054,0,0,1,.006.024l-.037.012h.055q.03,0,.03-.037a.077.077,0,0,0-.042-.076.406.406,0,0,1-.079-.051.052.052,0,0,1,.037-.018.056.056,0,0,1,.037.027.045.045,0,0,0,.042.021q.024,0,.021-.021a.022.022,0,0,1,0-.017.022.022,0,0,1,.013-.01.054.054,0,0,1,.033-.009q.009,0,.009-.039a.057.057,0,0,0-.049.024.064.064,0,0,1-.055.024q.012,0,.012-.018s0-.015,0-.033,0-.031,0-.039l-.03,0q-.018,0-.018-.015a.212.212,0,0,0,.051-.009.042.042,0,0,0,.033-.045h-.03a.291.291,0,0,0,.021-.064.314.314,0,0,0,.009-.07h.03a.127.127,0,0,1,0-.021q0-.015-.015-.015s-.01,0-.018.012-.014.012-.018.012H2.694q0-.018,0-.067a.2.2,0,0,1,.015-.073.011.011,0,0,1,0-.009.011.011,0,0,1,.009,0h.012v.079q.018,0,.021-.009a.079.079,0,0,0,0-.024.079.079,0,0,1,0-.024q0-.009.027-.009a.059.059,0,0,1,.03.012.069.069,0,0,1,.024.024.052.052,0,0,0,.018-.037.18.18,0,0,1-.018-.024.069.069,0,0,0-.024-.024v-.05q0-.037.012-.045a.048.048,0,0,0,.012-.039l-.039-.03a.061.061,0,0,1-.015-.049q0-.012.042-.042a.084.084,0,0,0,.042-.067h-.03a.15.15,0,0,0,.024-.085q.006-.067.006-.079A.13.13,0,0,0,2.87-61.4a.144.144,0,0,1-.006-.039.14.14,0,0,0,.018-.03.046.046,0,0,0,.006-.018.088.088,0,0,1-.03,0s-.016,0-.037.009a.075.075,0,0,1,.012-.042.086.086,0,0,0,.012-.049.052.052,0,0,1-.037.018.051.051,0,0,1-.042-.015.076.076,0,0,0-.024-.021.046.046,0,0,0-.006-.018.054.054,0,0,1-.006-.024.2.2,0,0,1,.021-.091.1.1,0,0,1,.07-.055.054.054,0,0,1,.024.006l.024.012q.018,0,.051-.039a.113.113,0,0,0,.033-.064h.121q.012-.03.027-.033a.171.171,0,0,1,.033,0h.036l-.018.018a.176.176,0,0,1,.042.009.176.176,0,0,0,.042.009l.006-.006.012-.018.012-.024a.6.6,0,0,1,.154-.1.434.434,0,0,1,.179-.042.09.09,0,0,1,.045.012.1.1,0,0,0,.051.012.09.09,0,0,0,.067-.024.378.378,0,0,0,.006.039.066.066,0,0,0,.024.045.066.066,0,0,0,.012-.024.1.1,0,0,0,.006-.024L3.8-62.049a.263.263,0,0,0,.07-.009.315.315,0,0,1,.082-.009v.055L4-62.04a.331.331,0,0,1,.055-.027.049.049,0,0,1,.03.009.061.061,0,0,0,.037.009h.024a.037.037,0,0,0,.018-.009.037.037,0,0,1,.018-.009q.024,0,.042.061t.067.061v.067h.037v-.115q0-.012.03-.024l.037-.012q.037.012.037.067a.206.206,0,0,1-.006.067.089.089,0,0,0,.039-.045.379.379,0,0,1,.027-.051s.005.01.015.018a.046.046,0,0,0,.021.012l.03-.018h.061a.491.491,0,0,1,.106.009.558.558,0,0,1,.112.045l.037-.024v.024a.06.06,0,0,0-.021.018q-.009.012-.015.012.006.018.037.018t.03-.049a.106.106,0,0,0,.051.051q.039.021.039.033l-.042,0q-.03,0-.03.027a.017.017,0,0,0,.006.012l.006.006a.017.017,0,0,0-.012.006L4.9-61.77a.147.147,0,0,0,.037.073q.037.049.061.049v.042l.03.018q.012-.006.03-.064a.14.14,0,0,1,.037-.07l-.012-.018q-.006.03-.027.03a.055.055,0,0,0-.039.018L5.01-61.7v-.012a.321.321,0,0,1,.042-.061q.042-.055.061-.055a.08.08,0,0,1,.039.012.151.151,0,0,1,.027.018q.012.012.012.018,0,.042-.015.051t-.015.039q0,.049.03.049v.037a.075.075,0,0,1-.042-.012.086.086,0,0,0-.049-.012.052.052,0,0,0-.018.037.07.07,0,0,0,.012.018l.018.018s0,.01.012.018a.017.017,0,0,1,.006.012.353.353,0,0,1-.009.055q-.009.042-.021.049v-.03a.387.387,0,0,1-.088.07.226.226,0,0,1-.112.045l-.03-.018a.076.076,0,0,0-.024.021q-.012.015-.018.015-.03,0-.039-.037t-.039-.037a.059.059,0,0,0-.042.012.07.07,0,0,1-.049.012A.085.085,0,0,1,4.58-61.4a.094.094,0,0,0-.073-.045s-.014,0-.03,0a.116.116,0,0,1-.037.009.017.017,0,0,1-.012-.006l-.006-.006a.017.017,0,0,1-.012.006l-.012.006H4.391l-.03.018-.018-.018q-.012-.012-.018-.012a.189.189,0,0,0-.109.012.351.351,0,0,0-.109.049,1.96,1.96,0,0,0-.218,0,1.038,1.038,0,0,0-.224.037.024.024,0,0,1-.018-.006.024.024,0,0,1-.015,0,.024.024,0,0,0-.015,0,.168.168,0,0,0-.037.012l-.049.018a.017.017,0,0,1-.012-.006Q3.5-61.356,3.5-61.35l-.018.006a.047.047,0,0,1-.018.042.018.018,0,0,0,0-.018.014.014,0,0,0-.015-.012Zm-.841,3.007q.03.012.03.03t.024.03a.173.173,0,0,0,.033-.067.3.3,0,0,0,.009-.073.072.072,0,0,0-.055.027q-.024.028-.042.052ZM2.531-58.4l-.006-.012-.006-.006.061-.03a.254.254,0,0,1-.027.085.208.208,0,0,1-.051.079l-.012.006-.006-.006a.313.313,0,0,1,.03-.057.1.1,0,0,0,.018-.057Zm-.049.327a.017.017,0,0,0,.006.012.043.043,0,0,1-.03.042.149.149,0,0,1-.055.012.056.056,0,0,1,.024-.051.162.162,0,0,1,.055-.021Zm.175-1q-.037,0-.045.018a.109.109,0,0,0-.009.049.068.068,0,0,0,.055-.015.068.068,0,0,0,.024-.051Zm.151-1.446q0,.03.012.037a.052.052,0,0,0,.042-.055.028.028,0,0,0-.018-.03.047.047,0,0,0-.037.049Zm.709-1.2a.047.047,0,0,0,.049.03s.01-.008.018-.024a.1.1,0,0,1,.006-.03l-.037,0a.03.03,0,0,0-.024.005.03.03,0,0,0-.012.022Zm-.762,1.754a.117.117,0,0,0-.045.012.043.043,0,0,0-.027.042l.049-.03.012.018.037-.037H2.768a.017.017,0,0,1-.012-.006Zm.024-1.252.006.012s.006,0,.006.012a.081.081,0,0,1-.009.037q-.009.018-.021.018v-.024a.136.136,0,0,1,.006-.027.069.069,0,0,1,.012-.027Zm.9-.866q.012,0,.009.009t.009.009.012.018q0,.018-.012.018t-.018-.018-.012-.018q0-.018.012-.018Zm1.258,4.018a.011.011,0,0,0-.009,0,.011.011,0,0,0,0,.009.142.142,0,0,0-.049.03l.033,0a.069.069,0,0,0,.039-.021Q4.951-58.066,4.939-58.066ZM2.61-59.651q-.012,0-.009.015t.015.015q0,.018.012.018a.016.016,0,0,0,.014,0,.016.016,0,0,0,0-.014q0-.018-.024-.018a.011.011,0,0,0,0-.009.011.011,0,0,0-.009,0Zm2.444,1.573s0-.005.024-.015a.124.124,0,0,1,.055-.015.106.106,0,0,1,.03.012Zm-2.4.169q-.018,0-.018.015t.018.015q0,.018.012.018t.012-.015q0-.015-.018-.015,0-.018-.006-.018Zm.109-2.577q-.012,0-.012.015t.018.015q0,.018.012.018t.009-.015q0-.015-.015-.015Q2.773-60.486,2.761-60.486Zm-.133,2.608q-.012,0-.012.021t.012.021q.018,0,.018-.021T2.628-57.878Zm2.825-.575q-.042,0-.042.037a.032.032,0,0,0,.027-.012.039.039,0,0,1,.033-.012Zm-2.711,1-.024.024a.035.035,0,0,0-.012.024h.037Zm-.049-.037q0,.03.018.037l.03-.037Zm.152-3.225a.016.016,0,0,0-.014,0,.016.016,0,0,0,0,.014.016.016,0,0,0,0,.014.016.016,0,0,0,.014,0q.012,0,.012-.018T2.845-60.71ZM2.6-59.179l.012-.037H2.561ZM5.26-61.763q.012,0,.012.021t-.012.021-.012-.021Q5.247-61.763,5.26-61.763Zm-.115.272q.012,0,.012.021t-.012.021-.012-.021q0-.021.012-.021Zm-1.724.085q-.012,0-.012.021t.012.021.012-.021q0-.021-.012-.021Zm.163,0q-.012,0-.012.021t.012.021.012-.021q0-.021-.012-.021Zm-.163-.085q-.012,0-.012.021t.012.021.012-.021q0-.021-.012-.021Zm-.889,2.934q-.012,0-.012.021t.012.021.012-.021Q2.543-58.556,2.531-58.556Zm.133-1.984q.012,0,.012.021t-.012.021-.012-.021Q2.652-60.541,2.664-60.541Zm-.037,1.265q-.012,0-.012.015t.012.015q.018,0,.018-.015t-.018-.015Zm-.067.623q-.006-.012-.006.024t.006.03a.041.041,0,0,0,.012-.03A.024.024,0,0,0,2.561-58.653Zm.067.055q-.012,0-.012.015t.012.015q.018,0,.018-.015T2.628-58.6Zm.345-2.7q-.012,0-.012.018t.012.018.012-.018q0-.018-.012-.018Zm2.214-.236q.012,0,.012.018t-.012.018-.012-.018q0-.018.013-.018ZM2.809-57.4q-.012,0-.012.018t.012.018.012-.018q0-.018-.012-.018Zm2.4-4.187q.012,0,.012.018t-.012.018-.012-.018Q5.193-61.587,5.205-61.587Zm-.049,0q.012,0,.012.018t-.012.018-.012-.018q0-.018.013-.018ZM2.531-58.229q.012,0,.012.018t-.012.018-.012-.018Q2.519-58.229,2.531-58.229Zm1.331-1.343q-.012,0-.012.018t.012.018.012-.018Q3.874-59.573,3.862-59.573Zm-1-2.239q.012,0,.012.018t-.012.018-.012-.018Q2.851-61.811,2.864-61.811Zm.557,2.172q-.012,0-.012.018t.012.018.012-.018q0-.018-.012-.018Zm.375,1.9q.012,0,.012.018T3.8-57.7t-.012-.018Q3.783-57.739,3.8-57.739ZM3.68-61.878q-.012,0-.012.018t.012.018.012-.018q0-.018-.012-.018Zm.345-.169q-.012,0-.012.018t.012.018.012-.018Q4.038-62.047,4.026-62.047ZM4.6-59.875q.012,0,.012.018t-.012.018-.012-.018Q4.588-59.875,4.6-59.875Zm-.1-.085q.012,0,.012.018t-.012.018-.012-.018q0-.018.012-.018ZM2.712-60q-.012,0-.012.018t.012.018.012-.018q0-.018-.012-.018Zm1.676-1.9q-.012,0-.012.018t.012.018.012-.018Q4.4-61.9,4.388-61.9ZM5.5-58.387q-.012,0-.012.018t.012.018.012-.018Q5.508-58.387,5.5-58.387ZM3.451-61.963q-.012,0-.012.018t.012.018.012-.018Q3.463-61.963,3.451-61.963Zm-1.022,4.1q.012,0,.012.018t-.012.018-.012-.018Q2.416-57.86,2.428-57.86Zm.448.46q-.012,0-.012.018t.012.018.012-.018q0-.018-.013-.018Zm1.361-4.647q.012,0,.012.018t-.012.018-.012-.018Q4.225-62.047,4.237-62.047ZM2.761-60.589q-.012,0-.012.018t.012.018.012-.018Q2.773-60.589,2.761-60.589Zm.049-.085q-.012,0-.012.018t.012.018.012-.018q0-.018-.013-.018Zm.055,0q-.012,0-.012.018t.012.018.012-.018q0-.018-.013-.018Zm.03-.272q-.012,0-.012.018t.012.018.012-.018q0-.018-.013-.018Zm-.03,0q-.012,0-.012.018t.012.018.012-.018q0-.018-.013-.018Zm2.311-.526q.012,0,.012.018t-.012.018-.012-.018q0-.018.012-.018ZM2.652-59.464q-.018,0-.018.015t.018.015.012-.015Q2.664-59.464,2.652-59.464Zm2.686,1.253q-.018,0-.018.015t.018.015T5.35-58.2Q5.35-58.211,5.338-58.211Zm-2.686-.66q-.018,0-.018.015t.018.015.012-.015Q2.664-58.871,2.652-58.871Zm.037.061a.019.019,0,0,0-.014,0,.019.019,0,0,0-.007.014.19.19,0,0,0,0,.03v.024Zm2.366.762q-.03,0-.012-.018a.024.024,0,0,1,.018-.006q.012.006.009.015a.014.014,0,0,1-.015.009Zm-2.36-2.523q.012,0,.012.015t-.012.015-.012-.015Q2.682-60.571,2.694-60.571Zm.037.375q-.012,0-.012.015t.012.015.012-.015q0-.015-.012-.015Zm.061-1.222q.012,0,.012.015t-.012.015T2.78-61.4q0-.015.011-.015Zm2.292,3.352q.012,0,.012.015t-.012.015-.012-.015Q5.072-58.066,5.084-58.066ZM4.4-61.992q-.012,0-.012.015t.012.015.012-.015q0-.015-.012-.016Zm-1.41,4.616q.012,0,.012.015t-.012.015-.012-.015Q2.979-57.376,2.991-57.376Zm-.127-2.7q-.012,0-.012.015t.012.015.012-.015Q2.876-60.081,2.864-60.081Zm1.361-1.742q-.012,0-.012.015t.012.015.012-.015Q4.237-61.823,4.225-61.823ZM2.549-58.586q-.012,0-.012.015t.012.015.012-.015Q2.561-58.586,2.549-58.586Zm.315-3.134q-.012,0-.012.015t.012.015.012-.015Q2.876-61.72,2.864-61.72Zm0,.962q-.012,0-.012.015t.012.015.012-.015q0-.015-.012-.015Zm2.214-.793q-.012,0-.012.015t.012.015.012-.015q0-.015-.012-.015ZM4.3-61.738q-.012,0-.012.015t.012.015.012-.015q0-.015-.012-.016Zm-.672-.055q-.012,0-.012.015t.012.015.012-.015Q3.644-61.793,3.632-61.793ZM4.6-59.706q.012,0,.012.015t-.012.015-.012-.015Q4.588-59.706,4.6-59.706Zm-.049-.133q.012,0,.012.015t-.012.015-.012-.015q0-.015.013-.015Zm-1.791-.085q-.012,0-.012.015t.012.015.012-.015Q2.773-59.924,2.761-59.924Zm.92-.169q.012,0,.012.015t-.012.015-.012-.015q0-.015.012-.015Zm-1.18,2.1q-.012,0-.012.015t.012.015.012-.015Q2.513-57.993,2.5-57.993Zm.212-1.138q-.012,0-.012.015t.012.015.012-.015q0-.015-.012-.015Zm.544-2.711q-.012,0-.012.015t.012.015.012-.015Q3.269-61.842,3.257-61.842Zm1,.018q-.012,0-.012.015t.012.015.012-.015q0-.015-.012-.015ZM2.779-60.758q-.012,0-.012.015t.012.015.012-.015Q2.791-60.758,2.779-60.758ZM5.1-61.793q-.012,0-.012.015t.012.015.012-.015q0-.015-.012-.015Zm-2.4,1.9q-.012,0-.012.015t.012.015.012-.015Q2.706-59.893,2.694-59.893Zm.3-1.44q-.012,0-.012.015t.012.015T3-61.318q0-.015-.012-.015Zm-.442,3.558a.029.029,0,0,0-.03.024h.03Zm.079-.2s-.007.005-.009.015a.042.042,0,0,1-.009.021l.018.018Zm.236-2.511q-.012-.006-.012.015t.012.015s.006,0,.006-.012a.024.024,0,0,0-.006-.018Zm1.44.545q-.006-.012-.018,0t0,.018q.018.012.018-.018Zm.278.133-.03.03-.018-.012ZM2.549-57.993a.038.038,0,0,0,.027.012.022.022,0,0,0,.021-.012Zm.817-3.969-.006.006a.017.017,0,0,1-.012.006v.024q.018,0,.018-.037Zm-.636,1.833q-.037.012-.037.037a.06.06,0,0,0,.021-.018l.015-.018Zm-.212,1.186q-.006-.012-.018,0t0,.018a.016.016,0,0,0,.014,0A.016.016,0,0,0,2.519-58.943Zm2.789-2.8-.018.018v-.042Zm-1.646-.242s0,0-.012,0-.008.011,0,.015a.008.008,0,0,0,.006,0,.008.008,0,0,0,.006,0s0-.01,0-.018Zm-.98,2.8q0-.012-.009-.012t-.009.012.012.012S2.682-59.171,2.682-59.179Zm1.8-.8q.012,0,.012.006s0,.008-.012.012a.011.011,0,0,1-.009,0,.011.011,0,0,1,0-.009Q4.473-59.984,4.485-59.978Zm1.028,1.64q-.012,0-.012.009t.012.009.012-.012S5.522-58.338,5.513-58.338Zm-2.983.4q-.006-.012-.015,0t0,.018a.017.017,0,0,0,.012-.006.008.008,0,0,0,0-.006A.008.008,0,0,0,2.531-57.939Zm2.547-3.739q-.012,0-.012.009t.012.009.012-.006S5.086-61.674,5.078-61.678ZM2.531-58.671q-.006-.012-.015,0t0,.018Q2.537-58.653,2.531-58.671Zm.121-.545q-.012,0-.012.009t.012.009Q2.67-59.216,2.652-59.216Zm.042-1.222q.024,0,0,.024s-.006,0-.006-.012S2.69-60.438,2.694-60.438Zm2.384-1.053q-.012,0-.012.009t.012.009q.018-.006,0-.018ZM2.61-58.229q.006-.012-.006-.012t-.006.012.006.012S2.61-58.221,2.61-58.229Zm-.109.067q0,.018-.018,0a.011.011,0,0,1,0-.009.011.011,0,0,1,.009,0Q2.507-58.175,2.5-58.163Zm2.947-.049q0-.012-.009-.012t-.009.012q.018.019.018,0Zm-.5.151a.024.024,0,0,0-.018.006q-.012.012,0,.018Zm.26-3.63-.018.012v-.03Zm-.768,1.8v-.018l.03-.012Zm-.23-.169q.012,0,.012.006s0,.006-.012.006-.012,0-.012-.006,0-.01.012-.006Zm-1.6.272a.008.008,0,0,1,0,.006.008.008,0,0,1,0,.006.008.008,0,0,1-.006,0,.008.008,0,0,1-.006,0q-.012,0,0-.012t.012,0ZM2.6-58.774q.018.024.03,0Zm-.049.678q-.012.024-.03,0Zm2.263-3.291-.006-.006q-.012,0-.012.006t.012.012S4.812-61.38,4.812-61.388Zm-.26,1.749q0,.012-.006.012s-.008,0-.012-.012,0-.006.012-.006ZM3.045-61.624q-.012,0-.012.009t.012.009S3.049-61.616,3.045-61.624Zm-.236,4.157q-.012,0-.012.009t.012.009S2.813-57.459,2.809-57.467Zm1.476-4.562q0,.018-.03.018S4.265-62.021,4.286-62.029Zm-1.706,2.6q.012,0,.012.006s0,.008-.012.012-.006,0-.006-.012Zm1.053-2.547.018-.012H3.614Zm1.119.055-.012-.006-.006.006q0,.012.006.012s.008,0,.012-.012Zm.145.248-.006.012.006.006q.012,0,.012-.006s0-.008-.012-.012Zm-1.761,4.3q.012,0,.012.006s0,.006-.012.006-.006,0-.006-.012S3.132-57.384,3.136-57.376Zm.605-4.689q0,.012-.006.012s-.006,0-.006-.012l.006-.006Zm.448,4.187-.006-.006-.006.006q0,.012.006.012s.006,0,.006-.012Zm-.962-1.574a.041.041,0,0,0-.018-.037ZM2.61-57.431l-.006.006.006.006q.012,0,.012-.006S2.618-57.431,2.61-57.431Zm-.163-1.035q.012,0,.012.006s0,.006-.012.006l-.005-.006Z" transform="translate(-2.363 62.084)" fill="#acafb2" stroke="#acafb2" stroke-width="0.1"/>
            <path id="Path_549" data-name="Path 549" d="M8.166-28.368a.435.435,0,0,0-.153.53l.043.03.2.03.066-.061.043.03.155-.03H9l.066.03.377.03.066.028H9.58l.066.03h.176a.752.752,0,0,0,.331.087.507.507,0,0,0,.021-.324h-.087L10-27.988l-.089-.028-.087-.03H9.733l-.087-.028H9.557l-.089-.03-.11-.028-.133-.03a.455.455,0,0,1-.242-.03H8.7a1.07,1.07,0,0,1-.352-.028A.256.256,0,0,0,8.166-28.368Zm-.092.966a.28.28,0,0,0-.107.192.28.28,0,0,0,.064.21.428.428,0,0,0,.148.283l.14-.112.217-.01.076-.021.339-.079.061.025.076-.018.061.025a1.089,1.089,0,0,1,.339.038l.12-.066a1.535,1.535,0,0,0,.606-.1l.043-.168-.008-.038.008.038-.008-.038-.14-.125a1.136,1.136,0,0,1-.6.023,1.7,1.7,0,0,0-.382.01l-.087-.02-.076.018-.306-.008Z" transform="translate(-3.684 30.164)" fill="#acafb2" stroke="#acafb2" stroke-width="0.1"/>
            <path id="Path_548" data-name="Path 548" d="M32.046-41.445q.011,0,.011.02t-.011.02h-.017a.123.123,0,0,1-.035.061.282.282,0,0,1-.049.035.221.221,0,0,0-.049.037.143.143,0,0,0-.035.063.223.223,0,0,0-.023.063.314.314,0,0,0-.011.069.071.071,0,0,0,.029.011q.023.006.023.017,0,.029-.02.02a.1.1,0,0,0-.037-.009.581.581,0,0,1,0,.077q0,.014-.009.011l-.02-.006q-.014,0-.032.02t-.032.1q-.02.072-.032.1h-.035a.057.057,0,0,1-.006.055.052.052,0,0,1-.046.032.387.387,0,0,0-.017.063.4.4,0,0,0-.011.069q-.006.029-.017.072t-.04.043a.028.028,0,0,1-.02-.009.028.028,0,0,0-.02-.009.091.091,0,0,0-.08.043.091.091,0,0,1-.08.043H31.3a.457.457,0,0,0-.032-.063l-.032-.057a.806.806,0,0,1-.124-.333q-.026-.184-.061-.362A.286.286,0,0,0,31-41.261a.506.506,0,0,1-.066-.115s0-.014,0-.032,0-.035-.009-.055-.008-.036-.011-.052a.173.173,0,0,1-.006-.029.226.226,0,0,0-.08-.092.122.122,0,0,1-.057-.1v-.012l.006-.006q0-.011.017-.023T30.8-41.8a.182.182,0,0,0-.026-.078l-.055-.1q-.029-.055-.055-.109a.237.237,0,0,1-.026-.1.126.126,0,0,0-.08.023.17.17,0,0,0-.046.057l-.035.069a.122.122,0,0,1-.046.052v-.046q-.035,0-.035.052a.35.35,0,0,0,.017.1.116.116,0,0,1,.052.006s0,.01-.014.017a.072.072,0,0,0-.02.023h.023a.168.168,0,0,1-.035.057.276.276,0,0,1-.052.057q.006-.011-.023-.061a.177.177,0,0,0-.04-.054l-.017.029-.023-.017a.05.05,0,0,1-.017.035v.006a.017.017,0,0,0,.006.011h.051q0,.035-.04.035t-.063-.052a.035.035,0,0,1-.009.017.047.047,0,0,0-.009.029.094.094,0,0,0,.035.057.4.4,0,0,1,.046.052.034.034,0,0,1-.014.032q-.014.009-.014.043l.052-.052.017.023-.017.017.017.011-.069.1V-41.5l-.006.006h-.011a.094.094,0,0,0-.006-.023q-.006-.017-.017-.017-.04,0-.049.017t-.072.017q0,.063-.011.069t-.011.052a.106.106,0,0,0,.069-.057.1.1,0,0,1,.063-.057.047.047,0,0,0-.017.029.015.015,0,0,0,0,.013.015.015,0,0,0,.013,0,.067.067,0,0,0-.011.017l-.006.006a.073.073,0,0,0-.057.046.226.226,0,0,1-.057.08l.017.006q.017,0,.046-.043a.32.32,0,0,0,.035-.061.079.079,0,0,1,.017.057q0,.035-.046.029l.063.029a.073.073,0,0,1-.066.023.1.1,0,0,0-.066.011l.017.063a.033.033,0,0,0,.006.023l.011.011-.035.046s0,.01.011.017l.006.006A.034.034,0,0,0,30.1-41.1q-.006.046-.043.052t-.037.052L30.029-41a.017.017,0,0,0,.011-.006.067.067,0,0,1,.017-.011q.011,0,.017.014a.066.066,0,0,1,.006.02h-.046a.419.419,0,0,0,.006.049.418.418,0,0,1,.005.05.146.146,0,0,1-.049.072.088.088,0,0,0-.037.066.305.305,0,0,0,.009.04.305.305,0,0,1,.009.04.05.05,0,0,1-.017.035.046.046,0,0,0-.017-.037.108.108,0,0,0-.034-.02v.023l.017.035h-.035a.532.532,0,0,1-.02.149,1.079,1.079,0,0,0-.032.149q.04,0,.052-.023s.006.008.006.023a.046.046,0,0,1-.023.035.293.293,0,0,1-.055.032.42.42,0,0,1-.063.023.2.2,0,0,1-.043.009.11.11,0,0,1-.035-.008.069.069,0,0,1-.035-.026l.046-.052a.01.01,0,0,0,0-.009.01.01,0,0,0-.009,0h-.046a.123.123,0,0,0-.029.009q-.023.009-.023,0s-.01,0-.017-.014l-.017-.02a.05.05,0,0,1-.035-.017.077.077,0,0,0,.035-.029.336.336,0,0,1,.028-.033l-.02,0a.022.022,0,0,0-.02,0l-.017.017a.044.044,0,0,0-.006.017.051.051,0,0,1-.029.014q-.017,0-.017.014,0,.046.035.04t.035.029a.037.037,0,0,0-.023.035l-.018-.017q0,.011-.023.035a.028.028,0,0,1-.026-.02.027.027,0,0,1,0-.032l-.035.017.035-.046a.256.256,0,0,0-.032-.026.071.071,0,0,0-.026-.014q-.035,0-.029.026t-.023.026a.114.114,0,0,1-.075-.029.238.238,0,0,1-.057-.072.39.39,0,0,1-.035-.089.323.323,0,0,1-.011-.075v-.04a.051.051,0,0,1,.006-.023.066.066,0,0,1,.006-.02.066.066,0,0,0,.006-.02.173.173,0,0,0-.006-.029.173.173,0,0,1-.006-.029.631.631,0,0,1-.011-.075q-.006-.052-.006-.063t0-.1q0-.075,0-.1h-.023l-.017-.121s.008-.007.011-.02a.123.123,0,0,0,.006-.032.3.3,0,0,0-.026-.118.3.3,0,0,1-.026-.118.057.057,0,0,1,.009-.035.057.057,0,0,0,.009-.035q.046,0,.052-.017a.03.03,0,0,0-.032-.02q-.02,0-.02-.026a.033.033,0,0,1,.006-.023.017.017,0,0,0,.006-.011l.011-.029a.2.2,0,0,0,.006-.057H29.1a.246.246,0,0,0,0-.026.246.246,0,0,1,0-.026.138.138,0,0,0-.014-.035.175.175,0,0,0-.02-.035l.017-.046a.169.169,0,0,0-.014-.037l-.02-.043a.153.153,0,0,1,.017-.069h-.029V-42.1H29.1a.05.05,0,0,0-.009-.02.028.028,0,0,0-.026-.014.017.017,0,0,1-.011.006.017.017,0,0,1-.011.006h-.006A.108.108,0,0,1,29-42.195q0-.043,0-.095a.418.418,0,0,1,.006-.049.419.419,0,0,0,.006-.049l-.029-.011a.05.05,0,0,1,.009-.02.05.05,0,0,0,.009-.02.058.058,0,0,0-.017-.032.073.073,0,0,1-.017-.049.319.319,0,0,1,.009-.072.344.344,0,0,0,.009-.078.352.352,0,0,0-.006-.046l-.011-.069q.011,0,.011-.014t-.011-.014-.011.017a.22.22,0,0,0-.023-.057q.029-.011.032-.032T29-42.91q-.029-.069-.049-.121a.369.369,0,0,1-.02-.132.229.229,0,0,1,.052-.149.029.029,0,0,0-.023-.014l-.029,0v-.1l-.029-.011.011-.1s.013-.006.04-.006a.107.107,0,0,1,.069.023.229.229,0,0,0,.057.035q.138.029.216.052a.28.28,0,0,1,.121.066.281.281,0,0,1,.066.112q.023.069.052.184l.011.046a.658.658,0,0,0,.04.11.272.272,0,0,1,.029.11q0,.011-.006.014a.031.031,0,0,0-.011.014l-.017.017a.156.156,0,0,0,.023.052l.029.052a.745.745,0,0,1,.017.118q.006.072.014.146t.023.141a.154.154,0,0,0,.043.089h0a.017.017,0,0,0,.011-.006l.011-.011.017-.144s.006.006.017.006a.044.044,0,0,1,.017.006q.017,0,.017-.035a.089.089,0,0,0-.009-.039.1.1,0,0,1-.009-.046.034.034,0,0,1,.014-.032.144.144,0,0,1,.035-.014.078.078,0,0,0,.034-.022.059.059,0,0,0,.014-.043l-.017-.017a.05.05,0,0,1,.009-.02.05.05,0,0,0,.009-.02v-.011l.006-.017h.046a.376.376,0,0,0,.023-.04l.02-.032a.134.134,0,0,1,.02-.026.05.05,0,0,1,.009-.02q.009-.014.014-.014l.011.011a.023.023,0,0,0,.017.006h.017a.023.023,0,0,1,.006-.017l.006-.017h.023a.066.066,0,0,1,.02.006l.026.011.1-.1.023-.029.006.057a.212.212,0,0,0,.055-.009q.032-.009,0-.055l.115-.011.017.011q-.011.023-.014.017s-.007-.006-.014-.006a.078.078,0,0,0,.006.037q.006.009.006,0l.011-.006.006-.006H30.5l.052.052a.04.04,0,0,0,.026-.014.106.106,0,0,0,.02-.026l.017.023a.066.066,0,0,0,.011-.026.13.13,0,0,0,.006-.026l-.017-.029a.116.116,0,0,1,0-.031.026.026,0,0,0,0-.02v-.057a.037.037,0,0,1,.035.023.074.074,0,0,1,.069-.052q.029,0,.029.052-.023,0-.035-.029-.011.006-.011.029t.049.055a.371.371,0,0,1,.078.079V-42.9a.083.083,0,0,1,.04.069.066.066,0,0,1-.023.046h.034a.072.072,0,0,0,.037-.009.072.072,0,0,1,.037-.009.152.152,0,0,1,.1.046.131.131,0,0,1,.052.1l-.032,0-.026,0a.017.017,0,0,0-.006-.012l-.011-.011a.088.088,0,0,0-.055.02.061.061,0,0,0-.026.049q0,.011.032.04a.26.26,0,0,1,.049.057v.023a.071.071,0,0,1,.026.006.071.071,0,0,0,.026.006q-.023-.04,0-.055a.1.1,0,0,1,.052-.014q.029,0,.029.035a.146.146,0,0,1-.035.086.146.146,0,0,0-.035.086q0,.035.006.095t.046.061v-.029H31.2a.033.033,0,0,0-.011-.023.033.033,0,0,0-.023-.011v-.08l.035.017a.15.15,0,0,0,.023-.032q.011-.02.011-.014,0,.029.043.049l.055.026a.062.062,0,0,0,.023.011.1.1,0,0,0,.029.006q-.011.035-.052.023a.039.039,0,0,1,.011.029.088.088,0,0,1-.02.055.081.081,0,0,0-.02.049q.04,0,.035.055a.1.1,0,0,0,.029.089.044.044,0,0,0,.037.009q.026,0,.026.026a.03.03,0,0,1-.009.026.03.03,0,0,1-.026.009l.037.046a.138.138,0,0,1,.032.052.088.088,0,0,1-.011.035.067.067,0,0,1-.011.017q0,.017.011.017a.051.051,0,0,0,.043-.014.051.051,0,0,0,.014-.043q.017,0,.017.04a.127.127,0,0,1-.006.04.1.1,0,0,0,.081-.049.287.287,0,0,0,.046-.095l.029.023.035-.069.017.017a.068.068,0,0,0,.029-.063q0-.017-.009-.02T31.741-42a.17.17,0,0,1,.057-.132l-.022-.016.066-.035q.02-.012.02-.057l.011.006h.006l.017.035.023-.006s0-.014,0-.032a.208.208,0,0,1,0-.049.05.05,0,0,1,.017-.035q.014-.011.043.006-.017-.023-.032-.046a.055.055,0,0,1,0-.052.044.044,0,0,1,.017.006.1.1,0,0,0,.029.011.058.058,0,0,0,.052-.026.242.242,0,0,0,.029-.063q.011-.037.02-.075a.173.173,0,0,1,.02-.055.055.055,0,0,1-.017-.04.1.1,0,0,1,.061-.095q.061-.026.061-.043a.031.031,0,0,0-.014-.023q-.014-.011,0-.011t.023-.029a.044.044,0,0,1,.006-.04s.007-.007.02-.009l.026,0v-.023l-.035-.023q0-.011.037-.029a.188.188,0,0,0,.049-.029q0,.017.029.017l.023-.029a.052.052,0,0,0,.029.046.1.1,0,0,0,.052.017q.017,0,.029-.04v.029h.057q.023,0,.023-.046h-.04q0-.017.029-.032a.111.111,0,0,1,.046-.014v.035l.04-.017q-.011.035,0,.046a.175.175,0,0,0,.043.023.015.015,0,0,1,0-.013.015.015,0,0,1,.013,0,.014.014,0,0,1,.014.011.017.017,0,0,1,0,.017A.267.267,0,0,1,32.84-43a.4.4,0,0,0-.063.049.108.108,0,0,0-.035.083q.011-.011.037-.043a.072.072,0,0,1,.055-.032q0,.011,0,.04a.1.1,0,0,0,.014.046l.04-.029a.067.067,0,0,0,0,.057.08.08,0,0,0,.043.04q0,.011.029-.006l-.011.023h.069A.144.144,0,0,1,33-42.7a.237.237,0,0,1-.032.049s.006.006.017.006q.04,0,.029-.057.035.011.02.049t.032.037q.035,0,.046-.046a.037.037,0,0,1,.017.02.071.071,0,0,1,.006.026s0,.017-.006.04-.01.036-.017.04v.04l.026-.014a.051.051,0,0,1,.026-.009s.01,0,.017.014a.072.072,0,0,0,.023.02h-.069a.017.017,0,0,1-.006.011.033.033,0,0,1-.023.006.041.041,0,0,1-.04-.023.1.1,0,0,1-.011-.046.092.092,0,0,1-.052.04l.011.014q.006.009,0,.014s-.007.009-.02.014a.093.093,0,0,0-.026.014.044.044,0,0,0,.006.017.044.044,0,0,1,.006.017.047.047,0,0,0,.026-.006.061.061,0,0,1,.032-.006.032.032,0,0,1,.032.017.038.038,0,0,0,.037.017q.057,0,.057-.069s.008,0,.011.014a.066.066,0,0,1,.006.02.017.017,0,0,0-.011.006.033.033,0,0,0-.006.023q0,.04.035.04a.323.323,0,0,0,.063-.006q-.011.04-.02.043l-.02.009a.024.024,0,0,0,.009-.023.014.014,0,0,0-.014-.011q-.011,0-.011.014a.028.028,0,0,0,.006.02.017.017,0,0,1-.011.006s-.01,0-.017.011a.082.082,0,0,0,.014.049.044.044,0,0,0,.037.02q.029,0,.035-.037a.057.057,0,0,1,.035-.049v.029l.029-.017a.026.026,0,0,1-.009.023q-.009.006-.009.029l.017.035a.028.028,0,0,1-.006.014l-.011.02a.078.078,0,0,0-.035-.052l-.017.035.017.017a.243.243,0,0,0-.063.046l.017.017H33.19v-.057h-.005l-.017-.006-.006.006a.01.01,0,0,0,0,.009.01.01,0,0,0,.009,0q0,.046-.011.052t-.023.046a.109.109,0,0,1,.043-.006.209.209,0,0,0,.061-.009.1.1,0,0,0,.043-.023q.014-.014,0-.043a.188.188,0,0,0,.095.011q.055-.006.055.063,0,.011-.052.046a.162.162,0,0,0-.063.063.058.058,0,0,0,.026.052.408.408,0,0,0,.057.032l.057.029q.026.014.026.032l-.029.029a.085.085,0,0,0-.023.04l.04-.014a.121.121,0,0,1,.029,0,.049.049,0,0,1,.052.035l-.02,0q-.014,0-.014.009v.017s.008.012.023.026l.029.026a.044.044,0,0,1-.006.017q-.006.011-.011.011l-.023-.011s-.008,0-.011.011a.024.024,0,0,0,0,.023.08.08,0,0,0,.035.055.075.075,0,0,1,.029.066q0,.017-.014.017t-.014.029q0,.023.014.029t.014.035a.044.044,0,0,1-.006.017.044.044,0,0,0-.006.017l.029.017a.023.023,0,0,1,.017.023.028.028,0,0,1-.009.02.056.056,0,0,0-.009.037.023.023,0,0,0,.006.017l.011.011-.029.04a.039.039,0,0,1,.029.011.062.062,0,0,1-.017.046h.046a.175.175,0,0,0,.014.092.143.143,0,0,1,.014.08.033.033,0,0,1-.023-.006.017.017,0,0,1-.011-.006h-.011s0-.006-.011-.006-.01,0-.017.011a.023.023,0,0,1,.011.023q0,.017-.011.017-.029,0-.011-.029l-.035.035a.09.09,0,0,1-.023.017h.052a.406.406,0,0,1-.04.029l-.035.023a.017.017,0,0,0-.006.011v.011l.014.017a.024.024,0,0,0,.02.011.116.116,0,0,0-.042.1l-.006.006a.017.017,0,0,0-.006.011.11.11,0,0,1,.035.009q.023.009.011.02l-.006.011-.006.006v-.023a.19.19,0,0,1-.04,0q-.011,0-.028-.038a.062.062,0,0,0-.011.023.094.094,0,0,0-.006.023q0,.011.023.023a.072.072,0,0,0,.029.017.186.186,0,0,1-.144.063.153.153,0,0,1-.141-.1,1.152,1.152,0,0,1-.08-.23q-.032-.129-.055-.256a.505.505,0,0,0-.057-.178l-.117-.389a.216.216,0,0,0-.066-.1.27.27,0,0,1-.072-.091.156.156,0,0,1-.014-.1.156.156,0,0,0-.014-.1q-.023-.035-.063-.11t-.086-.075a.1.1,0,0,1-.035.02l-.035.014-.017-.011a.03.03,0,0,0,.026-.009.03.03,0,0,0,.009-.026l-.017-.069-.04.023a.052.052,0,0,0-.029.046.069.069,0,0,0,.009.023.1.1,0,0,0,.014.023q-.046-.017-.057.009a.147.147,0,0,0-.011.061l.046-.035-.011.017a.049.049,0,0,0,.052.029.056.056,0,0,0-.035.023.232.232,0,0,0-.02.037.109.109,0,0,1-.023.035.051.051,0,0,1-.037.014q0,.011,0,.055t0,.055s0,.01.011.017l.011.011q0,.017-.023.017a.48.48,0,0,0-.063-.035.417.417,0,0,0-.063-.029.066.066,0,0,0-.02.006.037.037,0,0,0-.02.017q.006.035.055.055t.049.055a.185.185,0,0,1-.04.072.257.257,0,0,1-.063.061q.023,0,.023.017a.089.089,0,0,1-.032.061q-.032.032-.02.055-.046-.023-.046-.017s-.013.006-.04.006q0,.029-.052.046a.161.161,0,0,0,0,.032.133.133,0,0,1,0,.026Q32.029-41.445,32.046-41.445Zm-2.983-1.046s.014.015.032.046a.324.324,0,0,0,.037.057.089.089,0,0,0,.026-.023.161.161,0,0,0,.02-.029q-.011-.017-.014-.014a.023.023,0,0,1-.014,0v-.035l-.017-.011s-.006-.011-.017-.02a.108.108,0,0,0-.035-.02.023.023,0,0,1-.006.017A.1.1,0,0,0,29.063-42.491Zm4.276.557q0-.046.032-.055a.137.137,0,0,0,.061-.037l-.029.069a.072.072,0,0,1,.02-.023.043.043,0,0,1,.026-.012v.092a.061.061,0,0,1-.049-.017.078.078,0,0,0-.061-.017Zm-3.294.161a.024.024,0,0,1,.032,0,.042.042,0,0,1,.014.035s.011,0,.02-.014.014-.016.014-.02a.07.07,0,0,0-.017-.035.084.084,0,0,1-.017-.029v-.023l-.017-.017-.017.017a.294.294,0,0,1-.006.043.294.294,0,0,0-.006.043Zm-.868-.563q.011-.046.043-.052t.032-.057a.062.062,0,0,0-.055.032.1.1,0,0,1-.049.043Zm.483.23.026.02a.071.071,0,0,0,.026.014h.017a.023.023,0,0,1,.006-.017l.006-.017v-.017l-.034-.018-.011.006h-.006s-.01,0-.017.011-.012.013-.012.017Zm2.512.333q0,.035.04.035t.046-.052H32.2q-.023,0-.023.017Zm-.994-.4q0,.017,0,.046a.1.1,0,0,0,.02.052.084.084,0,0,0,.011-.035.242.242,0,0,0,.006-.04q0-.011-.014-.017a.071.071,0,0,0-.026-.007Zm.845.581a.066.066,0,0,0,.023.046.072.072,0,0,0,.023-.02.043.043,0,0,0,.011-.026h-.035s.01-.012.017-.035q-.04-.006-.04.034Zm1.46.2.035-.037a.073.073,0,0,0,.023-.043l-.006-.011-.006-.006-.057.069Zm-.052-.011q-.017.006-.02.037t0,.037a.032.032,0,0,0,.032-.023.117.117,0,0,0,.009-.04q0-.011-.018-.011Zm-2.966-.788s0,.015,0,.035.009.031.02.035a.027.027,0,0,0,.017-.029.036.036,0,0,0-.01-.03A.036.036,0,0,0,30.465-42.192Zm-1.327-.96a.037.037,0,0,0-.037.02.108.108,0,0,0-.009.043.036.036,0,0,0,.037-.023A.117.117,0,0,0,29.138-43.152Zm2.788,1.759a.093.093,0,0,0-.035.075.032.032,0,0,0,.032-.02.1.1,0,0,0,.009-.037l-.006-.011Zm-1.656-.592a.052.052,0,0,1,.023.063s.01,0,.017-.014a.044.044,0,0,0,.011-.02q.006-.035-.029-.035l-.011.006Zm1.874.265a.176.176,0,0,1-.023.032l-.029.032.006.006h.011q.029,0,.032-.023a.046.046,0,0,1,.02-.035Zm-.994-.253s.008-.009.011-.026a.2.2,0,0,0,.006-.037q0-.023-.029-.035Zm-.811-.063.006.006a.017.017,0,0,0,.011.006.035.035,0,0,0,.02-.006.028.028,0,0,1,.014-.006.045.045,0,0,1-.017-.04.028.028,0,0,0-.026.017.069.069,0,0,0-.009.023Zm.1.1a.035.035,0,0,1,.009-.017l.014-.017v.069q-.023,0-.023-.034Zm2.541-.42a.023.023,0,0,0-.017.006h-.006a.021.021,0,0,1,.011.02q0,.014-.011.014t-.011-.017a.033.033,0,0,0-.006.023v.023a.067.067,0,0,0,.04-.068Zm-2.408-.621.017.017q.011,0,.011.014t-.011.014-.017-.017-.011-.014T30.569-42.98ZM33.4-41.807a.127.127,0,0,1-.04.052h.023a.035.035,0,0,0,.017-.009.035.035,0,0,1,.017-.009ZM31.184-42.5q0-.023.017-.023a.035.035,0,0,1,.017.009l.017.014a.044.044,0,0,0-.017.006.044.044,0,0,1-.017.006q-.011,0-.011-.006Zm-1.19.983q-.011,0-.011.02t.011.02a.01.01,0,0,0,0,.009.01.01,0,0,0,.009,0q.011,0,.011-.014T30-41.491q0-.023-.006-.023Zm3.092-.557q-.011,0-.011.017a.015.015,0,0,0,0,.013.015.015,0,0,0,.013,0,.01.01,0,0,0,0,.009.01.01,0,0,0,.009,0q.011,0,.009-.014t-.014-.014q0-.018-.011-.018Zm.443,1.385q.017,0,.017.02t-.017.02-.011-.02q0-.02.012-.02Zm-1.753-.344q-.011,0-.011.02t.011.02q.017,0,.017-.02T31.776-41.031ZM30.46-43.02q.011,0,.011.02t-.011.02q-.017,0-.017-.02t.017-.02Zm2.678.9q-.017,0-.017.02t.017.02.011-.02Q33.15-42.123,33.138-42.123ZM29.919-42.3a.068.068,0,0,0,.029-.009.028.028,0,0,0,.017-.026l-.006-.017Zm1.857,1.42a.015.015,0,0,1,.013,0,.015.015,0,0,1,0,.013.015.015,0,0,1,0,.013.015.015,0,0,1-.013,0q-.011,0-.011-.017T31.776-40.882Zm1.586-1.288a.015.015,0,0,1,.013,0,.015.015,0,0,1,0,.013.015.015,0,0,1,0,.013.015.015,0,0,1-.013,0q-.011,0-.011-.017T33.362-42.169Zm-2.017,1.753q-.011,0-.011.017t.011.017a.015.015,0,0,0,.013,0,.015.015,0,0,0,0-.013.015.015,0,0,0,0-.013.015.015,0,0,0-.013,0Zm.782-1.782a.1.1,0,0,0,.006.029.027.027,0,0,0,.029.017Q32.15-42.2,32.127-42.2Zm1.236.374q-.011,0-.011.017t.011.017a.015.015,0,0,0,.013,0,.015.015,0,0,0,0-.013.015.015,0,0,0,0-.013.015.015,0,0,0-.013,0Zm-1.339.466a.015.015,0,0,1,.013,0,.015.015,0,0,1,0,.013.015.015,0,0,1,0,.013.015.015,0,0,1-.013,0q-.011,0-.011-.017T32.023-41.359Zm-.759-.747q-.011,0-.011.017t.011.017a.015.015,0,0,0,.013,0,.015.015,0,0,0,0-.013.015.015,0,0,0,0-.013A.015.015,0,0,0,31.264-42.106Zm-1.552.069a.015.015,0,0,0-.013,0,.015.015,0,0,0,0,.013.015.015,0,0,0,0,.013.015.015,0,0,0,.013,0q.011,0,.011-.017t-.011-.018Zm3.593-.316q.011,0,.011.017t-.011.017a.015.015,0,0,1-.013,0,.015.015,0,0,1,0-.013.015.015,0,0,1,0-.013.015.015,0,0,1,.013,0Zm-1.938.132q.011,0,.011.017t-.011.017a.015.015,0,0,1-.013,0,.015.015,0,0,1,0-.013.015.015,0,0,1,0-.013A.015.015,0,0,1,31.368-42.221Zm-1.074.529q.011,0,.011.017t-.011.017a.015.015,0,0,1-.013,0,.015.015,0,0,1,0-.013.015.015,0,0,1,0-.013A.015.015,0,0,1,30.294-41.692Zm-.679,1.443q.011,0,.011.017t-.011.017a.015.015,0,0,1-.013,0,.015.015,0,0,1,0-.013.015.015,0,0,1,0-.012A.015.015,0,0,1,29.614-40.25Zm2.845-2.4a.015.015,0,0,0-.013,0,.015.015,0,0,0,0,.013.015.015,0,0,0,0,.013.015.015,0,0,0,.013,0q.011,0,.011-.017t-.011-.017Zm.857.954q0,.035.017.04l.017-.012q-.017-.028-.034-.028Zm-.31-.868q-.017.006-.017.046a.035.035,0,0,0,.017-.009.024.024,0,0,0,.011-.02l-.006-.011Zm-3.8,1.322a.034.034,0,0,0-.029.017.056.056,0,0,0-.011.029.081.081,0,0,1,.026-.026.03.03,0,0,1,.037,0S29.222-41.236,29.207-41.244Zm1.017-.811a.027.027,0,0,0,.029.017v-.035A.027.027,0,0,0,30.224-42.055ZM29.96-40.52q.011,0,.011.02t-.011.02-.011-.02Q29.948-40.52,29.96-40.52Zm3.443-.925q-.011,0-.011.02t.011.02.011-.02Q33.414-41.445,33.4-41.445Zm.23,0q.011,0,.011.02t-.011.02-.011-.02q0-.02.011-.02ZM29.1-41.71q.011,0,.011.02t-.011.02-.011-.02q0-.02.011-.02Zm.977-.73q-.011,0-.011.02t.011.02.011-.02q0-.02-.011-.02Zm3.161,0q.011,0,.011.02t-.011.02-.011-.02q0-.02.011-.02Zm.166,1.822q-.011,0-.011.02t.011.02.011-.02q0-.02-.01-.02ZM29.96-42.7q.011,0,.011.02t-.011.02-.011-.02Q29.948-42.7,29.96-42.7ZM33.569-41.3q-.011,0-.011.02t.011.02.011-.02q0-.02-.011-.02ZM29.1-42.854q-.011,0-.011.02t.011.02.011-.02q0-.02-.011-.02Zm3.179.977q.011,0,.011.02t-.011.02-.011-.02q0-.02.011-.02Zm.282-1.075q-.011,0-.011.02t.011.02.011-.02q0-.02-.011-.02Zm-.149,0q-.011,0-.011.02t.011.02.011-.02q0-.02-.011-.02Zm-2.4,2.167q.011,0,.011.02t-.011.02-.011-.02q0-.02.011-.02Zm-1.024-2.46a.044.044,0,0,1-.006.017l.011-.011a.034.034,0,0,0,.017-.029h-.04Q28.983-43.25,28.983-43.244Zm1.04,2.351q-.011,0-.011.014t.011.014q.017,0,.017-.014T30.023-40.893Zm2.334-1.357q-.011,0-.011.014t.011.014q.017,0,.017-.014T32.356-42.25Zm-.581,1.04q-.011,0-.011.014t.011.014q.017,0,.017-.014t-.017-.014Zm-1.092-1.7q-.011,0-.011.014t.011.014q.017,0,.017-.014t-.017-.014Zm2.845,1.949q-.011,0-.011.014t.011.014q.017,0,.017-.014T33.529-40.962Zm-4.518-1.7q-.011,0-.011.014t.011.014q.017,0,.017-.014t-.017-.014Zm4.351.943q-.011,0-.011.014t.011.014q.017,0,.017-.014T33.362-41.721Zm-3.339.316q-.011,0-.011.014t.011.014q.017,0,.017-.014T30.023-41.4Zm-.477,1.138q.011,0,.011.017t-.011.017-.011-.017Q29.534-40.266,29.546-40.267Zm1.839-.149q-.011,0-.011.017t.011.017T31.4-40.4q0-.017-.011-.017Zm.592-1.144q-.011,0-.011.017t.011.017.011-.017q0-.017-.011-.017Zm-2.811.581q-.011,0-.011.017t.011.017.011-.017Q29.178-40.979,29.166-40.979Zm4.432.149q.011,0,.011.017T33.6-40.8t-.011-.017Q33.587-40.83,33.6-40.83Zm-4.547-1.391q-.011,0-.011.017t.011.017.011-.017Q29.063-42.221,29.051-42.221Zm4.116-.017q-.011,0-.011.017t.011.017.011-.017Q33.178-42.238,33.167-42.238Zm-2.96.845q.011,0,.011.017t-.011.017-.011-.017Q30.2-41.393,30.207-41.393Zm-.2.282q-.011,0-.011.017t.011.017.011-.017Q30.017-41.112,30.006-41.112Zm2.167-1.753q.011,0,.011.017t-.011.017-.011-.017Q32.161-42.864,32.173-42.864Zm-1.6-.236q.011,0,.011.017t-.011.017-.011-.017q0-.017.011-.017Zm.265.333q-.011,0-.011.017t.011.017.011-.017q0-.017-.012-.017Zm-1.735.7q-.011,0-.011.017t.011.017.011-.017q0-.017-.012-.018Zm4.167.1q-.011,0-.011.017t.011.017.011-.017q0-.017-.012-.018ZM30.667-43q-.011,0-.011.017t.011.017.011-.017Q30.678-43,30.667-43Zm-1.19,2.679q-.011,0-.011.017t.011.017.011-.017Q29.488-40.318,29.477-40.318Zm1.92-.035q.011,0,.011.017t-.011.017-.011-.017q0-.017.012-.017Zm.713-1.172q.011,0,.011.017t-.011.017-.011-.017q0-.017.011-.018Zm-.265-.644q-.011,0-.011.017t.011.017.011-.017q0-.017-.011-.018ZM29.1-42.2q-.011,0-.011.017t.011.017.011-.017q0-.017-.011-.018Zm-.017-.035q-.011,0-.011.017t.011.017.011-.017q0-.017-.011-.018Zm.069.581q-.011,0-.011.017t.011.017.011-.017q0-.017-.011-.018Zm.644-.615q-.011,0-.011.017t.011.017.011-.017q0-.017-.011-.018Zm1.622,1.822q-.011,0-.011.017t.011.017.011-.017q0-.017-.012-.017ZM33.5-41.658q-.011,0-.011.017t.011.017.011-.017q0-.017-.012-.017Zm-3.541-.828q-.011,0-.011.017t.011.017.011-.017Q29.971-42.485,29.96-42.485Zm-.845-.1q-.011,0-.011.017t.011.017.011-.017q0-.017-.011-.017Zm1.074.759q-.011,0-.011.017t.011.017.011-.017q0-.017-.011-.017Zm2.73-.828q-.011,0-.011.017t.011.017.011-.017Q32.931-42.652,32.919-42.652Zm-2.528.828q-.011,0-.011.017t.011.017.011-.017Q30.4-41.824,30.391-41.824Zm1.288,0q-.011,0-.011.017t.011.017.011-.017q0-.017-.012-.017Zm-2.6-.862q-.011,0-.011.017t.011.017.011-.017Q29.092-42.687,29.08-42.687Zm3.908-.063q-.011,0-.011.017t.011.017T33-42.733Q33-42.75,32.988-42.75Zm-1.971-.017q-.011,0-.011.017t.011.017.011-.017Q31.029-42.767,31.017-42.767ZM30.6-42.8q-.011,0-.011.017t.011.017.011-.017Q30.615-42.8,30.6-42.8Zm1.655-.063q-.011,0-.011.017t.011.017.011-.017Q32.27-42.864,32.259-42.864Zm-1.92.925q-.011,0-.011.017t.011.017.011-.017Q30.35-41.939,30.339-41.939Zm.035-.035q-.011,0-.011.017t.011.017.011-.017Q30.385-41.974,30.373-41.974ZM30.488-43q.011,0,.011.017t-.011.017-.011-.017q0-.017.012-.017Zm1.822,0q-.011,0-.011.017t.011.017.011-.017Q32.322-43,32.31-43Zm-.661,1.19q-.011,0-.011.017t.011.017.011-.017Q31.661-41.807,31.649-41.807Zm1.558-.661q.011,0,.011.014t-.011.014q-.017,0-.017-.014t.017-.014Zm-4.03,1.408q-.006-.011-.006.023t.006.023a.023.023,0,0,0,.011-.023A.023.023,0,0,0,29.178-41.06Zm4.127-1.023q-.017,0-.017.014t.017.014.011-.014T33.305-42.083Zm-3.426,1.7q.011,0,.011.014t-.011.014q-.017,0-.017-.014T29.879-40.382Zm3.592-.166q.011,0,.011.014t-.011.014q-.017,0-.017-.014t.017-.014Zm-.086-.166q-.017,0-.017.014t.017.014T33.4-40.7t-.011-.015Zm.166-.661q-.017,0-.017.014t.017.014.011-.014-.011-.015ZM32.46-42q.011,0,.011.014t-.011.014q-.017,0-.017-.014T32.46-42Zm-3.426-.546q-.017,0-.017.014t.017.014.011-.014-.011-.015Zm.166-.115q-.017,0-.017.014t.017.014.011-.014-.011-.015Zm1.092.787h.035a.034.034,0,0,0-.017-.029Zm.995-.495h-.029q0-.017.029-.029Zm-2.086-.1.017-.017L29.2-42.5l-.023.011Zm3.869.218q-.011,0-.011.014t.011.014.011-.014T33.069-42.25Zm-2.564-.713q.011,0,.011.014t-.011.014-.011-.014T30.506-42.963Zm1.736.132q-.011,0-.011.014t.011.014.011-.014-.011-.014Zm-1.77-.218q.011,0,.011.014t-.011.014-.011-.014T30.471-43.049Zm1.04,1.213q.011,0,.011.014t-.011.014-.011-.014T31.512-41.835Zm-.845-1.242q.011,0,.011.014t-.011.014-.011-.014T30.667-43.077Zm1.506.925q-.011,0-.011.014t.011.014.011-.014T32.173-42.152Zm-1.339.265q-.011,0-.011.014t.011.014.011-.014-.011-.015Zm-.678.052q-.011,0-.011.014t.011.014.011-.014-.011-.015Zm-.925.1q-.011,0-.011.014t.011.014.011-.014-.011-.014Zm.6,1.339q-.011,0-.011.014t.011.014.011-.014-.011-.014Zm3.109-2.167q-.011,0-.011.014t.011.014.011-.014-.011-.015Zm-1.9-.069q.011,0,.011.014t-.011.014-.011-.014.012-.014Zm-.724.9q.011,0,.011.014t-.011.014-.011-.014T30.31-41.738Zm-1.23-1.409q-.011,0-.011.014t.011.014.011-.014T29.08-43.146Zm-.029.73q-.011,0-.011.014t.011.014.011-.014T29.051-42.416Zm3.259-.466q-.011,0-.011.014t.011.014.011-.014T32.31-42.882Zm-3.23-.345q-.011,0-.011.014t.011.014.011-.014T29.08-43.227ZM33.4-40.479q.011,0,.011.014t-.011.014-.011-.014T33.4-40.479Zm-3.627-1.6q-.011,0-.011.014t.011.014.011-.014-.011-.015Zm.563-.069q-.011,0-.011.014t.011.014.011-.014-.011-.015Zm-1.224-.1q-.011,0-.011.014t.011.014.011-.014-.011-.014Zm1.523-.581q-.011,0-.011.014t.011.014.011-.014-.011-.014Zm2.977,1.84q-.011,0-.011.014t.011.014.011-.014T33.615-40.991ZM29.4-40.33q.011,0,.011.014T29.4-40.3t-.011-.014.012-.014Zm4.253-.661q-.011,0-.011.014t.011.014.011-.014T33.65-40.991Zm-3.576-.58q-.011,0-.011.014t.011.014.011-.014T30.074-41.571Zm3.426-.167q-.011,0-.011.014t.011.014.011-.014-.012-.015Zm-2.748-1.144q-.011,0-.011.014t.011.014.011-.014T30.753-42.882Zm2.2.247q-.011,0-.011.014t.011.014.011-.014-.011-.014ZM31.9-41.227q.011,0,.011.014T31.9-41.2t-.011-.014T31.9-41.227ZM30.753-42.98q.011,0,.011.014t-.011.014-.011-.014T30.753-42.98ZM33.615-41.4q.011,0,.011.014t-.011.014T33.6-41.39,33.615-41.4Zm-2.644-1.161q-.011,0-.011.014t.011.014.011-.014T30.971-42.566Zm-1.8,1.259q-.011,0-.011.014t.011.014.011-.014-.012-.014Zm1.075-.115q.011,0,.011.014t-.011.014-.011-.014.011-.014Zm1.144-.73q.011,0,.011.014t-.011.014-.011-.014T31.385-42.152Zm-2.167,1.259q-.011,0-.011.014t.011.014.011-.014T29.218-40.893Zm3.92-1.425q-.011-.006-.011.014t.011.014a.01.01,0,0,0,.009,0,.01.01,0,0,0,0-.009.018.018,0,0,0-.011-.017Zm.144.627q-.011-.006-.011.009t.011.014Q33.316-41.692,33.282-41.692Zm-2.034-.759q.011,0,.011.014a.021.021,0,0,1-.011.02s-.006,0-.006-.017,0-.021.005-.017ZM31-42.439l.035-.029H31Zm.482,2.058a.047.047,0,0,1-.017.029V-40.4Zm-2.333-.977q.011.023.029.023v-.023Zm.81.759s0,.009,0,.014a.019.019,0,0,1-.017.009q-.011-.006,0-.02t.017,0Zm3.294-1.155q-.006-.011-.017,0t0,.017.017,0s0-.01,0-.017Zm.328.132a.01.01,0,0,1,.009,0,.01.01,0,0,1,0,.009.033.033,0,0,1-.011.023s-.006,0-.006-.017,0-.021.006-.017Zm-3.575-.845s-.006,0-.006.014,0,.018.006.014q.029-.012,0-.029Zm-.84-.052.011-.029h-.029Zm3.127.535s-.006,0-.006.014,0,.018.006.014a.018.018,0,0,0,.011-.017.01.01,0,0,0,0-.009.01.01,0,0,0-.009,0Zm-.322.621a.017.017,0,0,0,.006-.011q.017-.017-.011-.017v.035Zm-2.115-1.052q.011-.011,0-.011t-.014.011.011.011S29.856-42.409,29.856-42.416Zm2.523.333a.028.028,0,0,0,.006.014.028.028,0,0,1,.006.014v-.052a.017.017,0,0,0-.006.011.017.017,0,0,0-.006.011Zm.983.029q0-.011-.011,0t0,.017l.014,0q.008,0,0-.014Zm-3.236.466h.029l-.029-.023Zm1.259-.466q0,.011-.006.011s-.008,0-.012-.011,0-.011.009-.011S31.385-42.063,31.385-42.055ZM29.2-42.606s0-.006-.011-.006-.011,0-.011.006.009.011.014.011.009,0,.009-.011Zm4.449,1.379q.011,0,.011.006s0,.008-.011.011a.01.01,0,0,1-.009,0,.01.01,0,0,1,0-.009q0-.011.011-.005Zm-3.161-1.6q-.011-.006-.011.006a.01.01,0,0,0,0,.009.01.01,0,0,0,.009,0q.011-.006.011-.011s0-.006-.011-.006Zm-1.374.178q-.011,0-.011.009t.011.009.011-.006S29.122-42.648,29.115-42.652Zm3.989.046a.01.01,0,0,0-.009,0,.01.01,0,0,0,0,.009.01.01,0,0,0,0,.009.01.01,0,0,0,.009,0l.006-.006a.023.023,0,0,0-.006-.017Zm.052.6q0-.011-.009-.011T33.138-42t.006.011s.008,0,.011-.011Zm.15.247q-.011,0-.011.009t.011.009Q33.322-41.755,33.305-41.755Zm.166.971q-.011,0-.011.009t.011.009q.016,0,0-.017Zm-3.133-.856q.017,0,0,.017a.01.01,0,0,1-.009,0,.01.01,0,0,1,0-.009Q30.327-41.646,30.339-41.64Zm1.144.08q-.011,0-.011.009t.011.009q.018,0,0-.017Zm-1.971,1.327q0,.017-.017,0,0-.011.009-.011T29.511-40.233Zm.73-1.69q-.011,0-.011.009t.011.009Q30.258-41.9,30.241-41.922ZM30.155-42q0-.011-.011,0t0,.017Q30.161-41.985,30.155-42Zm1.989-.069q-.011,0-.011.009t.011.009q.017-.006,0-.018Zm1.327.914v-.023h-.023Zm-2.954-1.891q0,.011-.006.011s-.006,0-.006-.011,0-.011.006-.011.01,0,.006.011Zm-.11,1.213q0-.011-.009-.011t-.008.012q0,.017.017,0Zm3.207.822q0-.011-.009-.011t-.009.011q.007.018.018,0Zm-3.655.581-.011.006-.006-.006q-.006-.011.009-.011T29.96-40.433Zm-.592.035q.017.023.029,0Zm.69-1.19q-.006-.011-.006,0t.006.014.011-.011s0-.006-.011-.006Zm-.1-.948-.011-.006-.006.006q0,.011.009.011t.008-.012Zm1.868.414-.006-.006q-.011,0-.011.006t.011.011s.006,0,.005-.012Zm-1.322-.9q-.011.029-.017,0l.006-.006Zm-.546,2.172-.006.011.006.006q.011,0,.011-.009T29.96-40.848Zm1.075-1.288q.006-.011-.006-.011a.01.01,0,0,0-.009,0,.01.01,0,0,0,0,.009l.006.006Zm.086-.483a.017.017,0,0,0-.011.006q-.011.011-.017.011l.006-.017Zm-.724-.339a.017.017,0,0,1,.006.011.017.017,0,0,0,.006.011q-.017,0-.017-.029Zm.69.736-.011-.006-.006.006q0,.011.006.011S31.082-42.213,31.086-42.221Zm1.242.362q-.006.011-.011.011s-.006,0-.006-.011l.006-.006ZM30.54-42.882a.035.035,0,0,1,.02.006q.009.006,0,.011Zm-1.477.3-.006.011.006.006q.011-.006.011-.011S29.071-42.583,29.063-42.583Zm4.1.265-.006.011.006.006q.011-.006.011-.011s0-.006-.011-.006Zm-3.885,1.385q.017,0,.017-.029Zm1.4-1.19-.006.011.006.006q.023-.006,0-.018Zm.3-.529q.011.006.011.011s0,.006-.011.006l-.006-.005Zm-1.972-.1-.006.011.006.006q.011,0,.011-.006S29.019-42.746,29.011-42.75ZM29.96-41.2l-.006.011.006.006q.011,0,.011-.006s0-.008-.011-.011Zm.6-1.006s-.008,0-.011.011a.051.051,0,0,0-.006.023Zm3.075.948q.011,0,.011.006s0,.006-.011.006l-.006-.006q0-.017.006-.006Zm-4.4.276-.006-.006-.006.006q0,.011.006.011S29.23-40.972,29.23-40.979Zm4.271-.276-.006.006.006.006q.011,0,.011-.006S33.508-41.255,33.5-41.255Zm-2.2-.995-.005.005.006.006q.011,0,.011-.006S31.307-42.25,31.3-42.25Zm.891-.713q.011,0,.011.006s0,.006-.011.006l-.006-.006Zm-.776.926q.011,0,.011.006s0,.006-.011.006l-.006-.006Zm1.684-.018a.023.023,0,0,0-.006.017S33.1-42.043,33.1-42.055Zm-3.1.563-.006.017S30-41.48,30-41.491Zm-.27,1.19.006-.006.006-.011Z" transform="translate(-20.944 44.604)" fill="#acafb2" stroke="#acafb2" stroke-width="0.1"/>
            <path id="Path_547" data-name="Path 547" d="M29.22-41.179a.064.064,0,0,1,.006-.029l-.075.035v.023l.017.017a.2.2,0,0,0-.026.035.325.325,0,0,0-.026.052q.011-.011.017-.011t.011.017q0,.017-.011.017t-.023-.011q-.011.017-.017.017,0-.017-.006-.069a.065.065,0,0,0-.046-.063.066.066,0,0,0-.02.006q-.014.006-.014.011a.178.178,0,0,1-.011-.04.266.266,0,0,1-.006-.052l.017-.035a.178.178,0,0,0,.011-.04.287.287,0,0,0,.006-.035.035.035,0,0,0-.009-.017.035.035,0,0,1-.009-.017L29-41.381v-.006h.046a.094.094,0,0,0-.006-.023v-.017a.126.126,0,0,0,.023-.037q.011-.026,0-.037a.111.111,0,0,1-.02.014.05.05,0,0,1-.02.009.115.115,0,0,0,.026-.083.081.081,0,0,1,.049-.078.159.159,0,0,1-.075-.057q.029-.011.02-.017a.026.026,0,0,1-.009-.023q-.011,0-.014.006s-.007,0-.014-.023a.174.174,0,0,0,.02-.037.6.6,0,0,1,.032-.061l.032-.055q.014-.026.02-.026a.1.1,0,0,1-.017-.063.273.273,0,0,1,.006-.063l-.017-.014a.057.057,0,0,1-.017-.02l.069-.092v-.006l.006-.011q0-.023-.014-.029t-.014-.029q.023,0,.023-.017a.044.044,0,0,0-.006-.017.133.133,0,0,0-.017-.029.052.052,0,0,1,.029-.046.111.111,0,0,1,.057-.017h.023q.017,0,.023.023l-.02.023a.05.05,0,0,0-.014.029.051.051,0,0,0,.009.026.024.024,0,0,0,.02.014q.017,0,.032-.043a.339.339,0,0,0,.014-.049.094.094,0,0,0-.009-.026.087.087,0,0,1-.009-.032l-.057-.017.075-.04q.011.029.014.023s.007-.006.014-.006,0-.018.009-.02,0-.007-.02-.014a.349.349,0,0,1,.061-.057.213.213,0,0,1,.066-.046.045.045,0,0,1,.035,0,.123.123,0,0,0,.029.009.208.208,0,0,1,.014-.08q.014-.035.072-.035v-.046a.121.121,0,0,1,.011-.049q.011-.026.017-.026a.11.11,0,0,0,.069-.04.285.285,0,0,0,.052-.063q.029.023.032.017s.012-.006.032-.006q0-.011-.006-.014s0-.009.023-.02v.057l.037-.02a.093.093,0,0,1,.037-.014q.035,0,.026.037t.037.037a.015.015,0,0,0,.013,0,.015.015,0,0,0,0-.013.053.053,0,0,0-.035-.057.063.063,0,0,1,.049-.035q.026,0,.026-.046v-.029q0-.017-.023-.023l.057-.017a.441.441,0,0,1,.023-.08.067.067,0,0,1,.069-.046.047.047,0,0,0-.017.029q0,.011.023.029a.07.07,0,0,0,.035.017.047.047,0,0,0,.035-.011q-.011.023.017.035l.011-.011a.017.017,0,0,0,.006-.011.163.163,0,0,1,.069-.052q.035-.011.046-.075h.11a.023.023,0,0,1-.011-.023.015.015,0,0,1,0-.013.015.015,0,0,1,.013,0q.011,0,.011.017a.023.023,0,0,1-.011.023H30.5a.138.138,0,0,1,.049-.037.144.144,0,0,1,.066-.02l.017.017a.083.083,0,0,1,.057-.035.055.055,0,0,0,.04.017.1.1,0,0,1-.066.072.1.1,0,0,0-.066.078q.029.017.029.014s.01,0,.029,0a.106.106,0,0,1,.011-.061.085.085,0,0,1,.029-.023l.032-.017a.061.061,0,0,0,.02-.043.131.131,0,0,1,.014-.052.049.049,0,0,1,.014-.014l.011-.009A.071.071,0,0,0,30.8-43.4l.017.052.032,0a.234.234,0,0,1,.052,0,.118.118,0,0,1,.046.014.042.042,0,0,1,.02.04.055.055,0,0,0-.017.04h.034s.012-.007.026-.02.022-.02.026-.02a.093.093,0,0,1,.04.02.119.119,0,0,0,.035.02h.035q.023,0,.029-.009t.035-.009l.049.017.037.011a.145.145,0,0,1,.035.017.169.169,0,0,1,.04.046.157.157,0,0,0,.061.032.646.646,0,0,0,.092.023l.086.017q.037.009.037.026a.019.019,0,0,1-.009.017.026.026,0,0,0-.009.023q0,.046.04.046h.075v.035q.035,0,.029.017t.029.035l.032.006a.176.176,0,0,1,.037.011.2.2,0,0,1,.061.072.7.7,0,0,1,.055.121,1.212,1.212,0,0,1,.037.129.471.471,0,0,1,.014.092q0,.046-.006.121a.163.163,0,0,1-.029.1l-.04.035a.076.076,0,0,0-.078-.057.3.3,0,0,0-.106.006.148.148,0,0,1-.066-.118.268.268,0,0,0-.043-.135.3.3,0,0,0-.075-.072l-.075-.055.011-.011a.017.017,0,0,0,.006-.012.062.062,0,0,1-.035-.011q-.017-.011-.017.035l-.04-.092-.118-.078a.223.223,0,0,0-.124-.032.04.04,0,0,0-.017,0,.04.04,0,0,1-.017,0h-.017a.077.077,0,0,0-.026.032.093.093,0,0,0-.014.037.008.008,0,0,1-.006,0,.008.008,0,0,1-.006,0h-.006a.017.017,0,0,0-.006-.011l-.011-.011a.04.04,0,0,1-.014.026.04.04,0,0,1-.026.014.045.045,0,0,1-.029.006.023.023,0,0,0-.017.006v-.086a.346.346,0,0,1-.057-.011.375.375,0,0,1-.057-.017s0-.01-.011-.017a.017.017,0,0,0-.011-.006.037.037,0,0,0-.035.023h-.276a.407.407,0,0,1-.072.032l-.115.043-.106.043q-.046.02-.052.037a.078.078,0,0,0,0,.055q.009.02-.037.043a.041.041,0,0,0-.04-.029l-.011.006H30.1a1.428,1.428,0,0,0-.27.331.771.771,0,0,0-.121.405v.046a.062.062,0,0,0-.032.035.156.156,0,0,0-.009.055.524.524,0,0,0,0,.057q0,.026,0,.037,0,.052.006.138a.848.848,0,0,0,.029.17.489.489,0,0,0,.066.146.155.155,0,0,0,.124.069.062.062,0,0,0-.017.046.165.165,0,0,0,.035.106.34.34,0,0,0,.092.078l-.023.04a.488.488,0,0,1,.126.063q.057.04.118.078a1.1,1.1,0,0,0,.124.066.344.344,0,0,0,.144.029l.066-.009.129-.02.129-.023a.419.419,0,0,0,.072-.017l.035-.032q.029-.026.04-.026a.219.219,0,0,1,.072,0l.072,0A.315.315,0,0,0,31.2-40.8a.234.234,0,0,1,.1-.023.068.068,0,0,1,.043.009.045.045,0,0,0,.032.009.258.258,0,0,0,.092-.02q.052-.02.106-.046t.107-.046a.258.258,0,0,1,.092-.02s.006.008.017.011a.094.094,0,0,0,.023.006.093.093,0,0,0,.026-.009.094.094,0,0,1,.026-.009.336.336,0,0,1,.029.035q.017.023.023.023a.024.024,0,0,0,.023,0,.067.067,0,0,0,.017-.011v.069s-.007.012-.02.026-.02.022-.02.026.006.011.017.02l.023.02q-.069.011-.057.069l-.017-.035a.055.055,0,0,0-.043.029.384.384,0,0,0-.037.069.779.779,0,0,0-.029.078q-.011.037-.017.061l-.017-.017a.235.235,0,0,1-.037.061.076.076,0,0,1-.061.032.044.044,0,0,1-.032-.014.128.128,0,0,0-.043-.026v.04a.141.141,0,0,1-.052-.011l-.052-.029h-.024q.04.023.04.052a.045.045,0,0,1-.017.04.373.373,0,0,0-.035-.032l-.017-.014-.006-.006a.023.023,0,0,1-.017.023l-.04.014a.187.187,0,0,0-.043.023.066.066,0,0,0-.026.043.05.05,0,0,1-.029-.014.041.041,0,0,1-.017-.032.124.124,0,0,0-.033.092.094.094,0,0,1-.043-.014q-.026-.014-.026-.009,0,.029-.017.032l-.029,0h-.035l.023-.017h-.023a.152.152,0,0,0-.1.046.19.19,0,0,0-.063.092l-.017.014a.038.038,0,0,1-.023.009q-.017,0-.017-.023l-.029.023a.07.07,0,0,1-.035.017.133.133,0,0,1-.043-.014q-.032-.014-.02-.043a.313.313,0,0,1-.213.08.117.117,0,0,0-.009-.04.036.036,0,0,0-.037-.023.107.107,0,0,0-.029.026.176.176,0,0,0-.023.032l.017.017-.017.023-.057-.04a.111.111,0,0,1-.02.014.051.051,0,0,0-.02.02.336.336,0,0,0-.035-.029.149.149,0,0,0-.04-.023.2.2,0,0,0-.035.008.2.2,0,0,1-.035.009.222.222,0,0,1-.049-.012q-.037-.011-.043-.023l-.04.035a.075.075,0,0,0-.057-.035.416.416,0,0,1,.072-.02q.043-.009.043-.043t-.04-.029a.028.028,0,0,0-.022.008.028.028,0,0,0-.009.022q0,.029-.043.029s-.012-.011-.026-.032a.1.1,0,0,0-.061-.043l-.017-.035v-.006a.023.023,0,0,1,.006-.017.067.067,0,0,1,.012-.016.037.037,0,0,0-.023-.029.108.108,0,0,0-.035-.006.026.026,0,0,0-.023.009.026.026,0,0,1-.023.009q-.023,0-.029-.029a.129.129,0,0,0-.017-.046.038.038,0,0,0-.023.009.055.055,0,0,0-.017.032l.017.017q0,.011-.017.023a.059.059,0,0,1-.023.011.1.1,0,0,1-.066-.04.587.587,0,0,1-.073-.1.8.8,0,0,1-.057-.115.261.261,0,0,1-.023-.086.1.1,0,0,0-.02.032.043.043,0,0,1-.026.026.151.151,0,0,0-.029-.095.382.382,0,0,0-.061-.063.329.329,0,0,0-.061-.04q-.029-.014-.029-.026h.04q0-.035-.052-.052l.017-.023a.223.223,0,0,1-.011-.029l-.023-.046a.076.076,0,0,0-.049-.02q-.032,0-.032-.043a.079.079,0,0,1,.057.017h.023a.153.153,0,0,0,.026-.092q0-.046-.009-.092-.011,0-.011-.02t.011-.02Zm-.213-.351h-.034a.067.067,0,0,1,.02-.049.093.093,0,0,1,.049-.026ZM30.8-43.294l.017.014a.035.035,0,0,0,.017.009q.011,0,.02-.017a.068.068,0,0,0,.009-.029l-.037,0a.029.029,0,0,0-.026.02Zm-.851.2s0-.01.011-.017a.017.017,0,0,0,.006-.011.03.03,0,0,1,.026.026.238.238,0,0,1,0,.032q-.046,0-.046-.028Zm.391,2.949q-.017,0-.017.011a.018.018,0,0,0,.011.017.023.023,0,0,0-.011.023.015.015,0,0,0,0,.013.015.015,0,0,0,.013,0q.011,0,.014-.017t-.009-.023a.014.014,0,0,0,.008-.017A.014.014,0,0,0,30.336-40.15Zm1.3-.385q-.011,0-.011.02t.011.02q.017,0,.017-.02t-.017-.02ZM28.967-41.5q.017,0,.017.02t-.017.02-.011-.02Q28.956-41.5,28.967-41.5Zm.2-.724q-.011,0-.011.02t.011.02q.017,0,.017-.02T29.169-42.225Zm1.759-1.069q-.017,0-.017.02t.017.02.011-.02q0-.02-.011-.02ZM28.991-41.84q.011,0,.011.02t-.011.02q-.017,0-.017-.02T28.991-41.84Zm0-.075q.011,0,.011.02t-.011.02q-.017,0-.017-.02T28.991-41.915Zm2.27,1.633q.011,0,.011.02t-.011.02q-.017,0-.017-.02T31.261-40.282Zm-1.4-2.7q.011,0,.011.02t-.011.02q-.017,0-.017-.02T29.858-42.984Zm-.466.328q.011,0,.011.02t-.011.02q-.017,0-.017-.02T29.393-42.656Zm1.276-.655q-.017,0-.017.02t.017.02.011-.02Q30.68-43.311,30.668-43.311Zm-1.2.6q.011,0,.011.02t-.011.02q-.017,0-.017-.02t.018-.02Zm1,2.707a.039.039,0,0,1,.017.035q-.035,0-.04-.017Zm-.54-3.012a.05.05,0,0,1,.017.035l-.035.017ZM29.111-41.8q-.011,0-.011.017t.011.017a.015.015,0,0,0,.013,0,.015.015,0,0,0,0-.013.015.015,0,0,0,0-.013.015.015,0,0,0-.013,0Zm1.334,1.719a.015.015,0,0,1,.013,0,.015.015,0,0,1,0,.013.015.015,0,0,1,0,.013.015.015,0,0,1-.013,0q-.011,0-.011-.017T30.445-40.081Zm.328-3.247q-.011,0-.011.017t.011.017a.015.015,0,0,0,.013,0,.015.015,0,0,0,0-.013.015.015,0,0,0,0-.013A.015.015,0,0,0,30.772-43.329Zm-.46,3.1q-.011,0-.011.017t.011.017a.015.015,0,0,0,.013,0,.015.015,0,0,0,0-.013.015.015,0,0,0,0-.013A.015.015,0,0,0,30.313-40.225Zm.868,0a.015.015,0,0,1,.013,0,.015.015,0,0,1,0,.013.015.015,0,0,1,0,.013.015.015,0,0,1-.013,0q-.011,0-.011-.017t.012-.017Zm-1.6-.2q-.011,0-.011.017t.011.017a.015.015,0,0,0,.013,0,.015.015,0,0,0,0-.013.015.015,0,0,0,0-.013.015.015,0,0,0-.013,0Zm-.408-1.885q-.011,0-.011.017t.011.017a.015.015,0,0,0,.013,0,.015.015,0,0,0,0-.013.015.015,0,0,0,0-.013.015.015,0,0,0-.013,0Zm.224-.126a.015.015,0,0,0-.013,0,.015.015,0,0,0,0,.013.015.015,0,0,0,0,.013.015.015,0,0,0,.013,0q.011,0,.011-.017t-.012-.017Zm2.213,1.885a.015.015,0,0,0-.013,0,.015.015,0,0,0,0,.013.015.015,0,0,0,0,.013.015.015,0,0,0,.013,0q.011,0,.011-.017T31.606-40.552Zm-2.138-.11a.015.015,0,0,0-.013,0,.015.015,0,0,0,0,.013.015.015,0,0,0,0,.013.015.015,0,0,0,.013,0q.011,0,.011-.017t-.011-.017Zm1.6-2.666q.011,0,.011.017t-.011.017a.015.015,0,0,1-.013,0,.015.015,0,0,1,0-.013.015.015,0,0,1,0-.013.015.015,0,0,1,.013,0Zm-2.006,1.96a.015.015,0,0,0-.013,0,.015.015,0,0,0,0,.013.015.015,0,0,0,0,.013.015.015,0,0,0,.013,0q.011,0,.011-.017T29.065-41.369Zm1.328,1.23a.015.015,0,0,0-.013,0,.015.015,0,0,0,0,.013.015.015,0,0,0,0,.013.015.015,0,0,0,.013,0q.011,0,.011-.017t-.011-.017Zm-1.069-2.225a.015.015,0,0,0-.013,0,.015.015,0,0,0,0,.013.015.015,0,0,0,0,.013.015.015,0,0,0,.013,0q.011,0,.011-.017T29.324-42.363ZM31-43.346q.011,0,.011.017T31-43.312a.015.015,0,0,1-.013,0,.015.015,0,0,1,0-.013.015.015,0,0,1,0-.012.015.015,0,0,1,.013,0Zm.494.581q-.011,0-.011.017a.015.015,0,0,0,0,.013.015.015,0,0,0,.013,0q0,.017.011.017v-.011a.023.023,0,0,1-.006-.017q0-.023-.011-.023Zm-1.069-.58a.145.145,0,0,1-.017.035q-.011.017-.017.017H30.37Zm-.276.144q.011,0,.011.02t-.011.02-.011-.02q0-.02.011-.02Zm.994-.11q.011,0,.011.02t-.011.02-.011-.02q0-.02.011-.02Zm-1.069,3.265q.011,0,.011.02t-.011.02-.011-.02Q30.065-40.047,30.077-40.047Zm.017-.075q-.011,0-.011.02t.011.02.011-.02Q30.105-40.121,30.094-40.121Zm-.276-2.77q-.011,0-.011.02t.011.02.011-.02q0-.02-.011-.02Zm.218,2.742q.017,0,.017.014t-.017.014-.011-.014T30.037-40.15Zm1.845-.638q-.011,0-.011.017t.011.017.011-.017q0-.017-.012-.017Zm-.868.563q.011,0,.011.017t-.011.017T31-40.207q0-.017.011-.017Zm-1.655-.345q.011,0,.011.017t-.011.017-.011-.017Q29.347-40.569,29.358-40.569Zm2.207-2.1q-.011,0-.011.017t.011.017.011-.017q0-.017-.011-.017ZM30.2-43.237q.011,0,.011.017T30.2-43.2t-.011-.017q0-.017.012-.017Zm1.362.143q-.011,0-.011.017t.011.017.011-.017Q31.577-43.093,31.566-43.093Zm-.879,3.012q.011,0,.011.017t-.011.017-.011-.017q0-.017.011-.017Zm.994-2.994q.011,0,.011.017t-.011.017-.011-.017Q31.669-43.076,31.681-43.076Zm-2.063,2.667q-.011,0-.011.017t.011.017.011-.017Q29.629-40.409,29.617-40.409Zm1.121.27q0,.029.017.035v-.006l.006-.011Q30.761-40.144,30.738-40.138Zm1.161-.846q.011,0,.011.014t-.011.014-.011-.014T31.9-40.984Zm-.828.794v.023h-.023v-.023Zm-.477.052a.05.05,0,0,0,.017.035l.017-.017Zm.92-3.041q.006.011,0,.017t-.014,0,0-.017.017,0Zm-2.426,1.373q-.023.011-.023.023v.017l.023-.035Zm.063-.017h.04l-.023-.017Zm-.086.546q-.023,0-.023.017v.017Zm.1.017q-.006-.011-.014,0t0,.017a.023.023,0,0,0,.017-.006.008.008,0,0,0,0-.006.008.008,0,0,0,0-.006Zm.65-1.724q0,.011-.006.011s-.008,0-.011-.011,0-.011.009-.011.009,0,.009.011Zm1.9.057q-.011-.006-.011.006a.01.01,0,0,0,0,.009.01.01,0,0,0,.009,0q.011-.006.011-.011s0-.006-.011-.006Zm-2.488.684q-.011,0-.011.009t.011.009.011-.006s0-.008-.012-.011Zm1.753-.65q-.011-.006-.011.009t.011.014Q30.991-42.892,30.98-42.892Zm-.184,2.77a.01.01,0,0,0-.009,0,.01.01,0,0,0,0,.009q0,.011.011.006t.011-.006S30.8-40.117,30.8-40.121ZM31-40.167q.017,0,0,.017a.01.01,0,0,1-.008,0,.01.01,0,0,1,0-.009q0-.011.011-.006Zm-1.661-2.017q-.011-.006-.011.006a.01.01,0,0,0,0,.009.01.01,0,0,0,.009,0Q29.358-42.185,29.341-42.185Zm2.489,1.632q.017,0,0,.017a.01.01,0,0,1-.009,0,.01.01,0,0,1,0-.009Q31.818-40.558,31.83-40.552Zm-.885.431q.011.006.011.011s0,.006-.011.006-.011,0-.011-.006a.01.01,0,0,1,0-.008.01.01,0,0,1,.009,0Zm-.667-.046q.005-.012-.006-.012a.01.01,0,0,0-.009,0,.01.01,0,0,0,0,.009Q30.278-40.15,30.278-40.167Zm-.3,0a.041.041,0,0,0,.023-.04Zm.241.046v-.029l-.017.012Zm-.92-2.155-.011-.006-.006.006q0,.011.006.011S29.3-42.269,29.3-42.276Zm-.132.11q.023,0,.023-.017Z" transform="translate(-15.698 44.918)" fill="#acafb2" stroke="#acafb2" stroke-width="0.1"/>
            <path id="Path_546" data-name="Path 546" d="M2.29-34.338q.012,0,.012.016t-.012.016s0-.005,0-.016a.093.093,0,0,1-.028.044.072.072,0,0,1-.056.028l-.032-.024a.165.165,0,0,1-.032-.032.02.02,0,0,1,0-.01.078.078,0,0,0,.008-.022.012.012,0,0,1-.008,0L2.13-34.35l-.02.056Q2.1-34.3,2.1-34.306a.058.058,0,0,0-.024-.008l-.024,0v-.02s-.009-.011-.026-.024l-.038-.028a.041.041,0,0,0-.016-.008q0-.032-.024-.032v.052l-.024-.012a.009.009,0,0,0-.01.006s-.006.006-.014.006a.035.035,0,0,1-.034-.02.089.089,0,0,1-.01-.04.013.013,0,0,0-.012.008q0,.008-.008-.028l-.024.024q-.012-.032-.028-.032a.06.06,0,0,1-.03-.008.071.071,0,0,1-.024-.042.6.6,0,0,1-.01-.138q0-.012,0-.044t0-.04.024-.034a.549.549,0,0,0,.022-.071l.02-.078a.231.231,0,0,1,.022-.058.049.049,0,0,0,.018-.01Q1.84-35,1.84-35a.086.086,0,0,0,0-.037q0-.028,0-.037a.237.237,0,0,0,.018-.048.325.325,0,0,1,.026-.064.2.2,0,0,1,.03-.054.186.186,0,0,0,.03-.058v-.056a.054.054,0,0,1,.016-.034.052.052,0,0,1,.022-.012A.063.063,0,0,0,2-35.412q.01-.006.01-.026a.339.339,0,0,0,0-.066.274.274,0,0,0,0-.062.19.19,0,0,0,.046-.072.555.555,0,0,0,.021-.084q.008-.044.014-.09a.424.424,0,0,1,.022-.09q.02-.02.02-.028a.518.518,0,0,0,.06-.175,1.02,1.02,0,0,1,.046-.188q.016-.032.032-.034t.032-.034a.069.069,0,0,1-.02-.02.059.059,0,0,1-.012-.02.036.036,0,0,1,0-.016h.037l-.034-.026a.057.057,0,0,0-.034-.014s-.009.006-.02.018l-.038.04q-.022.022-.04.044l-.022.026a.129.129,0,0,0-.02.056q0,.032-.032.032l-.008,0-.008,0a.028.028,0,0,0,.006-.014.027.027,0,0,0,0-.018q0-.008-.024-.022l-.052-.032-.056-.034a.2.2,0,0,1-.037-.024l-.026-.018a.049.049,0,0,0-.018-.01.038.038,0,0,0-.016.01.062.062,0,0,0-.016.018l-.088-.12a.1.1,0,0,0-.026-.062.08.08,0,0,0-.05-.014l-.02.016s0,0-.006-.008,0-.008,0-.008.016-.011.016-.032,0-.034-.012-.038a.142.142,0,0,0-.04-.01v-.016a.024.024,0,0,1,.006-.012A.027.027,0,0,0,1.6-36.71l.008.016q.012,0,.012-.016a.016.016,0,0,0,0-.012Q1.6-36.73,1.6-36.735v-.028a.012.012,0,0,1,.008,0l.012.008a.092.092,0,0,1,0-.04.077.077,0,0,1,.012-.04q0-.008.02-.018t.02-.014v-.028a.011.011,0,0,1,0-.009.011.011,0,0,1,.009,0,.03.03,0,0,1,.014.028q0,.016.018.024l.02-.04L1.728-36.9v-.016a.169.169,0,0,1,0-.028.124.124,0,0,1,.008-.028q.016.012.01.014a.009.009,0,0,0-.006.01.106.106,0,0,0,.054-.024.066.066,0,0,0,.034-.052.018.018,0,0,1,.01.011.018.018,0,0,1,0,.015.018.018,0,0,0,0,.015.018.018,0,0,0,.01.011.256.256,0,0,1,.014-.04q.006-.012.03-.012h.016a.077.077,0,0,1,.024.006l.02.006A.092.092,0,0,0,2-37.032a.092.092,0,0,1,.052-.016.327.327,0,0,1,.066.008q.038.008.038.056v.024q0,.008-.012.012v-.02a.012.012,0,0,1-.008,0,.046.046,0,0,0-.008.018.086.086,0,0,0,0,.022q0,.012.008.012l.066-.052A.214.214,0,0,1,2.281-37a.138.138,0,0,0-.008.056.076.076,0,0,0,.016-.044h.053v.044a.072.072,0,0,1,.02-.02.041.041,0,0,1,.016-.008.024.024,0,0,1,.02.012.224.224,0,0,1,.014.024.132.132,0,0,0,.012.02q.006.008.01,0a.027.027,0,0,0,.016-.006.024.024,0,0,1,.012-.006q.016,0,.03.024a.041.041,0,0,1,0,.044l.068.044q-.012,0-.012.016l0,.012q0,.008.008.008l.016-.037a.065.065,0,0,0,.037.048q-.012.02.008.02s.007,0,.012-.012v.08q-.012,0-.012.016a.066.066,0,0,0,0,.016q0,.012.008.012a.012.012,0,0,0,0-.008l.008-.012a.026.026,0,0,1,.012-.012.083.083,0,0,0,.022.064.089.089,0,0,1,.022.068h.02a.109.109,0,0,0,.032.08l.032-.052v.024a.037.037,0,0,1,.018.006q.01.006,0,.022a.012.012,0,0,1,0,.008.1.1,0,0,1,.037.088l-.008.016a.1.1,0,0,0,0,.037v.032l-.012-.016-.022.028a.105.105,0,0,0-.01.016.078.078,0,0,0,.006.058.34.34,0,0,0,.026.042q-.016,0-.02.032l.02.048q-.008.02-.014.018l-.014,0a.145.145,0,0,0,.014.062.145.145,0,0,1,.014.062.172.172,0,0,1,0,.032.2.2,0,0,0,0,.024s0,.007-.01.014-.01.011-.01.014a.27.27,0,0,0,0,.044.246.246,0,0,1,0,.032.027.027,0,0,1-.012.024.045.045,0,0,0-.016.016v-.016a.037.037,0,0,1,.012-.032q-.008-.016-.016-.012a.035.035,0,0,1-.016,0v.108q.008,0,.008.016a.039.039,0,0,1-.006.026.019.019,0,0,1-.014.006l-.014,0s-.007,0-.01.01v-.016a.166.166,0,0,1,0-.022.02.02,0,0,1,.014-.018l-.016,0a.028.028,0,0,0-.03.024.214.214,0,0,0-.006.052H2.7l-.044.04.024.012q0,.008-.016.014a.077.077,0,0,1-.024.006L2.6-35.546q-.021-.008-.02-.016v-.028q-.008.012-.016.012l-.012-.012-.012,0v.068l.012-.012q.008-.008.012,0s.006,0,.01.008a.027.027,0,0,1,.006.016.042.042,0,0,1,0,.026q0,.018-.008.018H2.51l.008.028H2.57q.008,0,.008-.008t.012-.008a.049.049,0,0,1,.018,0,.025.025,0,0,1,.014.012l.024-.032.012-.02q0,.012.014.037a.116.116,0,0,1,.01.044.048.048,0,0,1-.008.03.042.042,0,0,1-.02.014.1.1,0,0,0-.024.012.059.059,0,0,0-.02.028.011.011,0,0,1,.009,0,.011.011,0,0,1,0,.009.066.066,0,0,1,0,.02.155.155,0,0,1-.008.02q0,.012-.01.037a.343.343,0,0,1-.014.044l-.012.032q0,.012,0,0a.316.316,0,0,0-.006-.062.216.216,0,0,1,0-.066q-.024.02-.034.014a.07.07,0,0,0-.034-.006q0,.008,0,.026l0,.035a.182.182,0,0,0,0,.038.149.149,0,0,0,.006.03q.016,0,.018-.026t.006-.014.016.014a.049.049,0,0,1,.008.022.025.025,0,0,0-.026.014.081.081,0,0,0-.006.032q0,.018,0,.038t0,.032a.026.026,0,0,0,.024-.014.026.026,0,0,1,.024-.014.055.055,0,0,1-.01.037.088.088,0,0,1-.024.02.18.18,0,0,0-.026.018.154.154,0,0,0-.024.026.02.02,0,0,1,.01,0,.013.013,0,0,1,.006.012.007.007,0,0,1,.006,0,.007.007,0,0,1,0,.006.142.142,0,0,0-.052.008.107.107,0,0,1-.04.008v.028H2.386l-.012-.012-.008.085a.013.013,0,0,0,.006.012.024.024,0,0,0,.014,0q.008,0,.008-.016a.066.066,0,0,0,0-.016.023.023,0,0,1,0-.016l.032.048h.048a.225.225,0,0,0,.058-.008.225.225,0,0,1,.058-.008h.02a.2.2,0,0,1,.04,0l.037.008q.017,0,.016.012a.062.062,0,0,1,.024-.01l.02,0,.02,0h.02l.02.008a.019.019,0,0,0,.02-.014q0-.014.024-.014t.012.01a.016.016,0,0,0,.016.01.019.019,0,0,0,.02-.016h.176a.03.03,0,0,1,.034-.018l.038,0a.2.2,0,0,1,.076.012.179.179,0,0,0,.088,0,.065.065,0,0,0,.01.026q.01.018.01.006t.02-.016a.014.014,0,0,0-.008.014q0,.01.008.01t.01-.01a.011.011,0,0,0-.006-.014q.024,0,.037.037a.027.027,0,0,1,.024-.012q.008,0,.008.032l-.02.024h.032L3.4-34.7a.053.053,0,0,0-.026.034H3.39a.027.027,0,0,0-.012.018.086.086,0,0,0,0,.022l.032.032,0,.012a.031.031,0,0,0,0,.012h.04v-.037l-.02.012q.012-.037.04-.037a.568.568,0,0,1-.008.08q-.008.052-.044.052a.051.051,0,0,1-.024-.028l.008-.012q-.037,0-.037.052a.272.272,0,0,0-.02-.04l-.012.028a.019.019,0,0,0-.02-.012.043.043,0,0,0-.032.012q.008-.016.018-.04a.076.076,0,0,0,.006-.044q.024.008.028.044a.043.043,0,0,0,.012-.032.033.033,0,0,0,0-.01.033.033,0,0,1,0-.01.075.075,0,0,1-.024-.014q-.012-.01-.012,0l-.024.048s0,0-.008,0a.016.016,0,0,1-.012,0l-.012.02q.012,0,.012.028a.027.027,0,0,1-.012.024l-.008-.024a.156.156,0,0,0-.008.02.05.05,0,0,1-.012.02A.049.049,0,0,0,3.2-34.5a.049.049,0,0,0-.028-.006s0,.005.006.008,0,.007,0,.012a.063.063,0,0,1-.012.016l-.016.016v-.06a.048.048,0,0,1-.04-.022.052.052,0,0,0-.044-.022.3.3,0,0,0,.012.052q.008.008.012,0s.005-.006.008-.006l.012,0a.122.122,0,0,1-.012.044q.012,0,0,.016-.008,0-.008-.012-.028.056-.048.056a.063.063,0,0,1-.048-.022.063.063,0,0,0-.048-.022q-.008,0-.012.012a.019.019,0,0,1-.02.012.056.056,0,0,1-.024,0,.045.045,0,0,0-.02,0,.134.134,0,0,1,0,.048.012.012,0,0,1-.008,0q0-.008-.01-.008a.014.014,0,0,1-.014-.008l-.008.01s-.005.006-.008.006a.128.128,0,0,1-.03.008l-.03,0v-.02a.043.043,0,0,1-.022,0s-.01,0-.018.012a.031.031,0,0,0,.006-.026q0-.018-.01-.018T2.7-34.446t.008-.012l.012.012a.016.016,0,0,1,0-.012l-.016-.032-.028.084q0-.008-.022-.018a.118.118,0,0,0-.026-.01q-.016,0-.02.026a.355.355,0,0,0,0,.054.108.108,0,0,1-.034-.006.043.043,0,0,1-.026-.03.034.034,0,0,0,.014-.026.049.049,0,0,1,.014-.03l.012-.012v-.016a.277.277,0,0,1-.058.032.067.067,0,0,0-.038.056.143.143,0,0,0-.012-.037q-.008-.024-.024-.024s-.008,0-.016.012l-.012.012a.015.015,0,0,0,0-.014q0-.01-.006-.01t-.006.014.01.014l-.012.012q-.008,0-.008-.012h-.1l.02.028a.033.033,0,0,1-.02.012.024.024,0,0,1-.012-.006.024.024,0,0,0-.012-.006q-.008,0-.008.012a.018.018,0,0,1,.01.012.066.066,0,0,1,0,.016Zm-.256-.1a.11.11,0,0,0,.01.032.11.11,0,0,1,.01.032.086.086,0,0,1,.016-.028.039.039,0,0,0,.008-.028v-.016q0-.008-.012-.008l-.016.012Zm.485-.89a.037.037,0,0,0,.012.032q.008,0,.012-.02a.082.082,0,0,0,0-.037.021.021,0,0,0-.018.006.021.021,0,0,0-.006.018Zm-.382.51a.043.043,0,0,0,0-.022.012.012,0,0,0-.01-.006l-.014,0a.018.018,0,0,1-.012-.01v.04Zm.093-.906a.115.115,0,0,0,.012.052.034.034,0,0,0,.014-.026q0-.018,0-.026Zm-.093,1.311q-.008,0-.02.022a.083.083,0,0,0-.012.038.028.028,0,0,0,.028-.02.069.069,0,0,0,0-.04Zm.016-2.112q-.016,0-.02.02a.2.2,0,0,0,0,.04q.016,0,.02-.02a.2.2,0,0,0,0-.04Zm.417,1.415a.137.137,0,0,1-.01.028.023.023,0,0,1-.022.012q-.008,0-.008-.016ZM2.21-36.827q0,.024.02.024l-.008-.061a.049.049,0,0,0-.012.037Zm-.056,1.263q-.028,0-.028.037a.024.024,0,0,0,.02-.012A.043.043,0,0,0,2.154-35.564Zm.1-.224q-.012,0-.012.016t.012.016.008-.016q0-.016-.008-.016Zm0,1.3q-.012,0-.012.016t.012.016.008-.016q0-.016-.008-.016Zm-.188-.365a.1.1,0,0,1,.024-.04l-.024-.012Zm1.171.381q.012,0,.012.014t-.012.014-.008-.014.008-.014ZM2.675-36.6q-.012,0-.012.014t.012.014.008-.014T2.675-36.6ZM2.09-34.378q-.012,0-.012.014t.012.014.008-.014-.008-.014Zm.04-.585q-.008,0-.008.014t.008.014,0,.012a.008.008,0,0,0,.005,0,.008.008,0,0,0,0-.007.04.04,0,0,0,0-.018q0-.01-.008-.01Zm.265.473s0,.005,0,.016,0,.016,0,.016.012-.005.012-.016,0-.016-.013-.016Zm.958-.28q-.008,0-.008.016t.008.016.008-.016q0-.016-.008-.016Zm.052,0q-.008,0-.008.016t.008.016.008-.016q0-.016-.008-.016Zm-.874-.361q.008,0,.008.016t-.008.016-.008-.016Q2.523-35.132,2.531-35.132Zm-.361-.016q-.008,0-.008.016t.008.016.008-.016q0-.016-.008-.016Zm.381.168q.008,0,.008.016t-.008.016-.008-.016q0-.016.008-.016Zm.585.489q.008,0,.008.016t-.008.016-.008-.016q0-.016.007-.016ZM2.11-34.562q-.008,0-.008.016t.008.016.008-.016Q2.118-34.562,2.11-34.562Zm-.032.212q-.008,0-.008.016t.008.016.008-.016q0-.016-.008-.016Zm.092-1.2q-.008,0-.008.016t.008.016.008-.016q0-.016-.008-.016Zm.144-.433q-.008,0-.008.016t.008.016.008-.016q0-.016-.008-.016Zm.381,0q-.008,0-.008.016t.008.016.008-.016q0-.016-.008-.016Zm-.69,1.647q.008,0,.008.016t-.008.016T2-34.323Q2-34.338,2.006-34.338Zm.669-.136H2.7a.035.035,0,0,0,0-.016.026.026,0,0,0-.016-.012Zm.666-.136q-.008,0-.008.012t.008.012a.011.011,0,0,0,.009,0,.011.011,0,0,0,0-.009.011.011,0,0,0,0-.01.011.011,0,0,0-.01,0Zm-1.146-.922a.011.011,0,0,0-.009,0,.011.011,0,0,0,0,.009.011.011,0,0,0,0,.009.011.011,0,0,0,.009,0q.008,0,.008-.012t-.008-.012Zm-.1.012a.011.011,0,0,0-.009,0,.011.011,0,0,0,0,.009.011.011,0,0,0,0,.009.011.011,0,0,0,.009,0q.008,0,.008-.012t-.008-.012Zm-.229.445a.032.032,0,0,0-.016.032h.016Zm.008-1.856s0,0,0,.014,0,.014,0,.014.012,0,.012-.014,0-.014-.012-.014Zm.541,1.519q-.012,0-.012.014t.012.014s0,0,0-.014S2.413-35.412,2.41-35.412Zm.317-.3q-.012,0-.012.014t.012.014s0,0,0-.014,0-.014,0-.014Zm-.69.3q-.008,0-.008.014t.008.014.008-.014T2.038-35.412Zm.585.028q-.008,0-.008.014t.008.014.008-.014-.009-.014Zm-.453.421q-.008,0-.008.014t.008.014.008-.014T2.17-34.963Zm.061-.91q-.008,0-.008.014t.008.014.008-.014-.008-.014Zm-.1,1.4q-.008,0-.008.014t.008.014.008-.014T2.13-34.474Zm.441-1.495q-.008,0-.008.014t.008.014.008-.014-.008-.014Zm.649,1.427q-.008,0-.008.014t.008.014.008-.014T3.22-34.542Zm-.99.136q-.008,0-.008.014t.008.014.008-.014-.008-.014Zm.217-.685q-.008,0-.008.014t.008.014.008-.014T2.447-35.091Zm.012.685q.008,0,.008.014t-.008.014-.008-.014.008-.014Zm.894-.277q-.008,0-.008.014t.008.014.008-.014-.008-.015Zm0-.044q-.008,0-.008.014t.008.014.008-.014-.008-.014Zm.064.084s0,.005,0,.016,0,.016,0,.016-.008-.005-.008-.016,0-.016.008-.016ZM2.222-36.5q-.008,0-.008.016t.008.016s0-.005,0-.016,0-.016,0-.016Zm-.04,2.14q-.008,0-.008.012t.008.012.008-.012T2.182-34.362Zm1.2-.389q-.008,0-.008.012t.008.012.008-.012-.008-.012Zm.084.152q.008,0,.008.012t-.008.012-.008-.012.008-.012ZM2.242-35.661q-.008,0-.008.012t.008.012.008-.012T2.242-35.661Zm-.124-.9s0,.005,0,.016,0,.016,0,.016.008-.005.008-.016S2.123-36.559,2.118-36.559Zm-.224-.433s0,.005,0,.016,0,.016,0,.016.008-.005.008-.016,0-.016-.008-.016Zm.585,1.916s0,.005,0,.016,0,.016,0,.016.008-.005.008-.016,0-.016-.008-.016Zm.1-.2s0,.005,0,.016,0,.016,0,.016.008-.005.008-.016,0-.016-.008-.016Zm.585.7s0,.005,0,.016,0,.016,0,.016.008-.005.008-.016,0-.016-.008-.016Zm-1.139-.85.024-.028-.012-.012Zm.806-.629a.024.024,0,0,1,0,.014s-.007,0-.012,0,0-.007,0-.014.011-.007.014,0Zm-.044.14q-.008,0-.008.014t.008.014s0,0,0-.014,0-.014,0-.014Zm-.521-1.019q-.008,0-.008.014t.008.014s0,0,0-.014S2.269-36.932,2.266-36.932Zm.2.052q-.008,0-.008.014t.008.014s0,0,0-.014,0-.014,0-.014Zm-.084-.08q-.008,0-.008.014t.008.014s0,0,0-.014,0-.014,0-.014Zm.084,2.525s0,0,0,.014,0,.014,0,.014-.008,0-.008-.014,0-.014.008-.014Zm.481.028s0,0,0,.014,0,.014,0,.014-.008,0-.008-.014,0-.014.008-.014Zm-.789.028q-.008,0-.008.014t.008.014s0,0,0-.014,0-.014,0-.014Zm1.066-.42q-.008,0-.008.014t.008.014s0,0,0-.014,0-.014,0-.014Zm-1.006.3q-.008,0-.008.014t.008.014s0,0,0-.014,0-.014,0-.014Zm.248-.421s0,0,0,.014,0,.014,0,.014-.008,0-.008-.014,0-.014.008-.014Zm-.333.044h.024q-.012-.012-.012-.016s-.007,0-.012,0Zm.4-1.062s0,0,0,.014,0,.014,0,.014.008,0,.008-.014,0-.014-.008-.014ZM1.909-37s0,0,0,.014,0,.014,0,.014.008,0,.008-.014S1.915-37,1.909-37ZM3.1-34.446q.008,0,.008.014t-.008.014s0,0,0-.014,0-.014,0-.014Zm-.585.04q.008,0,.008.014t-.008.014s0,0,0-.014,0-.014,0-.014Zm-.084-.782s0,0,0,.014,0,.014,0,.014.008,0,.008-.014,0-.014-.009-.014Zm-.421.77s0,0,0,.014,0,.014,0,.014.008,0,.008-.014S2.019-34.418,2.014-34.418Zm.1-1.162s0,0,0,.014,0,.014,0,.014.008,0,.008-.014S2.123-35.581,2.118-35.581ZM2.1-34.5s0,0,0,.014,0,.014,0,.014.008,0,.008-.014S2.1-34.5,2.1-34.5Zm.481-.91s0,0,0,.014,0,.014,0,.014.008,0,.008-.014,0-.014-.008-.014Zm-.79.5s0,0,0,.014,0,.014,0,.014.008,0,.008-.014S1.795-34.907,1.789-34.907Zm.12.4s0,0,0,.014,0,.014,0,.014.008,0,.008-.014,0-.014-.008-.014Zm-.016.056s0,0,0,.014,0,.014,0,.014.008,0,.008-.014S1.9-34.446,1.893-34.446Zm.685-1.311s0,0,0,.014,0,.014,0,.014.008,0,.008-.014,0-.014-.008-.014ZM2.427-35s0,0,.006-.008a.066.066,0,0,0,0-.016.085.085,0,0,0,0-.014q0-.01-.006-.01Zm-.265.677q-.008,0-.008.012t.008.012s0,0,0-.012S2.165-34.318,2.162-34.318Zm-.525-2.417q-.008,0-.008.012t.008.012s0,0,0-.012S1.64-36.735,1.637-36.735Zm.71,1.856q-.008,0-.008.012t.008.012s0,0,0-.012,0-.012,0-.012Zm.132-.433s0,0,0,.012,0,.012,0,.012.008,0,.008-.012,0-.012-.008-.012Zm.1.212q.008,0,.008.012t-.008.012s0,0,0-.012S2.576-35.1,2.579-35.1Zm-.77.585s0,0,0,.012,0,.012,0,.012.008,0,.008-.012,0-.012-.008-.012Zm.289-.433s0,0,0,.012,0,.012,0,.012.008,0,.008-.012S2.1-34.947,2.1-34.947Zm.421-.573s0,0,0,.012,0,.012,0,.012.008,0,.008-.012,0-.012-.008-.012Zm-.565.934s0,0,0,.012,0,.012,0,.012.008,0,.008-.012S1.959-34.587,1.954-34.587Zm.509-.293q0,.016-.028.024l.014-.016a.017.017,0,0,1,.014-.008Zm-.818-1.9q-.008,0-.008.01t.008.01Q1.661-36.771,1.645-36.783ZM2.6-35.509a.014.014,0,0,1,.008.014q0,.01-.008.01s0,0,0-.012S2.6-35.512,2.6-35.509Zm.208-.854q-.012.012-.012.016v.016q.012-.012.012-.016ZM1.865-34.49l-.008.016a.013.013,0,0,0,0,.016.078.078,0,0,0,.006-.016A.023.023,0,0,0,1.865-34.49Zm1.515-.1q0-.008-.006-.006t-.01.006Q3.373-34.567,3.381-34.587Zm-.758-2.2q.008,0,.008.012H2.614Q2.615-36.783,2.622-36.783ZM2.779-35.7q-.008.02-.012,0t.006-.008s.006,0,.007.008Zm-.168,1.259q0-.008,0-.008a.007.007,0,0,0-.006,0,.007.007,0,0,0,0,.006q0,.008.008.008S2.611-34.441,2.611-34.446Zm.052-1.379q0-.008-.006-.008s-.006,0-.006.008.005.008.008.008,0,0,0-.008Zm-.657,1.379q-.008,0-.008,0a.007.007,0,0,0,0,.006.007.007,0,0,0,.006,0q.008,0,.008-.008S2.011-34.446,2.006-34.446Zm.441-2.445q-.008,0-.008,0a.007.007,0,0,0,0,.006.007.007,0,0,0,.006,0q.008,0,.008-.008S2.452-36.891,2.447-36.891Zm-.216-.068q-.008,0-.008,0a.007.007,0,0,0,0,.006.007.007,0,0,0,.006,0q.008,0,.008-.008S2.235-36.959,2.23-36.959Zm.156,1.671q-.008,0-.008.01t.008.006T2.386-35.288Zm-.3-1.042q-.008,0-.008.006t.008.01Q2.1-36.33,2.09-36.33Zm.473.309q0-.008-.006-.008s-.006,0-.006.008S2.56-36.011,2.563-36.022Zm.08.71a.016.016,0,0,1,0,.012q-.012,0-.006-.01t.01,0Zm-.02-.5q0-.008-.006-.008s-.006,0-.006.008S2.62-35.805,2.622-35.813Zm-.012.124q0-.008,0-.008a.007.007,0,0,0-.006,0,.007.007,0,0,0,0,.006q.013.012.013,0Zm-.04-.477q0,.016,0,.016t.008-.01s0-.006-.007-.006Zm.244-.224q0-.008,0-.008s-.006,0-.006.008,0,.008,0,.008,0,0,0-.008ZM2.17-35.032q0-.008,0-.008s-.006,0-.006.008,0,.008,0,.008S2.17-35.026,2.17-35.032ZM2.8-36.295q0-.008,0-.008s-.006,0-.006.008,0,.008,0,.008,0,0,0-.008Zm.084,1.82q0-.008-.006-.008s-.006,0-.006.008.007.005.012,0Zm-.525-.766q0-.008,0,0t0,.01.008-.008S2.36-35.24,2.354-35.24Zm.565.782q0-.008,0,0t0,.01.008-.008s0,0-.008,0Zm-.485-.521a.127.127,0,0,0-.012.028.019.019,0,0,0,.01-.014.084.084,0,0,0,0-.014Zm-.357.589q-.008,0-.008,0a.007.007,0,0,0,0,.006.007.007,0,0,0,.006,0S2.081-34.385,2.078-34.39Zm-.373-2.429q0-.008,0-.008s-.006,0-.006.008,0,.008.006.008S1.705-36.814,1.705-36.819Zm1.647,2.361q.012,0,0,.012s0,0,0-.01S3.35-34.464,3.352-34.458ZM1.905-35,1.893-35v.016Zm.746-.742a.031.031,0,0,0-.012.028Zm-.113.489q0,.02-.008.02,0-.02.008-.02Zm.1-1.351q-.008-.008-.008,0a.007.007,0,0,0,0,.006.007.007,0,0,0,.006,0Q2.643-36.607,2.635-36.607ZM2.1-35.5s0,0,0,.008.012,0,.012,0S2.1-35.494,2.1-35.5ZM1.869-37s0,0,0,.008S1.88-37,1.869-37Zm.782,1.495q0,.012-.016.012Zm.012-.168q0,.016,0,.016s0-.008,0-.016Zm-.841.658q0,.012,0,.016s0-.005,0-.016Zm.946-.882q-.008.008,0,.008s0,0,0-.008Zm-.1.489q-.008.008,0,.008s0,0,0-.008Zm-.874.921q-.008.008,0,.008S1.789-34.485,1.789-34.49Z" transform="translate(15.317 37.273)" fill="#acafb2" stroke="#acafb2" stroke-width="0.1"/>
          </g>
        </g>
      </g>
      <g id="Group_431" data-name="Group 431" transform="translate(0 1.24)">
        <g id="Group_400" data-name="Group 400" clip-path="url(#clip-path)">
          <path id="Path_505" data-name="Path 505" d="M94.37,104.017a.784.784,0,0,1,.188-.435,1.077,1.077,0,0,1,.516-.347c.236-.072.472-.142.707-.215a1.36,1.36,0,0,0,.569-.318.714.714,0,0,0,.214-.394.266.266,0,0,0-.185-.318.608.608,0,0,0-.165-.026c-.221-.01-.442-.01-.662-.028a.971.971,0,0,1-.34-.075.7.7,0,0,1-.3-.3,1.138,1.138,0,0,1,.13.025,6.6,6.6,0,0,0,.963.1,1.444,1.444,0,0,1,.36.048.576.576,0,0,1,.29.155.414.414,0,0,1,.128.343,1.023,1.023,0,0,1-.48.8,3.188,3.188,0,0,1-.784.363c-.179.062-.359.126-.534.2a1.52,1.52,0,0,0-.51.341,1.251,1.251,0,0,1-.106.084" transform="translate(-91.474 -99.06)" fill="#acafb2"/>
        </g>
        <g id="Group_401" data-name="Group 401" clip-path="url(#clip-path)">
          <path id="Path_506" data-name="Path 506" d="M59.715,35.5c.048-.011.085.043.1.076a1.653,1.653,0,0,0,.307.45,1.761,1.761,0,0,0,1.112.521c.237.026.476.036.713.052a2.787,2.787,0,0,1,.889.175.636.636,0,0,1,.406.459.975.975,0,0,1,.013.3.659.659,0,0,1-.054-.1.988.988,0,0,0-.9-.5c-.355-.023-.711-.042-1.063-.083a1.691,1.691,0,0,1-1.051-.506,1.9,1.9,0,0,1-.405-.654c-.023-.061-.044-.121-.067-.186" transform="translate(-57.784 -34.775)" fill="#acafb2"/>
        </g>
        <g id="Group_402" data-name="Group 402" opacity="0.44" clip-path="url(#clip-path)">
          <path id="Path_507" data-name="Path 507" d="M90.273,81.149c-.02-.037-.041-.072-.06-.108a.6.6,0,0,0-.4-.288,1.517,1.517,0,0,0-.269-.043c-.251-.015-.5-.022-.753-.036a2.374,2.374,0,0,1-.661-.126,1.187,1.187,0,0,1-.557-.447.655.655,0,0,1,.106.049,1.716,1.716,0,0,0,.7.2c.3.024.606.035.908.057a1.318,1.318,0,0,1,.764.25.608.608,0,0,1,.226.357.29.29,0,0,1-.006.138" transform="translate(-84.866 -78.179)" fill="#acafb2"/>
        </g>
        <g id="Group_403" data-name="Group 403" opacity="0.44" clip-path="url(#clip-path)">
          <path id="Path_508" data-name="Path 508" d="M103.993,135.583a.37.37,0,0,1-.061.139.836.836,0,0,1-.426.256c-.114.039-.234.062-.349.1q-.26.078-.519.162a1.03,1.03,0,0,0-.355.2c-.025.022-.052.041-.094.073a.362.362,0,0,1,.037-.135.715.715,0,0,1,.377-.4,1.939,1.939,0,0,1,.506-.155,3.349,3.349,0,0,0,.669-.15c.07-.027.139-.059.215-.092" transform="translate(-99.075 -132.167)" fill="#acafb2"/>
        </g>
        <g id="Group_404" data-name="Group 404" opacity="0.44" clip-path="url(#clip-path)">
          <path id="Path_509" data-name="Path 509" d="M111.713,127.563a.266.266,0,0,1-.153.171,1.083,1.083,0,0,1-.407.122c-.137.02-.275.033-.412.056a1.45,1.45,0,0,0-.576.219.755.755,0,0,0-.087.066.443.443,0,0,1,.135-.276.814.814,0,0,1,.47-.224,2.759,2.759,0,0,1,.323-.032,1.614,1.614,0,0,0,.636-.073c.006,0,.052-.025.07-.03" transform="translate(-106.745 -124.363)" fill="#acafb2"/>
        </g>
        <g id="Group_405" data-name="Group 405" clip-path="url(#clip-path)">
          <path id="Path_510" data-name="Path 510" d="M166.788,47.829a1.017,1.017,0,0,0-.567-.473,1.557,1.557,0,0,0-.156-.05.76.76,0,0,1,.2.126,1.374,1.374,0,0,0-.439.011,1.053,1.053,0,0,1,.329.078.468.468,0,0,0-.343.366l.032.07-.075.149a1.1,1.1,0,0,1,.577.376c.035-.191-.057-.354-.007-.514.164-.04.291.071.434.074a.15.15,0,0,0,.019-.211m-.14-.057c-.009.008-.041-.014-.073-.049s-.051-.068-.042-.076.041.014.073.049.05.068.042.076" transform="translate(-160.878 -46.267)" fill="#acafb2"/>
        </g>
      </g>
      <path id="Path_542" data-name="Path 542" d="M310.307,1581.62h0s-.139-.542.081-.664c.122-.075.3-.042.787.012a5.034,5.034,0,0,0,2.474-.21c-.066.232.014.362-.082.834.143,0,.166,0,.329,0,.126-.622.176-1.151-.411-1.136-.529.122-2.776-.06-2.952.078a.681.681,0,0,0-.285.021c-.016.011-.272-.026-.233.3.026.623.068.745.09.762a.847.847,0,0,0,.2,0Z" transform="translate(-292.463 -1564.963)" fill="#acafb2"/>
    </g>
  </g>
</svg>
