<?xml version="1.0" encoding="utf-8"?>
<!-- Generator: Adobe Illustrator 15.0.0, SVG Export Plug-In . SVG Version: 6.00 Build 0)  -->
<!DOCTYPE svg PUBLIC "-//W3C//DTD SVG 1.1//EN" "http://www.w3.org/Graphics/SVG/1.1/DTD/svg11.dtd">
<svg version="1.1" id="Layer_1" xmlns="http://www.w3.org/2000/svg" xmlns:xlink="http://www.w3.org/1999/xlink" x="0px" y="0px"
	 width="22.498px" height="24.404px" viewBox="0 0 22.498 24.404" enable-background="new 0 0 22.498 24.404" xml:space="preserve">
<g>
	<g>
		<g>
			<path fill="#ADB0B3" stroke="#ADB0B3" stroke-width="0.75" stroke-miterlimit="10" d="M15.658,4.151
				c-0.189,0.328-0.077,0.749,0.251,0.939c2.79,1.612,4.663,4.627,4.663,8.073c0,5.141-4.184,9.324-9.323,9.324
				c-5.141,0-9.323-4.184-9.323-9.324c0-3.447,1.875-6.463,4.662-8.073c0.328-0.19,0.439-0.611,0.251-0.939
				C6.649,3.822,6.229,3.71,5.9,3.9C2.692,5.755,0.553,9.22,0.553,13.163c0,5.912,4.784,10.697,10.696,10.697
				c5.911,0,10.696-4.784,10.696-10.697c0-3.944-2.142-7.408-5.349-9.263C16.269,3.709,15.848,3.822,15.658,4.151z"/>
		</g>
	</g>
	<g>
		<g>
			<path fill="#ADB0B3" stroke="#ADB0B3" stroke-width="0.75" stroke-miterlimit="10" d="M10.521,7.033v4.163
				c0,0.401,0.325,0.728,0.728,0.728s0.728-0.327,0.728-0.728V7.033H10.521z"/>
		</g>
		<g>
			<g>
				<path fill="#ADB0B3" stroke="#ADB0B3" stroke-width="0.75" stroke-miterlimit="10" d="M11.977,10.212v-8.94
					c0-0.401-0.325-0.728-0.728-0.728s-0.728,0.327-0.728,0.728v8.94H11.977z"/>
			</g>
		</g>
	</g>
</g>
</svg>
